﻿<?xml version="1.0" encoding="utf-8"?>
<!DOCTYPE svg PUBLIC "-//W3C//DTD SVG 1.0//EN" "http://www.w3.org/TR/2001/REC-SVG-20010904/DTD/svg10.dtd"[
	<!ENTITY ns_flows "http://ns.adobe.com/Flows/1.0/">
	<!ENTITY ns_svg "http://www.w3.org/2000/svg">
	<!ENTITY ns_xlink "http://www.w3.org/1999/xlink">
	<!ENTITY st0 "font-size:7px;font-family:'MS-PGothic';adobe-font-script:japanese;">
	<!ENTITY st1 "font-size:6px;font-family:'ArialMT';">
	<!-- White fill  -->
	<!ENTITY st2 "fill:#FFFFFF;stroke:#000000; stroke-width:1.41;stroke-linecap:round;stroke-linejoin:round;">
	<!-- Yellow fill  -->
	<!ENTITY st3 "fill:#FFFFCC;stroke:#FFFFCC; stroke-width:0.1;stroke-linecap:round;stroke-linejoin:round;">
	<!-- Gray fill  -->
	<!ENTITY st4 "fill:#CCCCCC;stroke:#CCCCCC; stroke-width:0.1;stroke-linecap:round;stroke-linejoin:round;">
	<!-- Light-blue fill -->
	<!ENTITY st5 "fill:#CCECF4;stroke:#000000; stroke-width:1.133;stroke-linecap:round;stroke-linejoin:round;">
	<!ENTITY st6 "fill:none;stroke-linecap:butt; stroke-linejoin:round;">
	<!ENTITY st7 "fill:none;stroke:#000000;stroke-linecap:round;stroke-linejoin:round;">
	<!ENTITY st8 "enable-background:new    ;">
	<!-- Black fill -->
	<!ENTITY st9 "fill:#000000;stroke:#000000; stroke-linecap:round;stroke-linejoin:round;">
	<!-- SRS note   -->
	<!ENTITY st10 "font-size:9px;font-family:'ArialMT';">
	<!ENTITY st11 "font-size:9px;font-family:'Svg Symbol';">
	<!ENTITY st12 "font-size:6px;font-family:'Svg Symbol';">
	<!ENTITY st13 "fill:none;stroke:#ff0000;stroke-linecap:round;stroke-linejoin:round;">
	<!-- Yellow fill  -->
	<!ENTITY st14 "fill:#FFFF00;stroke:#FFFF00; stroke-width:0.1;stroke-linecap:round;stroke-linejoin:round;">
	<!ENTITY st15 "font-size:6px;font-family:'MS-PGothic';adobe-font-script:japanese;">
	<!ENTITY st16 "1.00 0.00 0.00 1.00">
	<!ENTITY st17 "0.00 -1.00 1.00 0.00">
	<!ENTITY st18 "font-size:6px;font-family:'Arial';">
	<!ENTITY st19 "font-size:9px;font-family:'Arial';">
	<!ENTITY st20 "font-size:6px;font-family:'MS-PGothic','MS PGothic';adobe-font-script:japanese;">
	<!ENTITY st21 "font-size:7px;font-family:'MS-PGothic','MS PGothic';adobe-font-script:japanese;">
	<!ATTLIST svg
		xmlns:ewd CDATA #FIXED "http://shcl.co.jp/ewd"
		xmlns:a CDATA #FIXED "http://ns.adobe.com/AdobeSVGViewerExtensions/3.0/"
		ewd:ver CDATA #IMPLIED
	>
	<!ATTLIST a
		ewd:lineID CDATA #IMPLIED
		ewd:groupID CDATA #IMPLIED
		ewd:figtype CDATA #IMPLIED
		ewd:code CDATA #IMPLIED
		ewd:figID CDATA #IMPLIED
		ewd:pinNo CDATA #IMPLIED
		ewd:comment CDATA #IMPLIED >
	<!ATTLIST g
		ewd:lineID CDATA #IMPLIED
		ewd:groupID CDATA #IMPLIED
		ewd:figtype CDATA #IMPLIED
		ewd:code CDATA #IMPLIED
		ewd:figID CDATA #IMPLIED
		ewd:pinNo CDATA #IMPLIED
		ewd:comment CDATA #IMPLIED >
	<!ATTLIST text
		ewd:textID CDATA #IMPLIED >
	<!ATTLIST title
		ewd:textID CDATA #IMPLIED >
]>
<!-- Generator: Shintec Hozumi YS   -->
<svg onload="call_execInitLoadProc_svg('system')" style="overflow:visible;  enable-background:new 0 0 2068.527 710.000" viewBox="0 0 2068.527 710.000" height="710.000" width="2068.527" xml:space="preserve" ewd:ver="2.1.2.9" xmlns="&ns_svg;" xmlns:a="http://ns.adobe.com/AdobeSVGViewerExtensions/3.0/" xmlns:ewd="http://shcl.co.jp/ewd" xmlns:xlink="&ns_xlink;"><script type="text/javascript" xlink:href="../../../../../system/js/ewd/fig/svgfig.js" xmlns:xlink="http://www.w3.org/1999/xlink" />
<g id="ewd_top"><a ewd:figtype="rb" style="cursor:pointer;" ewd:code="FUSE26" ewd:figID="1"><path style="fill:#CCECF4;stroke:#000000; stroke-width:0; stroke-linecap:round;stroke-linejoin:round; " d=" M    80.74,    35.78  L    80.74,    78.27  L   106.23,    78.27  L   106.23,    35.78  L    80.74,    35.78 " /></a><a ewd:figtype="conn" style="cursor:pointer;" ewd:code="F75" ewd:figID="2"><path style="fill:#CCECF4;stroke:#000000; stroke-width:1.133; stroke-linecap:round;stroke-linejoin:round; " d=" M   917.85,   554.19  L   934.84,   554.19  L   934.84,   571.19  L   917.85,   571.19  L   917.85,   554.19 " /><title ewd:textID="20">No. 7 Junction Connector</title></a><a ewd:figtype="rb" style="cursor:pointer;" ewd:code="FUSE27" ewd:figID="3"><path style="fill:#CCECF4;stroke:#000000; stroke-width:0; stroke-linecap:round;stroke-linejoin:round; " d=" M   174.22,    35.78  L   174.22,    78.27  L   199.72,    78.27  L   199.72,    35.78  L   174.22,    35.78 " /></a><a ewd:figtype="conn" style="cursor:pointer;" ewd:code="G1" ewd:figID="4"><path style="fill:#CCECF4;stroke:#000000; stroke-width:1.133; stroke-linecap:round;stroke-linejoin:round; " d=" M   756.37,   265.24  L   858.36,   265.24  L   858.36,   231.25  L   756.37,   231.25  L   756.37,   265.24 " /><title ewd:textID="5">Automatic Light Control Sensor</title></a><a ewd:figtype="conn" style="cursor:pointer;" ewd:code="F71" ewd:figID="5"><path style="fill:#CCECF4;stroke:#000000; stroke-width:1.133; stroke-linecap:round;stroke-linejoin:round; " d=" M  1334.28,   222.75  L  1385.27,   222.75  L  1385.27,   239.75  L  1334.28,   239.75  L  1334.28,   222.75 " /><title ewd:textID="17">No. 3 CAN Junction Connector</title></a><a ewd:figtype="conn" style="cursor:pointer;" ewd:code="M77" ewd:figID="6"><path style="fill:#CCECF4;stroke:#000000; stroke-width:1.133; stroke-linecap:round;stroke-linejoin:round; " d=" M  1079.32,   256.74  L  1079.32,   273.74  L  1096.32,   273.74  L  1096.32,   256.74  L  1079.32,   256.74 " /><title ewd:textID="24">No. 25 Junction Connector</title></a><a ewd:figtype="conn" style="cursor:pointer;" ewd:code="M6" ewd:figID="7"><path style="fill:#CCECF4;stroke:#000000; stroke-width:1.133; stroke-linecap:round;stroke-linejoin:round; " d=" M  1096.32,   418.22  L  1096.32,   384.22  L  1079.32,   384.22  L  1079.32,   418.22  L  1096.32,   418.22 " /><title ewd:textID="9">Front Door Courtesy Light Switch Assembly LH</title></a><a ewd:figtype="conn" style="cursor:pointer;" ewd:code="F86" ewd:figID="8"><path style="fill:#CCECF4;stroke:#000000; stroke-width:1.133; stroke-linecap:round;stroke-linejoin:round; " d=" M   977.34,   554.19  L   994.33,   554.19  L   994.33,   571.19  L   977.34,   571.19  L   977.34,   554.19 " /><title ewd:textID="23">No. 18 Junction Connector</title></a><a ewd:figtype="conn" style="cursor:pointer;" ewd:code="F64" ewd:figID="9"><path style="fill:#CCECF4;stroke:#000000; stroke-width:1.133; stroke-linecap:round;stroke-linejoin:round; " d=" M   764.87,   350.23  L   764.87,   469.21  L  1019.83,   469.21  L  1019.83,   350.23  L   764.87,   350.23 " /><title ewd:textID="14">Headlight Dimmer Switch Assembly</title></a><a ewd:figtype="conn" style="cursor:pointer;" ewd:code="M48" ewd:figID="10"><path style="fill:#CCECF4;stroke:#000000; stroke-width:1.133; stroke-linecap:round;stroke-linejoin:round; " d=" M  1164.31,   418.22  L  1164.31,   384.22  L  1147.31,   384.22  L  1147.31,   418.22  L  1164.31,   418.22 " /><title ewd:textID="10">Front Door Courtesy Light Switch Assembly RH</title></a><a ewd:figtype="conn" style="cursor:pointer;" ewd:code="M14,M23" ewd:figID="11"><path style="fill:#CCECF4;stroke:#000000; stroke-width:1.133; stroke-linecap:round;stroke-linejoin:round; " d=" M  1589.23,   248.24  L  1589.23,   282.24  L  1708.21,   282.24  L  1708.21,   248.24  L  1589.23,   248.24 " /><title ewd:textID="29">Tire Pressure Warning Antenna and Receiver (Electrical Key &amp; Tire Pressure Monitoring System Receiver Assembly) , Smart Door Control Receiver Assembly</title></a><a ewd:figtype="conn" style="cursor:pointer;" ewd:code="F71" ewd:figID="12"><path style="fill:#CCECF4;stroke:#000000; stroke-width:1.133; stroke-linecap:round;stroke-linejoin:round; " d=" M  1215.30,   222.75  L  1266.29,   222.75  L  1266.29,   239.75  L  1215.30,   239.75  L  1215.30,   222.75 " /><title ewd:textID="17">No. 3 CAN Junction Connector</title></a><a ewd:figtype="conn" style="cursor:pointer;" ewd:code="F74,F79" ewd:figID="13"><path style="fill:#CCECF4;stroke:#000000; stroke-width:1.133; stroke-linecap:round;stroke-linejoin:round; " d=" M  1929.18,   180.26  L  1946.17,   180.26  L  1946.17,   197.25  L  1929.18,   197.25  L  1929.18,   180.26 " /><title ewd:textID="19">No. 6 Junction Connector , No. 11 Junction Connector</title></a><a ewd:figtype="conn" style="cursor:pointer;" ewd:code="F75" ewd:figID="14"><path style="fill:#CCECF4;stroke:#000000; stroke-width:1.133; stroke-linecap:round;stroke-linejoin:round; " d=" M  1937.68,   588.19  L  1954.67,   588.19  L  1954.67,   605.18  L  1937.68,   605.18  L  1937.68,   588.19 " /><title ewd:textID="20">No. 7 Junction Connector</title></a><a ewd:figtype="conn" style="cursor:pointer;" ewd:code="F83" ewd:figID="15"><path style="fill:#CCECF4;stroke:#000000; stroke-width:1.133; stroke-linecap:round;stroke-linejoin:round; " d=" M  1980.17,   588.19  L  1997.17,   588.19  L  1997.17,   605.18  L  1980.17,   605.18  L  1980.17,   588.19 " /><title ewd:textID="22">No. 15 Junction Connector</title></a><a ewd:figtype="conn" style="cursor:pointer;" ewd:code="F17" ewd:figID="16"><path style="fill:#CCECF4;stroke:#000000; stroke-width:1.133; stroke-linecap:round;stroke-linejoin:round; " d=" M   543.91,    44.28  L  1393.77,    44.28  L  1393.77,    86.77  L   543.91,    86.77  L   543.91,    44.28 " /><title ewd:textID="16">Main Body ECU</title></a><a ewd:figtype="conn" style="cursor:pointer;" ewd:code="F1,M59" ewd:figID="17"><path style="fill:#CCECF4;stroke:#000000; stroke-width:1.133; stroke-linecap:round;stroke-linejoin:round; " d=" M  1444.76,    44.28  L  1708.21,    44.28  L  1708.21,    86.77  L  1444.76,    86.77  L  1444.76,    44.28 " /><title ewd:textID="7">Certification ECU</title></a><a ewd:figtype="conn" style="cursor:pointer;" ewd:code="F6" ewd:figID="18"><path style="fill:#CCECF4;stroke:#000000; stroke-width:1.133; stroke-linecap:round;stroke-linejoin:round; " d=" M  1759.21,   248.24  L  1759.21,   494.70  L  2048.16,   494.70  L  2048.16,   248.24  L  1759.21,   248.24 " /><title ewd:textID="8">Combination Meter Assembly</title></a><a ewd:figtype="jb" style="cursor:pointer;" ewd:code="1" ewd:figID="21"><path style="&st4; " d=" M   152.97,   188.75  L   152.97,   307.73  L   246.46,   307.73  L   246.46,   188.75  L   152.97,   188.75  " /></a><a ewd:figtype="jb" style="cursor:pointer;" ewd:code="1" ewd:figID="22"><path style="&st4; " d=" M    25.50,   307.73  L   135.98,   307.73  L   135.98,   188.75  L    25.50,   188.75  L    25.50,   307.73  " /></a><a ewd:figtype="jb" style="cursor:pointer;" ewd:code="3" ewd:figID="23"><path style="&st4; " d=" M  1776.20,    35.78  L  1776.20,   103.77  L  1920.68,   103.77  L  1920.68,    35.78  L  1776.20,    35.78  " /></a><a ewd:figtype="jb" style="cursor:pointer;" ewd:code="3" ewd:figID="24"><path style="&st4; " d=" M   263.46,    35.78  L   263.46,   163.26  L   628.89,   163.26  L   628.89,    86.77  L   467.42,    86.77  L   467.42,    35.78  L   263.46,    35.78  " /></a><a ewd:figtype="jb" style="cursor:pointer;" ewd:code="3" ewd:figID="25"><path style="&st4; " d=" M   679.89,    86.77  L   679.89,   163.26  L   739.38,   163.26  L   739.38,    86.77  L   679.89,    86.77  " /></a><a ewd:figtype="fuse" style="cursor:pointer;" ewd:code="FUSE26" ewd:figID="40"><path style="&st7; stroke-width:0;" d=" M    80.74,    35.78  L    80.74,    78.27  L   106.23,    78.27  L   106.23,    35.78  L    80.74,    35.78 " /></a><a ewd:figtype="fuse" style="cursor:pointer;" ewd:code="FUSE27" ewd:figID="41"><path style="&st7; stroke-width:0;" d=" M   174.22,    35.78  L   174.22,    78.27  L   199.72,    78.27  L   199.72,    35.78  L   174.22,    35.78 " /></a><a ewd:figtype="fuse" style="cursor:pointer;" ewd:code="FUSE70" ewd:figID="42"><path style="&st7; stroke-width:0;" d=" M   267.71,    35.78  L   267.71,    78.27  L   293.20,    78.27  L   293.20,    35.78  L   267.71,    35.78 " /></a><a ewd:figtype="fuse" style="cursor:pointer;" ewd:code="FUSE51" ewd:figID="43"><path style="&st7; stroke-width:0;" d=" M   335.69,    35.78  L   335.69,    78.27  L   361.19,    78.27  L   361.19,    35.78  L   335.69,    35.78 " /></a><a ewd:figtype="fuse" style="cursor:pointer;" ewd:code="FUSE69" ewd:figID="44"><path style="&st7; stroke-width:0;" d=" M   403.68,    35.78  L   403.68,    78.27  L   429.18,    78.27  L   429.18,    35.78  L   403.68,    35.78 " /></a><a ewd:figtype="fuse" style="cursor:pointer;" ewd:code="FUSE57" ewd:figID="45"><path style="&st7; stroke-width:0;" d=" M  1780.45,    35.78  L  1780.45,    78.27  L  1805.95,    78.27  L  1805.95,    35.78  L  1780.45,    35.78 " /></a><a ewd:figtype="fuse" style="cursor:pointer;" ewd:code="FUSE69" ewd:figID="46"><path style="&st7; stroke-width:0;" d=" M  1856.94,    35.78  L  1856.94,    78.27  L  1882.44,    78.27  L  1882.44,    35.78  L  1856.94,    35.78 " /></a><a style="cursor:pointer;" ewd:lineID="1"><path style="stroke:#008837;stroke-width: 5.10 ;&st6;" d=" M    67.99,   307.73  L    67.99,   571.19  L   696.88,   571.19  L   696.88,   163.26  " /></a><a style="cursor:pointer;" ewd:lineID="2"><path style="stroke:#FF0000;stroke-width: 5.10 ;&st6;" d=" M    93.48,   103.77  L    93.48,   188.75  " /></a><a style="cursor:pointer;" ewd:lineID="3"><path style="stroke:#00A0C6;stroke-width: 5.10 ;&st6;" d=" M   186.97,   103.77  L   186.97,   188.75  " /></a><a style="cursor:pointer;" ewd:lineID="4"><path style="stroke:#C3AF96;stroke-width: 5.10 ;&st6;" d=" M   212.46,   373.46  L   212.46,   469.21  L   654.39,   469.21  L   654.39,    95.84  " /></a><a style="cursor:pointer;" ewd:lineID="5"><path style="stroke:#C3AF96;stroke-width: 5.10 ;&st6;" d=" M   212.46,   307.73  L   212.46,   350.23  " /></a><a style="cursor:pointer;" ewd:lineID="6"><path style="stroke:#000000;stroke-width: 5.10 ;&st6;" d=" M   730.88,   163.26  L   730.88,   681.67  " /><path style="stroke:#FFFFFF;stroke-width: 4.53 ;&st6;" d=" M   730.88,   163.26  L   730.88,   681.67  " /><path style="stroke:#000000;stroke-width: 1.13 ;&st6;" d=" M   730.88,   163.26  L   730.88,   681.67  " /></a><a style="cursor:pointer;" ewd:lineID="7"><path style="stroke:#00A0C6;stroke-width: 5.10 ;&st6;" d=" M   773.37,   163.26  L   773.37,   231.25  " /></a><a style="cursor:pointer;" ewd:lineID="8"><path style="stroke:#992903;stroke-width: 5.10 ;&st6;" d=" M   773.37,    95.84  L   773.37,   148.53  " /></a><a style="cursor:pointer;" ewd:lineID="9"><path style="stroke:#FF0000;stroke-width: 5.10 ;&st6;" d=" M   807.37,   231.25  L   807.37,   163.26  " /></a><a style="cursor:pointer;" ewd:lineID="10"><path style="stroke:#FF0000;stroke-width: 5.10 ;&st6;" d=" M   807.37,   148.53  L   807.37,    95.84  " /></a><a style="cursor:pointer;" ewd:lineID="11"><path style="stroke:#008837;stroke-width: 5.10 ;&st6;" d=" M   841.36,   163.26  L   841.36,   231.25  " /></a><a style="cursor:pointer;" ewd:lineID="12"><path style="stroke:#008837;stroke-width: 5.10 ;&st6;" d=" M   841.36,   148.53  L   841.36,    95.84  " /></a><a style="cursor:pointer;" ewd:lineID="13"> d=" M   883.85,    95.84  L   883.85,   332.10 
	
		<path style="stroke:#000000;stroke-width: 5.10 ;&st6;" d=" M   883.85,    95.84  L   883.85,   332.10  " /><path style="stroke:#FFFFFF;stroke-width: 4.53 ;&st6;" d=" M   883.85,    95.84  L   883.85,   332.10  " /></a><a style="cursor:pointer;" ewd:lineID="14"><path style="stroke:#C3AF96;stroke-width: 5.10 ;&st6;" d=" M   917.85,    95.84  L   917.85,   332.10  " /></a><a style="cursor:pointer;" ewd:lineID="15"><path style="stroke:#000000;stroke-width: 5.10 ;&st6;" d=" M   926.35,   571.19  L   926.35,   681.67  " /><path style="stroke:#FFFFFF;stroke-width: 4.53 ;&st6;" d=" M   926.35,   571.19  L   926.35,   681.67  " /><path style="stroke:#000000;stroke-width: 1.13 ;&st6;" d=" M   926.35,   571.19  L   926.35,   681.67  " /></a><a style="cursor:pointer;" ewd:lineID="16"><path style="stroke:#992903;stroke-width: 5.10 ;&st6;" d=" M   926.35,   554.19  L   926.35,   503.20  L   977.34,   503.20  L   985.84,   494.70  L   985.84,   487.34  " /></a><a style="cursor:pointer;" ewd:lineID="17"><path style="stroke:#008837;stroke-width: 5.10 ;&st6;" d=" M   951.84,    95.84  L   951.84,   332.10  " /></a><a style="cursor:pointer;" ewd:lineID="18"><path style="stroke:#000000;stroke-width: 5.10 ;&st6;" d=" M   985.84,   571.19  L   985.84,   681.67  " /><path style="stroke:#FFFFFF;stroke-width: 4.53 ;&st6;" d=" M   985.84,   571.19  L   985.84,   681.67  " /><path style="stroke:#000000;stroke-width: 1.13 ;&st6;" d=" M   985.84,   571.19  L   985.84,   681.67  " /></a><a style="cursor:pointer;" ewd:lineID="19"><path style="stroke:#992903;stroke-width: 5.10 ;&st6;" d=" M   985.84,   554.19  L   985.84,   487.34  " /></a><a style="cursor:pointer;" ewd:lineID="20"><path style="stroke:#992903;stroke-width: 5.10 ;&st6;" d=" M  1087.82,   384.22  L  1087.82,   273.74  " /></a><a style="cursor:pointer;" ewd:lineID="21"><path style="stroke:#992903;stroke-width: 5.10 ;&st6;" d=" M  1087.82,   180.26  L  1087.82,   256.74  " /></a><a style="cursor:pointer;" ewd:lineID="22"><path style="stroke:#992903;stroke-width: 5.10 ;&st6;" d=" M  1087.82,    95.84  L  1087.82,   165.52  " /></a><a style="cursor:pointer;" ewd:lineID="23"><path style="stroke:#FF0000;stroke-width: 5.10 ;&st6;" d=" M  1155.81,   273.74  L  1155.81,   384.22  " /></a><a style="cursor:pointer;" ewd:lineID="24"><path style="stroke:#00A0C6;stroke-width: 5.10 ;&st6;" d=" M  1155.81,   180.26  L  1155.81,   256.74  " /></a><a style="cursor:pointer;" ewd:lineID="25"><path style="stroke:#00A0C6;stroke-width: 5.10 ;&st6;" d=" M  1155.81,    95.84  L  1155.81,   165.52  " /></a><a style="cursor:pointer;" ewd:lineID="26"> d=" M  1223.80,    95.84  L  1223.80,   222.75 
	
		<path style="stroke:#000000;stroke-width: 5.10 ;&st6;" d=" M  1223.80,    95.84  L  1223.80,   222.75  " /><path style="stroke:#FFFFFF;stroke-width: 4.53 ;&st6;" d=" M  1223.80,    95.84  L  1223.80,   222.75  " /></a><a style="cursor:pointer;" ewd:lineID="27"><path style="stroke:#99D9E8;stroke-width: 5.10 ;&st6;" d=" M  1257.79,    95.84  L  1257.79,   222.75  " /></a><a style="cursor:pointer;" ewd:lineID="28"> d=" M  1342.78,    95.84  L  1342.78,   222.75 
	
		<path style="stroke:#000000;stroke-width: 5.10 ;&st6;" d=" M  1342.78,    95.84  L  1342.78,   222.75  " /><path style="stroke:#FFFFFF;stroke-width: 4.53 ;&st6;" d=" M  1342.78,    95.84  L  1342.78,   222.75  " /></a><a style="cursor:pointer;" ewd:lineID="29"><path style="stroke:#99D9E8;stroke-width: 5.10 ;&st6;" d=" M  1376.77,    95.84  L  1376.77,   222.75  " /></a><a style="cursor:pointer;" ewd:lineID="30"><path style="stroke:#FF0000;stroke-width: 5.10 ;&st6;" d=" M  1461.76,    95.84  L  1461.76,   316.23  L  1376.77,   316.23  L  1376.77,   239.75  " /></a><a style="cursor:pointer;" ewd:lineID="31"> d=" M  1504.25,    95.84  L  1504.25,   333.23  L  1342.78,   333.23  L  1342.78,   239.75 
	
		<path style="stroke:#000000;stroke-width: 5.10 ;&st6;" d=" M  1504.25,    95.84  L  1504.25,   333.23  L  1342.78,   333.23  L  1342.78,   239.75  " /><path style="stroke:#FFFFFF;stroke-width: 4.53 ;&st6;" d=" M  1504.25,    95.84  L  1504.25,   333.23  L  1342.78,   333.23  L  1342.78,   239.75  " /></a><a style="cursor:pointer;" ewd:lineID="32"><path style="stroke:#000000;stroke-width: 5.10 ;&st6;" d=" M  1606.23,   300.37  L  1606.23,   681.67  " /><path style="stroke:#FFFFFF;stroke-width: 4.53 ;&st6;" d=" M  1606.23,   300.37  L  1606.23,   681.67  " /><path style="stroke:#000000;stroke-width: 1.13 ;&st6;" d=" M  1606.23,   300.37  L  1606.23,   681.67  " /></a><a style="cursor:pointer;" ewd:lineID="33"><path style="stroke:#56077D;stroke-width: 5.10 ;&st6;" d=" M  1606.23,    95.84  L  1606.23,   230.11  " /></a><a style="cursor:pointer;" ewd:lineID="34"><path style="stroke:#F668B2;stroke-width: 5.10 ;&st6;" d=" M  1648.72,    95.84  L  1648.72,   230.11  " /></a><a style="cursor:pointer;" ewd:lineID="35"><path style="stroke:#008837;stroke-width: 5.10 ;&st6;" d=" M  1691.22,    95.84  L  1691.22,   230.11  " /></a><a style="cursor:pointer;" ewd:lineID="36"><path style="stroke:#008837;stroke-width: 5.10 ;&st6;" d=" M  1793.20,   239.18  L  1793.20,   103.77  " /></a><a style="cursor:pointer;" ewd:lineID="37"><path style="stroke:#99D9E8;stroke-width: 5.10 ;&st6;" d=" M  1869.69,   103.77  L  1869.69,   231.25  L  1937.68,   231.25  L  1937.68,   215.38  " /></a><a style="cursor:pointer;" ewd:lineID="38"><path style="stroke:#56077D;stroke-width: 5.10 ;&st6;" d=" M  1878.19,   503.77  L  1878.19,   630.68  L  1257.79,   630.68  L  1257.79,   239.75  " /></a><a style="cursor:pointer;" ewd:lineID="39"> d=" M  1912.18,   503.77  L  1912.18,   656.18  L  1223.80,   656.18  L  1223.80,   239.75 
	
		<path style="stroke:#000000;stroke-width: 5.10 ;&st6;" d=" M  1912.18,   503.77  L  1912.18,   656.18  L  1223.80,   656.18  L  1223.80,   239.75  " /><path style="stroke:#FFFFFF;stroke-width: 4.53 ;&st6;" d=" M  1912.18,   503.77  L  1912.18,   656.18  L  1223.80,   656.18  L  1223.80,   239.75  " /></a><a style="cursor:pointer;" ewd:lineID="40"><path style="stroke:#000000;stroke-width: 5.10 ;&st6;" d=" M  1946.17,   605.18  L  1946.17,   681.67  " /><path style="stroke:#FFFFFF;stroke-width: 4.53 ;&st6;" d=" M  1946.17,   605.18  L  1946.17,   681.67  " /><path style="stroke:#000000;stroke-width: 1.13 ;&st6;" d=" M  1946.17,   605.18  L  1946.17,   681.67  " /></a><a style="cursor:pointer;" ewd:lineID="41"><path style="stroke:#000000;stroke-width: 5.10 ;&st6;" d=" M  1946.17,   588.19  L  1946.17,   520.20  L  1980.17,   520.20  L  1988.67,   511.70  L  1988.67,   503.77  " /><path style="stroke:#FFFFFF;stroke-width: 4.53 ;&st6;" d=" M  1946.17,   588.19  L  1946.17,   520.20  L  1980.17,   520.20  L  1988.67,   511.70  L  1988.67,   503.77  " /><path style="stroke:#000000;stroke-width: 1.13 ;&st6;" d=" M  1946.17,   588.19  L  1946.17,   520.20  L  1980.17,   520.20  L  1988.67,   511.70  L  1988.67,   503.77  " /></a><a style="cursor:pointer;" ewd:lineID="42"><path style="stroke:#999999;stroke-width: 5.10 ;&st6;" d=" M  1980.17,   239.18  L  1980.17,   231.25  L  1988.67,   222.75  L  2005.66,   222.75  L  2005.66,   129.26  L  1937.68,   129.26  L  1937.68,   162.12  " /></a><a style="cursor:pointer;" ewd:lineID="43"> d=" M  1980.17,   239.18  L  1980.17,   146.26  L  1946.17,   146.26  L  1937.68,   154.76  L  1937.68,   162.12 
	
		<path style="stroke:#000000;stroke-width: 5.10 ;&st6;" d=" M  1980.17,   239.18  L  1980.17,   146.26  L  1946.17,   146.26  L  1937.68,   154.76  L  1937.68,   162.12  " /><path style="stroke:#FFFFFF;stroke-width: 4.53 ;&st6;" d=" M  1980.17,   239.18  L  1980.17,   146.26  L  1946.17,   146.26  L  1937.68,   154.76  L  1937.68,   162.12  " /></a><a style="cursor:pointer;" ewd:lineID="44"><path style="stroke:#000000;stroke-width: 5.10 ;&st6;" d=" M  1988.67,   605.18  L  1988.67,   681.67  " /><path style="stroke:#FFFFFF;stroke-width: 4.53 ;&st6;" d=" M  1988.67,   605.18  L  1988.67,   681.67  " /><path style="stroke:#000000;stroke-width: 1.13 ;&st6;" d=" M  1988.67,   605.18  L  1988.67,   681.67  " /></a><a style="cursor:pointer;" ewd:lineID="45"><path style="stroke:#000000;stroke-width: 5.10 ;&st6;" d=" M  1988.67,   503.77  L  1988.67,   588.19  " /><path style="stroke:#FFFFFF;stroke-width: 4.53 ;&st6;" d=" M  1988.67,   503.77  L  1988.67,   588.19  " /><path style="stroke:#000000;stroke-width: 1.13 ;&st6;" d=" M  1988.67,   503.77  L  1988.67,   588.19  " /></a><a ewd:figtype="w2w" style="cursor:pointer;" ewd:pinNo="24" ewd:code="AF1" ewd:figID="26"><path style="&st2;" d=" M   220.96,   358.73  L   203.97,   358.73  L   203.97,   367.22  L   220.96,   367.22  L   220.96,   358.73 " /><text style="&st8;" transform="matrix(&st16;  207.16  365.09 )"><tspan x="0" style="&st18;" y="0">AF1</tspan></text></a><a ewd:figtype="w2w" style="cursor:pointer;" ewd:pinNo="29" ewd:code="AF1" ewd:figID="27"><path style="&st2;" d=" M   220.96,   350.23  L   203.97,   350.23  L   203.97,   358.73  L   220.96,   358.73  L   220.96,   350.23 " /><text style="&st8;" transform="matrix(&st16;  207.16  356.6 )"><tspan x="0" style="&st18;" y="0">AF1</tspan></text></a><a ewd:figtype="w2w" style="cursor:pointer;" ewd:pinNo="5" ewd:code="GF1" ewd:figID="28"><path style="&st2;" d=" M   781.87,   154.76  L   764.87,   154.76  L   764.87,   163.26  L   781.87,   163.26  L   781.87,   154.76 " /><text style="&st8;" transform="matrix(&st16;  767.92  161.13 )"><tspan x="0" style="&st18;" y="0">GF1</tspan></text></a><a ewd:figtype="w2w" style="cursor:pointer;" ewd:pinNo="6" ewd:code="GF1" ewd:figID="29"><path style="&st2;" d=" M   815.86,   154.76  L   798.87,   154.76  L   798.87,   163.26  L   815.86,   163.26  L   815.86,   154.76 " /><text style="&st8;" transform="matrix(&st16;  801.91  161.13 )"><tspan x="0" style="&st18;" y="0">GF1</tspan></text></a><a ewd:figtype="w2w" style="cursor:pointer;" ewd:pinNo="14" ewd:code="GF1" ewd:figID="30"><path style="&st2;" d=" M   849.86,   154.76  L   832.86,   154.76  L   832.86,   163.26  L   849.86,   163.26  L   849.86,   154.76 " /><text style="&st8;" transform="matrix(&st16;  835.9  161.13 )"><tspan x="0" style="&st18;" y="0">GF1</tspan></text></a><a ewd:figtype="w2w" style="cursor:pointer;" ewd:pinNo="13" ewd:code="MF1" ewd:figID="31"><path style="&st2;" d=" M  1096.32,   171.76  L  1079.32,   171.76  L  1079.32,   180.26  L  1096.32,   180.26  L  1096.32,   171.76 " /><text style="&st8;" transform="matrix(&st16;  1082.1  178.13 )"><tspan x="0" style="&st18;" y="0">MF1</tspan></text></a><a ewd:figtype="w2w" style="cursor:pointer;" ewd:pinNo="35" ewd:code="MF2" ewd:figID="32"><path style="&st2;" d=" M  1164.31,   171.76  L  1147.31,   171.76  L  1147.31,   180.26  L  1164.31,   180.26  L  1164.31,   171.76 " /><text style="&st8;" transform="matrix(&st16;  1150.09  178.13 )"><tspan x="0" style="&st18;" y="0">MF2</tspan></text></a><a ewd:figtype="gp" style="cursor:pointer;" ewd:code="FA" ewd:figID="33"><path style="&st2;" d=" M   720.25,   681.67  L   741.50,   681.67  L   730.88,   697.25  L   720.25,   681.67 " /><text style="&st8;" transform="matrix(&st16;  727.08  689.46 )"><tspan x="0" style="&st18;" y="0">FA</tspan></text></a><a ewd:figtype="gp" style="cursor:pointer;" ewd:code="FA" ewd:figID="34"><path style="&st2;" d=" M   915.72,   681.67  L   936.97,   681.67  L   926.35,   697.25  L   915.72,   681.67 " /><text style="&st8;" transform="matrix(&st16;  922.55  689.46 )"><tspan x="0" style="&st18;" y="0">FA</tspan></text></a><a ewd:figtype="gp" style="cursor:pointer;" ewd:code="FD" ewd:figID="35"><path style="&st2;" d=" M   975.21,   681.67  L   996.46,   681.67  L   985.84,   697.25  L   975.21,   681.67 " /><text style="&st8;" transform="matrix(&st16;  981.96  689.46 )"><tspan x="0" style="&st18;" y="0">FD</tspan></text></a><a ewd:figtype="gp" style="cursor:pointer;" ewd:code="MB" ewd:figID="36"><path style="&st2;" d=" M  1595.61,   681.67  L  1616.85,   681.67  L  1606.23,   697.25  L  1595.61,   681.67 " /><text style="&st8;" transform="matrix(&st16;  1601.94  689.46 )"><tspan x="0" style="&st18;" y="0">MB</tspan></text></a><a ewd:figtype="gp" style="cursor:pointer;" ewd:code="FA" ewd:figID="37"><path style="&st2;" d=" M  1935.55,   681.67  L  1956.80,   681.67  L  1946.17,   697.25  L  1935.55,   681.67 " /><text style="&st8;" transform="matrix(&st16;  1942.37  689.46 )"><tspan x="0" style="&st18;" y="0">FA</tspan></text></a><a ewd:figtype="gp" style="cursor:pointer;" ewd:code="FD" ewd:figID="38"><path style="&st2;" d=" M  1978.04,   681.67  L  1999.29,   681.67  L  1988.67,   697.25  L  1978.04,   681.67 " /><text style="&st8;" transform="matrix(&st16;  1984.79  689.46 )"><tspan x="0" style="&st18;" y="0">FD</tspan></text></a><a ewd:figtype="sp" style="cursor:pointer;" ewd:code="SP38" ewd:figID="39"><path style="&st2;" d=" M  1151.56,   256.74  L  1160.06,   256.74  L  1164.31,   260.99  L  1164.31,   269.49  L  1160.06,   273.74  L  1151.56,   273.74  L  1147.31,   269.49  L  1147.31,   260.99  L  1151.56,   256.74 " /></a></g></svg>