﻿<?xml version="1.0" encoding="utf-8"?>
<!DOCTYPE svg PUBLIC "-//W3C//DTD SVG 1.0//EN" "http://www.w3.org/TR/2001/REC-SVG-20010904/DTD/svg10.dtd"[
	<!ENTITY ns_flows "http://ns.adobe.com/Flows/1.0/">
	<!ENTITY ns_svg "http://www.w3.org/2000/svg">
	<!ENTITY ns_xlink "http://www.w3.org/1999/xlink">
	<!ENTITY st0 "font-size:7px;font-family:'MS-PGothic';adobe-font-script:japanese;">
	<!ENTITY st1 "font-size:6px;font-family:'ArialMT';">
	<!-- White fill  -->
	<!ENTITY st2 "fill:#FFFFFF;stroke:#000000; stroke-width:1.41;stroke-linecap:round;stroke-linejoin:round;">
	<!-- Yellow fill  -->
	<!ENTITY st3 "fill:#FFFFCC;stroke:#FFFFCC; stroke-width:0.1;stroke-linecap:round;stroke-linejoin:round;">
	<!-- Gray fill  -->
	<!ENTITY st4 "fill:#CCCCCC;stroke:#CCCCCC; stroke-width:0.1;stroke-linecap:round;stroke-linejoin:round;">
	<!-- Light-blue fill -->
	<!ENTITY st5 "fill:#CCECF4;stroke:#000000; stroke-width:1.133;stroke-linecap:round;stroke-linejoin:round;">
	<!ENTITY st6 "fill:none;stroke-linecap:butt; stroke-linejoin:round;">
	<!ENTITY st7 "fill:none;stroke:#000000;stroke-linecap:round;stroke-linejoin:round;">
	<!ENTITY st8 "enable-background:new    ;">
	<!-- Black fill -->
	<!ENTITY st9 "fill:#000000;stroke:#000000; stroke-linecap:round;stroke-linejoin:round;">
	<!-- SRS note   -->
	<!ENTITY st10 "font-size:9px;font-family:'ArialMT';">
	<!ENTITY st11 "font-size:9px;font-family:'Svg Symbol';">
	<!ENTITY st12 "font-size:6px;font-family:'Svg Symbol';">
	<!ENTITY st13 "fill:none;stroke:#ff0000;stroke-linecap:round;stroke-linejoin:round;">
	<!-- Yellow fill  -->
	<!ENTITY st14 "fill:#FFFF00;stroke:#FFFF00; stroke-width:0.1;stroke-linecap:round;stroke-linejoin:round;">
	<!ENTITY st15 "font-size:6px;font-family:'MS-PGothic';adobe-font-script:japanese;">
	<!ENTITY st16 "1.00 0.00 0.00 1.00">
	<!ENTITY st17 "0.00 -1.00 1.00 0.00">
	<!ENTITY st18 "font-size:6px;font-family:'Arial';">
	<!ENTITY st19 "font-size:9px;font-family:'Arial';">
	<!ENTITY st20 "font-size:6px;font-family:'MS-PGothic','MS PGothic';adobe-font-script:japanese;">
	<!ENTITY st21 "font-size:7px;font-family:'MS-PGothic','MS PGothic';adobe-font-script:japanese;">
	<!ATTLIST svg
		xmlns:ewd CDATA #FIXED "http://shcl.co.jp/ewd"
		xmlns:a CDATA #FIXED "http://ns.adobe.com/AdobeSVGViewerExtensions/3.0/"
		ewd:ver CDATA #IMPLIED
	>
	<!ATTLIST a
		ewd:lineID CDATA #IMPLIED
		ewd:groupID CDATA #IMPLIED
		ewd:figtype CDATA #IMPLIED
		ewd:code CDATA #IMPLIED
		ewd:figID CDATA #IMPLIED
		ewd:pinNo CDATA #IMPLIED
		ewd:comment CDATA #IMPLIED >
	<!ATTLIST g
		ewd:lineID CDATA #IMPLIED
		ewd:groupID CDATA #IMPLIED
		ewd:figtype CDATA #IMPLIED
		ewd:code CDATA #IMPLIED
		ewd:figID CDATA #IMPLIED
		ewd:pinNo CDATA #IMPLIED
		ewd:comment CDATA #IMPLIED >
	<!ATTLIST text
		ewd:textID CDATA #IMPLIED >
	<!ATTLIST title
		ewd:textID CDATA #IMPLIED >
]>
<!-- Generator: Shintec Hozumi YS   -->
<svg onload="call_execInitLoadProc_svg('system')" style="overflow:visible;  enable-background:new 0 0 6204.672 710.000" viewBox="0 0 6204.672 710.000" height="710.000" width="6204.672" xml:space="preserve" ewd:ver="2.1.2.9" xmlns="&ns_svg;" xmlns:a="http://ns.adobe.com/AdobeSVGViewerExtensions/3.0/" xmlns:ewd="http://shcl.co.jp/ewd" xmlns:xlink="&ns_xlink;"><script type="text/javascript" xlink:href="../../../../../system/js/ewd/fig/svgfig.js" xmlns:xlink="http://www.w3.org/1999/xlink" />
<g id="ewd_top"><a ewd:figtype="conn" style="cursor:pointer;" ewd:code="A49" ewd:figID="1"><path style="fill:#CCECF4;stroke:#000000; stroke-width:1.133; stroke-linecap:round;stroke-linejoin:round; " d=" M   560.91,   350.23  L   560.91,   316.23  L   543.91,   316.23  L   543.91,   350.23  L   560.91,   350.23 " /><title ewd:textID="53">Parking Brake Switch Assembly</title></a><a ewd:figtype="conn" style="cursor:pointer;" ewd:code="F83" ewd:figID="2"><path style="fill:#CCECF4;stroke:#000000; stroke-width:1.133; stroke-linecap:round;stroke-linejoin:round; " d=" M  5906.51,   486.20  L  5923.51,   486.20  L  5923.51,   503.20  L  5906.51,   503.20  L  5906.51,   486.20 " /><title ewd:textID="49">No. 15 Junction Connector</title></a><a ewd:figtype="conn" style="cursor:pointer;" ewd:code="F75" ewd:figID="3"><path style="fill:#CCECF4;stroke:#000000; stroke-width:1.133; stroke-linecap:round;stroke-linejoin:round; " d=" M  5957.50,   486.20  L  5974.50,   486.20  L  5974.50,   503.20  L  5957.50,   503.20  L  5957.50,   486.20 " /><title ewd:textID="40">No. 7 Junction Connector</title></a><a ewd:figtype="conn" style="cursor:pointer;" ewd:code="F48" ewd:figID="4"><path style="fill:#CCECF4;stroke:#000000; stroke-width:1.133; stroke-linecap:round;stroke-linejoin:round; " d=" M  4810.20,   418.22  L  4810.20,   469.21  L  5082.15,   469.21  L  5082.15,   418.22  L  4810.20,   418.22 " /><title ewd:textID="63">Shift Lock Control Unit Assembly</title></a><a ewd:figtype="conn" style="cursor:pointer;" ewd:code="A50,F2,F3" ewd:figID="5"><path style="fill:#CCECF4;stroke:#000000; stroke-width:1.133; stroke-linecap:round;stroke-linejoin:round; " d=" M  4810.20,   265.24  L  4810.20,   299.24  L  5158.64,   299.24  L  5158.64,   265.24  L  4810.20,   265.24 " /><title ewd:textID="25">Hybrid Vehicle Control ECU</title></a><a ewd:figtype="conn" style="cursor:pointer;" ewd:code="F72" ewd:figID="6"><path style="fill:#CCECF4;stroke:#000000; stroke-width:1.133; stroke-linecap:round;stroke-linejoin:round; " d=" M  5447.59,   154.76  L  5447.59,   171.76  L  5498.58,   171.76  L  5498.58,   154.76  L  5447.59,   154.76 " /><title ewd:textID="35">No. 4 CAN Junction Connector</title></a><a ewd:figtype="conn" style="cursor:pointer;" ewd:code="A41" ewd:figID="7"><path style="fill:#CCECF4;stroke:#000000; stroke-width:1.133; stroke-linecap:round;stroke-linejoin:round; " d=" M  5269.12,   460.71  L  5337.11,   460.71  L  5337.11,   426.71  L  5269.12,   426.71  L  5269.12,   460.71 " /><title ewd:textID="14">Brake Booster with Master Cylinder Assembly</title></a><a ewd:figtype="conn" style="cursor:pointer;" ewd:code="F71" ewd:figID="8"><path style="fill:#CCECF4;stroke:#000000; stroke-width:1.133; stroke-linecap:round;stroke-linejoin:round; " d=" M  5609.06,   154.76  L  5609.06,   171.76  L  5660.05,   171.76  L  5660.05,   154.76  L  5609.06,   154.76 " /><title ewd:textID="34">No. 3 CAN Junction Connector</title></a><a ewd:figtype="conn" style="cursor:pointer;" ewd:code="F77,F79" ewd:figID="9"><path style="fill:#CCECF4;stroke:#000000; stroke-width:1.133; stroke-linecap:round;stroke-linejoin:round; " d=" M  4232.29,   375.72  L  4232.29,   392.72  L  4283.28,   392.72  L  4283.28,   375.72  L  4232.29,   375.72 " /><title ewd:textID="43">No. 9 Junction Connector , No. 11 Junction Connector</title></a><a ewd:figtype="conn" style="cursor:pointer;" ewd:code="M78" ewd:figID="10"><path style="fill:#CCECF4;stroke:#000000; stroke-width:1.133; stroke-linecap:round;stroke-linejoin:round; " d=" M  5532.58,   256.74  L  5532.58,   273.74  L  5583.57,   273.74  L  5583.57,   256.74  L  5532.58,   256.74 " /><title ewd:textID="39">No. 7 CAN Junction Connector</title></a><a ewd:figtype="conn" style="cursor:pointer;" ewd:code="F55" ewd:figID="11"><path style="fill:#CCECF4;stroke:#000000; stroke-width:1.133; stroke-linecap:round;stroke-linejoin:round; " d=" M  5371.10,   384.22  L  5439.09,   384.22  L  5439.09,   350.23  L  5371.10,   350.23  L  5371.10,   384.22 " /><title ewd:textID="70">Steering Sensor</title></a><a ewd:figtype="conn" style="cursor:pointer;" ewd:code="F80,F81" ewd:figID="12"><path style="fill:#CCECF4;stroke:#000000; stroke-width:1.133; stroke-linecap:round;stroke-linejoin:round; " d=" M   195.47,   188.75  L   212.46,   188.75  L   212.46,   205.75  L   195.47,   205.75  L   195.47,   188.75 " /><title ewd:textID="47">No. 12 Junction Connector , No. 13 Junction Connector</title></a><a ewd:figtype="conn" style="cursor:pointer;" ewd:code="F76" ewd:figID="13"><path style="fill:#CCECF4;stroke:#000000; stroke-width:1.133; stroke-linecap:round;stroke-linejoin:round; " d=" M   195.47,   307.73  L   212.46,   307.73  L   212.46,   324.73  L   195.47,   324.73  L   195.47,   307.73 " /><title ewd:textID="41">No. 8 Junction Connector</title></a><a ewd:figtype="conn" style="cursor:pointer;" ewd:code="R5" ewd:figID="14"><path style="fill:#CCECF4;stroke:#000000; stroke-width:1.133; stroke-linecap:round;stroke-linejoin:round; " d=" M   314.45,   443.71  L   314.45,   486.20  L   475.92,   486.20  L   475.92,   443.71  L   314.45,   443.71 " /><title ewd:textID="58">Rear Television Camera Assembly</title></a><a ewd:figtype="conn" style="cursor:pointer;" ewd:code="F59" ewd:figID="15"><path style="fill:#CCECF4;stroke:#000000; stroke-width:1.133; stroke-linecap:round;stroke-linejoin:round; " d=" M  5269.12,    35.78  L  5269.12,    69.77  L  5668.55,    69.77  L  5668.55,    35.78  L  5269.12,    35.78 " /><title ewd:textID="31">Network Gateway ECU</title></a><a ewd:figtype="conn" style="cursor:pointer;" ewd:code="L5" ewd:figID="16"><path style="fill:#CCECF4;stroke:#000000; stroke-width:1.133; stroke-linecap:round;stroke-linejoin:round; " d=" M  1257.79,   549.94  L  1257.79,   558.44  L  1253.54,   566.94  L  1279.04,   566.94  L  1274.79,   558.44  L  1274.79,   549.94  L  1257.79,   549.94 " /><title ewd:textID="56">Rear Speaker Assembly LH</title></a><a ewd:figtype="conn" style="cursor:pointer;" ewd:code="K4" ewd:figID="17"><path style="fill:#CCECF4;stroke:#000000; stroke-width:1.133; stroke-linecap:round;stroke-linejoin:round; " d=" M  1359.77,   558.44  L  1359.77,   566.94  L  1355.52,   575.44  L  1381.02,   575.44  L  1376.77,   566.94  L  1376.77,   558.44  L  1359.77,   558.44 " /><title ewd:textID="57">Rear Speaker Assembly RH</title></a><a ewd:figtype="conn" style="cursor:pointer;" ewd:code="I1" ewd:figID="18"><path style="fill:#CCECF4;stroke:#000000; stroke-width:1.133; stroke-linecap:round;stroke-linejoin:round; " d=" M  1470.25,   558.44  L  1470.25,   566.94  L  1466.01,   575.44  L  1491.50,   575.44  L  1487.25,   566.94  L  1487.25,   558.44  L  1470.25,   558.44 " /><title ewd:textID="21">Front No. 1 Speaker Assembly RH</title></a><a ewd:figtype="conn" style="cursor:pointer;" ewd:code="J1" ewd:figID="19"><path style="fill:#CCECF4;stroke:#000000; stroke-width:1.133; stroke-linecap:round;stroke-linejoin:round; " d=" M  1614.73,   558.44  L  1614.73,   566.94  L  1610.48,   575.44  L  1635.98,   575.44  L  1631.73,   566.94  L  1631.73,   558.44  L  1614.73,   558.44 " /><title ewd:textID="20">Front No. 1 Speaker Assembly LH</title></a><a ewd:figtype="conn" style="cursor:pointer;" ewd:code="G5" ewd:figID="20"><path style="fill:#CCECF4;stroke:#000000; stroke-width:1.133; stroke-linecap:round;stroke-linejoin:round; " d=" M  1708.21,   490.45  L  1708.21,   498.95  L  1703.97,   507.45  L  1729.46,   507.45  L  1725.21,   498.95  L  1725.21,   490.45  L  1708.21,   490.45 " /><title ewd:textID="22">Front No. 2 Speaker Assembly LH</title></a><a ewd:figtype="conn" style="cursor:pointer;" ewd:code="G4" ewd:figID="21"><path style="fill:#CCECF4;stroke:#000000; stroke-width:1.133; stroke-linecap:round;stroke-linejoin:round; " d=" M  1903.68,   498.95  L  1903.68,   507.45  L  1899.43,   515.95  L  1924.93,   515.95  L  1920.68,   507.45  L  1920.68,   498.95  L  1903.68,   498.95 " /><title ewd:textID="23">Front No. 2 Speaker Assembly RH</title></a><a ewd:figtype="conn" style="cursor:pointer;" ewd:code="F74" ewd:figID="22"><path style="fill:#CCECF4;stroke:#000000; stroke-width:1.133; stroke-linecap:round;stroke-linejoin:round; " d=" M  1682.72,   222.75  L  1742.21,   222.75  L  1742.21,   239.75  L  1682.72,   239.75  L  1682.72,   222.75 " /><title ewd:textID="37">No. 6 Junction Connector</title></a><a ewd:figtype="rb" style="cursor:pointer;" ewd:code="FUSE4" ewd:figID="23"><path style="fill:#CCECF4;stroke:#000000; stroke-width:0; stroke-linecap:round;stroke-linejoin:round; " d=" M  2018.41,   120.77  L  2018.41,   163.26  L  2043.91,   163.26  L  2043.91,   120.77  L  2018.41,   120.77 " /></a><a ewd:figtype="conn" style="cursor:pointer;" ewd:code="F38,F39" ewd:figID="24"><path style="fill:#CCECF4;stroke:#000000; stroke-width:1.133; stroke-linecap:round;stroke-linejoin:round; " d=" M  2107.65,   282.24  L  2107.65,   324.73  L  2575.07,   324.73  L  2575.07,   282.24  L  2107.65,   282.24 " /><title ewd:textID="32">No. 1 Stereo Jack Adapter Assembly</title></a><a ewd:figtype="conn" style="cursor:pointer;" ewd:code="O2,O4" ewd:figID="25"><path style="fill:#CCECF4;stroke:#000000; stroke-width:1.133; stroke-linecap:round;stroke-linejoin:round; " d=" M  2617.56,   401.22  L  2617.56,   443.71  L  2804.53,   443.71  L  2804.53,   401.22  L  2617.56,   401.22 " /><title ewd:textID="27">Map Light Assembly</title></a><a ewd:figtype="conn" style="cursor:pointer;" ewd:code="F36" ewd:figID="26"><path style="fill:#CCECF4;stroke:#000000; stroke-width:1.133; stroke-linecap:round;stroke-linejoin:round; " d=" M  2855.52,   401.22  L  2855.52,   443.71  L  3076.49,   443.71  L  3076.49,   401.22  L  2855.52,   401.22 " /><title ewd:textID="72">Telematics Transceiver</title></a><a ewd:figtype="conn" style="cursor:pointer;" ewd:code="e3,e4" ewd:figID="27"><path style="fill:#CCECF4;stroke:#000000; stroke-width:1.133; stroke-linecap:round;stroke-linejoin:round; " d=" M  3679.89,   282.24  L  3679.89,   316.23  L  4079.32,   316.23  L  4079.32,   282.24  L  3679.89,   282.24 " /><title ewd:textID="29">Navigation ECU</title></a><a ewd:figtype="conn" style="cursor:pointer;" ewd:code="F70" ewd:figID="28"><path style="fill:#CCECF4;stroke:#000000; stroke-width:1.133; stroke-linecap:round;stroke-linejoin:round; " d=" M  5277.62,   248.24  L  5277.62,   273.74  L  5430.59,   273.74  L  5430.59,   248.24  L  5277.62,   248.24 " /><title ewd:textID="33">No. 2 CAN Junction Connector</title></a><a ewd:figtype="conn" style="cursor:pointer;" ewd:code="F73" ewd:figID="29"><path style="fill:#CCECF4;stroke:#000000; stroke-width:1.133; stroke-linecap:round;stroke-linejoin:round; " d=" M  5218.13,   154.76  L  5218.13,   180.26  L  5328.61,   180.26  L  5328.61,   154.76  L  5218.13,   154.76 " /><title ewd:textID="36">No. 5 CAN Junction Connector</title></a><a ewd:figtype="conn" style="cursor:pointer;" ewd:code="F21,z3" ewd:figID="30"><path style="fill:#CCECF4;stroke:#000000; stroke-width:1.133; stroke-linecap:round;stroke-linejoin:round; " d=" M   603.40,   214.25  L   603.40,   248.24  L   909.35,   248.24  L   909.35,   214.25  L   603.40,   214.25 " /><title ewd:textID="65">Spiral Cable with Sensor Sub-Assembly , Steering Pad Switch Assembly</title></a><a ewd:figtype="conn" style="cursor:pointer;" ewd:code="z3" ewd:figID="31"><path style="fill:#CCECF4;stroke:#000000; stroke-width:1.133; stroke-linecap:round;stroke-linejoin:round; " d=" M   603.40,   478.27  L   909.35,   478.27  L   909.35,   257.31  L   603.40,   257.31  L   603.40,   478.27 " /><title ewd:textID="67">Steering Pad Switch Assembly , Spiral Cable with Sensor Sub-Assembly</title></a><a ewd:figtype="conn" style="cursor:pointer;" ewd:code="F74,F79" ewd:figID="32"><path style="fill:#CCECF4;stroke:#000000; stroke-width:1.133; stroke-linecap:round;stroke-linejoin:round; " d=" M  6059.49,   171.76  L  6076.48,   171.76  L  6076.48,   188.75  L  6059.49,   188.75  L  6059.49,   171.76 " /><title ewd:textID="38">No. 6 Junction Connector , No. 11 Junction Connector</title></a><a ewd:figtype="conn" style="cursor:pointer;" ewd:code="F79,F85" ewd:figID="33"><path style="fill:#CCECF4;stroke:#000000; stroke-width:1.133; stroke-linecap:round;stroke-linejoin:round; " d=" M  5830.03,   486.20  L  5830.03,   503.20  L  5881.02,   503.20  L  5881.02,   486.20  L  5830.03,   486.20 " /><title ewd:textID="45">No. 11 Junction Connector , No. 17 Junction Connector</title></a><a ewd:figtype="conn" style="cursor:pointer;" ewd:code="F60,F61" ewd:figID="34"><path style="fill:#CCECF4;stroke:#000000; stroke-width:1.133; stroke-linecap:round;stroke-linejoin:round; " d=" M  1138.81,   324.73  L  1138.81,   367.22  L  2048.16,   367.22  L  2048.16,   324.73  L  1138.81,   324.73 " /><title ewd:textID="71">Stereo Component Amplifier Assembly</title></a><a ewd:figtype="conn" style="cursor:pointer;" ewd:code="F6" ewd:figID="35"><path style="fill:#CCECF4;stroke:#000000; stroke-width:1.133; stroke-linecap:round;stroke-linejoin:round; " d=" M  5728.04,   239.75  L  5728.04,   418.22  L  6203.96,   418.22  L  6203.96,   239.75  L  5728.04,   239.75 " /><title ewd:textID="15">Combination Meter Assembly</title></a><a ewd:figtype="conn" style="cursor:pointer;" ewd:code="F31,F32,F33,F34,F91,F92,F93,F94,F95,F96,e1,e2" ewd:figID="36"><path style="fill:#CCECF4;stroke:#000000; stroke-width:1.133; stroke-linecap:round;stroke-linejoin:round; " d=" M   186.97,    52.78  L  4470.25,    52.78  L  4470.25,    95.27  L   186.97,    95.27  L   186.97,    52.78 " /><title ewd:textID="55">Radio &amp; Display Receiver Assembly , Navigation Receiver Assembly</title></a><a ewd:figtype="jb" style="cursor:pointer;" ewd:code="3" ewd:figID="42"><path style="&st4; " d=" M   535.41,   239.75  L   560.91,   239.75  L   560.91,   188.75  L   535.41,   188.75  L   535.41,   239.75  " /></a><a ewd:figtype="jb" style="cursor:pointer;" ewd:code="3" ewd:figID="43"><path style="&st4; " d=" M    17.00,    35.78  L   161.47,    35.78  L   161.47,   103.77  L    17.00,   103.77  L    17.00,    35.78  " /></a><a ewd:figtype="jb" style="cursor:pointer;" ewd:code="3" ewd:figID="44"><path style="&st4; " d=" M  1597.73,   129.26  L  1597.73,   197.25  L  1665.72,   197.25  L  1665.72,   129.26  L  1597.73,   129.26  " /></a><a ewd:figtype="jb" style="cursor:pointer;" ewd:code="3" ewd:figID="45"><path style="&st4; " d=" M  4699.71,    35.78  L  4699.71,   205.75  L  4835.69,   205.75  L  4835.69,    35.78  L  4699.71,    35.78  " /></a><a ewd:figtype="jb" style="cursor:pointer;" ewd:code="3" ewd:figID="46"><path style="&st4; " d=" M  6110.48,    35.78  L  6110.48,   103.77  L  6178.47,   103.77  L  6178.47,    35.78  L  6110.48,    35.78  " /></a><a ewd:figtype="jb" style="cursor:pointer;" ewd:code="3" ewd:figID="47"><path style="&st4; " d=" M  5872.52,    35.78  L  5872.52,   103.77  L  5949.01,   103.77  L  5949.01,    35.78  L  5872.52,    35.78  " /></a><a ewd:figtype="fuse" style="cursor:pointer;" ewd:code="FUSE74" ewd:figID="106"><path style="&st7; stroke-width:0;" d=" M    21.25,    35.78  L    21.25,    78.27  L    46.74,    78.27  L    46.74,    35.78  L    21.25,    35.78 " /></a><a ewd:figtype="fuse" style="cursor:pointer;" ewd:code="FUSE70" ewd:figID="107"><path style="&st7; stroke-width:0;" d=" M    97.73,    35.78  L    97.73,    78.27  L   123.23,    78.27  L   123.23,    35.78  L    97.73,    35.78 " /></a><a ewd:figtype="fuse" style="cursor:pointer;" ewd:code="FUSE51" ewd:figID="108"><path style="&st7; stroke-width:0;" d=" M  1601.98,   129.26  L  1601.98,   171.76  L  1627.48,   171.76  L  1627.48,   129.26  L  1601.98,   129.26 " /></a><a ewd:figtype="fuse" style="cursor:pointer;" ewd:code="FUSE4" ewd:figID="109"><path style="&st7; stroke-width:0;" d=" M  2018.41,   120.77  L  2018.41,   163.26  L  2043.91,   163.26  L  2043.91,   120.77  L  2018.41,   120.77 " /></a><a ewd:figtype="fuse" style="cursor:pointer;" ewd:code="FUSE60" ewd:figID="110"><path style="&st7; stroke-width:0;" d=" M  4746.46,    35.78  L  4746.46,    78.27  L  4771.95,    78.27  L  4771.95,    35.78  L  4746.46,    35.78 " /></a><a ewd:figtype="fuse" style="cursor:pointer;" ewd:code="FUSE57" ewd:figID="111"><path style="&st7; stroke-width:0;" d=" M  5876.77,    35.78  L  5876.77,    78.27  L  5902.26,    78.27  L  5902.26,    35.78  L  5876.77,    35.78 " /></a><a ewd:figtype="fuse" style="cursor:pointer;" ewd:code="FUSE69" ewd:figID="112"><path style="&st7; stroke-width:0;" d=" M  6114.73,    35.78  L  6114.73,    78.27  L  6140.22,    78.27  L  6140.22,    35.78  L  6114.73,    35.78 " /></a><a style="cursor:pointer;" ewd:lineID="1"><path style="stroke:#99D9E8;stroke-width: 5.10 ;&st6;" d=" M    33.99,   103.77  L    33.99,   392.72  L   271.95,   392.72  L   271.95,   113.40  " /></a><a style="cursor:pointer;" ewd:lineID="2"><path style="stroke:#C3AF96;stroke-width: 5.10 ;&st6;" d=" M   203.97,   342.86  L   203.97,   375.72  L   110.48,   375.72  L   110.48,   103.77  " /></a><a style="cursor:pointer;" ewd:lineID="3"><path style="stroke:#99D9E8;stroke-width: 5.10 ;&st6;" d=" M   203.97,   289.60  L   203.97,   223.88  " /></a><a style="cursor:pointer;" ewd:lineID="4"><path style="stroke:#000000;stroke-width: 5.10 ;&st6;" d=" M   203.97,   223.88  L   203.97,   231.25  L   212.46,   239.75  L   237.96,   239.75  L   237.96,   273.74  L   212.46,   273.74  L   203.97,   282.24  L   203.97,   289.60  " /></a><a style="cursor:pointer;" ewd:lineID="5"><path style="stroke:#99D9E8;stroke-width: 5.10 ;&st6;" d=" M   203.97,   170.62  L   203.97,   113.40  " /></a><a style="cursor:pointer;" ewd:lineID="6"> d=" M   203.97,   170.62  L   203.97,   163.26  L   212.46,   154.76  L   237.96,   154.76  L   237.96,   129.26  L   212.46,   129.26  L   203.97,   120.77  L   203.97,   113.40 
	
		<path style="stroke:#000000;stroke-width: 5.10 ;&st6;" d=" M   203.97,   170.62  L   203.97,   163.26  L   212.46,   154.76  L   237.96,   154.76  L   237.96,   129.26  L   212.46,   129.26  L   203.97,   120.77  L   203.97,   113.40  " /><path style="stroke:#FFFFFF;stroke-width: 4.53 ;&st6;" d=" M   203.97,   170.62  L   203.97,   163.26  L   212.46,   154.76  L   237.96,   154.76  L   237.96,   129.26  L   212.46,   129.26  L   203.97,   120.77  L   203.97,   113.40  " /></a><a style="cursor:pointer;" ewd:lineID="7"><path style="stroke:#008837;stroke-width: 5.10 ;&st6;" d=" M   331.44,   347.96  L   331.44,   443.71  " /></a><a style="cursor:pointer;" ewd:lineID="8"><path style="stroke:#000000;stroke-width: 5.10 ;&st6;" d=" M   331.44,   333.23  L   331.44,   265.24  " /></a><a style="cursor:pointer;" ewd:lineID="9"><path style="stroke:#000000;stroke-width: 5.10 ;&st6;" d=" M   331.44,   188.75  L   331.44,   250.51  " /></a><a style="cursor:pointer;" ewd:lineID="10"><path style="stroke:#000000;stroke-width: 5.10 ;&st6;" d=" M   331.44,   174.02  L   331.44,   113.40  " /></a><a style="cursor:pointer;" ewd:lineID="11"><path style="stroke:#FF0000;stroke-width: 5.10 ;&st6;" d=" M   373.94,   347.96  L   373.94,   443.71  " /></a><a style="cursor:pointer;" ewd:lineID="12"><path style="stroke:#FF0000;stroke-width: 5.10 ;&st6;" d=" M   373.94,   333.23  L   373.94,   265.24  " /></a><a style="cursor:pointer;" ewd:lineID="13"><path style="stroke:#FF0000;stroke-width: 5.10 ;&st6;" d=" M   373.94,   188.75  L   373.94,   250.51  " /></a><a style="cursor:pointer;" ewd:lineID="14"><path style="stroke:#FF0000;stroke-width: 5.10 ;&st6;" d=" M   373.94,   174.02  L   373.94,   113.40  " /></a><a style="cursor:pointer;" ewd:lineID="15"> d=" M   416.43,   486.20  L   416.43,   664.67  L  4011.33,   664.67  L  4011.33,   630.68  L  5575.07,   630.68  L  5575.07,   424.73 
	
		<path style="stroke:#000000;stroke-width: 5.10 ;&st6;" d=" M   416.43,   486.20  L   416.43,   664.67  L  4011.33,   664.67  L  4011.33,   630.68  L  5575.07,   630.68  L  5575.07,   424.73  " /><path style="stroke:#FFFFFF;stroke-width: 4.53 ;&st6;" d=" M   416.43,   486.20  L   416.43,   664.67  L  4011.33,   664.67  L  4011.33,   630.68  L  5575.07,   630.68  L  5575.07,   424.73  " /></a><a style="cursor:pointer;" ewd:lineID="16"><path style="stroke:#000000;stroke-width: 5.10 ;&st6;" d=" M   416.43,   347.96  L   416.43,   443.71  " /></a><a style="cursor:pointer;" ewd:lineID="17"> d=" M   416.43,   333.23  L   416.43,   265.24 
	
		<path style="stroke:#000000;stroke-width: 5.10 ;&st6;" d=" M   416.43,   333.23  L   416.43,   265.24  " /><path style="stroke:#FFFFFF;stroke-width: 4.53 ;&st6;" d=" M   416.43,   333.23  L   416.43,   265.24  " /></a><a style="cursor:pointer;" ewd:lineID="18"> d=" M   416.43,   188.75  L   416.43,   250.23 
	
		<path style="stroke:#000000;stroke-width: 5.10 ;&st6;" d=" M   416.43,   188.75  L   416.43,   250.23  " /><path style="stroke:#FFFFFF;stroke-width: 4.53 ;&st6;" d=" M   416.43,   188.75  L   416.43,   250.23  " /></a><a style="cursor:pointer;" ewd:lineID="19"> d=" M   416.43,   173.74  L   416.43,   113.40 
	
		<path style="stroke:#000000;stroke-width: 5.10 ;&st6;" d=" M   416.43,   173.74  L   416.43,   113.40  " /><path style="stroke:#FFFFFF;stroke-width: 4.53 ;&st6;" d=" M   416.43,   173.74  L   416.43,   113.40  " /></a><a style="cursor:pointer;" ewd:lineID="20"><path style="stroke:#7FC97F;stroke-width: 5.10 ;&st6;" d=" M   458.92,   486.20  L   458.92,   647.68  L  3977.34,   647.68  L  3977.34,   613.68  L  5541.07,   613.68  L  5541.07,   424.45  " /></a><a style="cursor:pointer;" ewd:lineID="21"><path style="stroke:#992903;stroke-width: 5.10 ;&st6;" d=" M   458.92,   401.22  L   458.92,   443.71  " /></a><a style="cursor:pointer;" ewd:lineID="22"><path style="stroke:#FF0000;stroke-width: 5.10 ;&st6;" d=" M   552.41,   316.23  L   552.41,   239.75  " /></a><a style="cursor:pointer;" ewd:lineID="23"><path style="stroke:#000000;stroke-width: 5.10 ;&st6;" d=" M   552.41,   113.40  L   552.41,   188.75  " /></a><a style="cursor:pointer;" ewd:lineID="24"><path style="stroke:#008837;stroke-width: 5.10 ;&st6;" d=" M   620.40,   205.18  L   620.40,   113.40  " /></a><a style="cursor:pointer;" ewd:lineID="25"><path style="stroke:#000000;stroke-width: 5.10 ;&st6;" d=" M   671.39,   205.18  L   671.39,   113.40  " /></a><a style="cursor:pointer;" ewd:lineID="26"> d=" M   722.38,   205.18  L   722.38,   113.40 
	
		<path style="stroke:#000000;stroke-width: 5.10 ;&st6;" d=" M   722.38,   205.18  L   722.38,   113.40  " /><path style="stroke:#FFFFFF;stroke-width: 4.53 ;&st6;" d=" M   722.38,   205.18  L   722.38,   113.40  " /></a><a style="cursor:pointer;" ewd:lineID="27"><path style="stroke:#BFB1C5;stroke-width: 5.10 ;&st6;" d=" M  1079.32,   681.67  L  1079.32,   113.40  " /><path style="stroke:#FFFFFF;stroke-width: 2.27 ;&st6;" d=" M  1079.32,   681.67  L  1079.32,   113.40  " /><path style="stroke:#992903;stroke-width: 1.13 ;&st6;" d=" M  1079.32,   681.67  L  1079.32,   113.40  " /></a><a style="cursor:pointer;" ewd:lineID="28"><path style="stroke:#BFB1C5;stroke-width: 5.10 ;&st6;" d=" M  1121.81,   681.67  L  1121.81,   129.26  L  1087.82,   129.26  L  1079.32,   120.77  L  1079.32,   113.40  " /><path style="stroke:#FFFFFF;stroke-width: 2.27 ;&st6;" d=" M  1121.81,   681.67  L  1121.81,   129.26  L  1087.82,   129.26  L  1079.32,   120.77  L  1079.32,   113.40  " /><path style="stroke:#992903;stroke-width: 1.13 ;&st6;" d=" M  1121.81,   681.67  L  1121.81,   129.26  L  1087.82,   129.26  L  1079.32,   120.77  L  1079.32,   113.40  " /></a><a style="cursor:pointer;" ewd:lineID="29"><path style="stroke:#000000;stroke-width: 5.10 ;&st6;" d=" M  1155.81,   376.29  L  1155.81,   681.67  " /><path style="stroke:#FFFFFF;stroke-width: 4.53 ;&st6;" d=" M  1155.81,   376.29  L  1155.81,   681.67  " /><path style="stroke:#000000;stroke-width: 1.13 ;&st6;" d=" M  1155.81,   376.29  L  1155.81,   681.67  " /></a><a style="cursor:pointer;" ewd:lineID="30"><path style="stroke:#F668B2;stroke-width: 5.10 ;&st6;" d=" M  1155.81,   113.40  L  1155.81,   315.67  " /></a><a style="cursor:pointer;" ewd:lineID="31"><path style="stroke:#C3AF96;stroke-width: 5.10 ;&st6;" d=" M  1189.80,   315.67  L  1189.80,   113.40  " /></a><a style="cursor:pointer;" ewd:lineID="32"><path style="stroke:#000000;stroke-width: 5.10 ;&st6;" d=" M  1198.30,   681.67  L  1198.30,   401.22  L  1172.80,   401.22  L  1155.81,   384.22  L  1155.81,   376.29  " /><path style="stroke:#FFFFFF;stroke-width: 4.53 ;&st6;" d=" M  1198.30,   681.67  L  1198.30,   401.22  L  1172.80,   401.22  L  1155.81,   384.22  L  1155.81,   376.29  " /><path style="stroke:#000000;stroke-width: 1.13 ;&st6;" d=" M  1198.30,   681.67  L  1198.30,   401.22  L  1172.80,   401.22  L  1155.81,   384.22  L  1155.81,   376.29  " /></a><a style="cursor:pointer;" ewd:lineID="33"><path style="stroke:#000000;stroke-width: 5.10 ;&st6;" d=" M  1232.29,   435.21  L  1232.29,   479.97  " /></a><a style="cursor:pointer;" ewd:lineID="34"><path style="stroke:#000000;stroke-width: 5.10 ;&st6;" d=" M  1232.29,   376.29  L  1232.29,   420.48  " /></a><a style="cursor:pointer;" ewd:lineID="35"><path style="stroke:#56077D;stroke-width: 5.10 ;&st6;" d=" M  1232.29,   315.67  L  1232.29,   113.40  " /></a><a style="cursor:pointer;" ewd:lineID="36"><path style="stroke:#000000;stroke-width: 5.10 ;&st6;" d=" M  1257.79,   554.19  L  1232.29,   554.19  L  1232.29,   494.70  " /></a><a style="cursor:pointer;" ewd:lineID="37"><path style="stroke:#7FC97F;stroke-width: 5.10 ;&st6;" d=" M  1266.29,   315.67  L  1266.29,   113.40  " /></a><a style="cursor:pointer;" ewd:lineID="38"> d=" M  1274.79,   554.19  L  1300.28,   554.19  L  1300.28,   494.70 
	
		<path style="stroke:#000000;stroke-width: 5.10 ;&st6;" d=" M  1274.79,   554.19  L  1300.28,   554.19  L  1300.28,   494.70  " /><path style="stroke:#FFFFFF;stroke-width: 4.53 ;&st6;" d=" M  1274.79,   554.19  L  1300.28,   554.19  L  1300.28,   494.70  " /></a><a style="cursor:pointer;" ewd:lineID="39"><path style="stroke:#FFE600;stroke-width: 5.10 ;&st6;" d=" M  1300.28,   435.21  L  1300.28,   479.97  " /></a><a style="cursor:pointer;" ewd:lineID="40"><path style="stroke:#FFE600;stroke-width: 5.10 ;&st6;" d=" M  1300.28,   376.29  L  1300.28,   420.48  " /></a><a style="cursor:pointer;" ewd:lineID="41"><path style="stroke:#00A0C6;stroke-width: 5.10 ;&st6;" d=" M  1334.28,   315.67  L  1334.28,   113.40  " /></a><a style="cursor:pointer;" ewd:lineID="42"><path style="stroke:#FF0000;stroke-width: 5.10 ;&st6;" d=" M  1342.78,   435.21  L  1342.78,   479.97  " /></a><a style="cursor:pointer;" ewd:lineID="43"><path style="stroke:#FF0000;stroke-width: 5.10 ;&st6;" d=" M  1342.78,   376.29  L  1342.78,   420.48  " /></a><a style="cursor:pointer;" ewd:lineID="44"><path style="stroke:#000000;stroke-width: 5.10 ;&st6;" d=" M  1359.77,   562.69  L  1342.78,   562.69  L  1342.78,   494.70  " /></a><a style="cursor:pointer;" ewd:lineID="45"> d=" M  1376.77,   562.69  L  1393.77,   562.69  L  1393.77,   494.70 
	
		<path style="stroke:#000000;stroke-width: 5.10 ;&st6;" d=" M  1376.77,   562.69  L  1393.77,   562.69  L  1393.77,   494.70  " /><path style="stroke:#FFFFFF;stroke-width: 4.53 ;&st6;" d=" M  1376.77,   562.69  L  1393.77,   562.69  L  1393.77,   494.70  " /></a><a style="cursor:pointer;" ewd:lineID="46"><path style="stroke:#000000;stroke-width: 5.10 ;&st6;" d=" M  1376.77,   315.67  L  1376.77,   113.40  " /></a><a style="cursor:pointer;" ewd:lineID="47"> d=" M  1393.77,   435.21  L  1393.77,   479.69 
	
		<path style="stroke:#000000;stroke-width: 5.10 ;&st6;" d=" M  1393.77,   435.21  L  1393.77,   479.69  " /><path style="stroke:#FFFFFF;stroke-width: 4.53 ;&st6;" d=" M  1393.77,   435.21  L  1393.77,   479.69  " /></a><a style="cursor:pointer;" ewd:lineID="48"> d=" M  1393.77,   376.29  L  1393.77,   420.20 
	
		<path style="stroke:#000000;stroke-width: 5.10 ;&st6;" d=" M  1393.77,   376.29  L  1393.77,   420.20  " /><path style="stroke:#FFFFFF;stroke-width: 4.53 ;&st6;" d=" M  1393.77,   376.29  L  1393.77,   420.20  " /></a><a style="cursor:pointer;" ewd:lineID="49"> d=" M  1410.76,   315.67  L  1410.76,   113.40 
	
		<path style="stroke:#000000;stroke-width: 5.10 ;&st6;" d=" M  1410.76,   315.67  L  1410.76,   113.40  " /><path style="stroke:#FFFFFF;stroke-width: 4.53 ;&st6;" d=" M  1410.76,   315.67  L  1410.76,   113.40  " /></a><a style="cursor:pointer;" ewd:lineID="50"><path style="stroke:#FF0000;stroke-width: 5.10 ;&st6;" d=" M  1444.76,   315.67  L  1444.76,   113.40  " /></a><a style="cursor:pointer;" ewd:lineID="51"><path style="stroke:#7FC97F;stroke-width: 5.10 ;&st6;" d=" M  1453.26,   435.21  L  1453.26,   479.97  " /></a><a style="cursor:pointer;" ewd:lineID="52"><path style="stroke:#7FC97F;stroke-width: 5.10 ;&st6;" d=" M  1453.26,   376.29  L  1453.26,   420.48  " /></a><a style="cursor:pointer;" ewd:lineID="53"><path style="stroke:#000000;stroke-width: 5.10 ;&st6;" d=" M  1470.25,   562.69  L  1453.26,   562.69  L  1453.26,   494.70  " /></a><a style="cursor:pointer;" ewd:lineID="54"><path style="stroke:#008837;stroke-width: 5.10 ;&st6;" d=" M  1478.75,   315.67  L  1478.75,   113.40  " /></a><a style="cursor:pointer;" ewd:lineID="55"> d=" M  1487.25,   562.69  L  1504.25,   562.69  L  1504.25,   494.70 
	
		<path style="stroke:#000000;stroke-width: 5.10 ;&st6;" d=" M  1487.25,   562.69  L  1504.25,   562.69  L  1504.25,   494.70  " /><path style="stroke:#FFFFFF;stroke-width: 4.53 ;&st6;" d=" M  1487.25,   562.69  L  1504.25,   562.69  L  1504.25,   494.70  " /></a><a style="cursor:pointer;" ewd:lineID="56"><path style="stroke:#00A0C6;stroke-width: 5.10 ;&st6;" d=" M  1504.25,   435.21  L  1504.25,   479.97  " /></a><a style="cursor:pointer;" ewd:lineID="57"><path style="stroke:#00A0C6;stroke-width: 5.10 ;&st6;" d=" M  1504.25,   376.29  L  1504.25,   420.48  " /></a><a style="cursor:pointer;" ewd:lineID="58"><path style="stroke:#F668B2;stroke-width: 5.10 ;&st6;" d=" M  1597.73,   435.21  L  1597.73,   479.97  " /></a><a style="cursor:pointer;" ewd:lineID="59"><path style="stroke:#F668B2;stroke-width: 5.10 ;&st6;" d=" M  1597.73,   420.48  L  1597.73,   376.29  " /></a><a style="cursor:pointer;" ewd:lineID="60"><path style="stroke:#000000;stroke-width: 5.10 ;&st6;" d=" M  1614.73,   562.69  L  1597.73,   562.69  L  1597.73,   494.70  " /></a><a style="cursor:pointer;" ewd:lineID="61"><path style="stroke:#7FC97F;stroke-width: 5.10 ;&st6;" d=" M  1614.73,   197.25  L  1614.73,   282.24  L  1691.22,   282.24  L  1691.22,   257.88  " /></a><a style="cursor:pointer;" ewd:lineID="62"> d=" M  1631.73,   562.69  L  1648.72,   562.69  L  1648.72,   494.70 
	
		<path style="stroke:#000000;stroke-width: 5.10 ;&st6;" d=" M  1631.73,   562.69  L  1648.72,   562.69  L  1648.72,   494.70  " /><path style="stroke:#FFFFFF;stroke-width: 4.53 ;&st6;" d=" M  1631.73,   562.69  L  1648.72,   562.69  L  1648.72,   494.70  " /></a><a style="cursor:pointer;" ewd:lineID="63"><path style="stroke:#56077D;stroke-width: 5.10 ;&st6;" d=" M  1648.72,   435.21  L  1648.72,   479.97  " /></a><a style="cursor:pointer;" ewd:lineID="64"><path style="stroke:#56077D;stroke-width: 5.10 ;&st6;" d=" M  1648.72,   420.48  L  1648.72,   376.29  " /></a><a style="cursor:pointer;" ewd:lineID="65"><path style="stroke:#7FC97F;stroke-width: 5.10 ;&st6;" d=" M  1691.22,   420.48  L  1691.22,   376.29  " /></a><a style="cursor:pointer;" ewd:lineID="66"><path style="stroke:#999999;stroke-width: 5.10 ;&st6;" d=" M  1691.22,   204.62  L  1691.22,   113.40  " /></a><a style="cursor:pointer;" ewd:lineID="67"><path style="stroke:#F668B2;stroke-width: 5.10 ;&st6;" d=" M  1708.21,   494.70  L  1691.22,   494.70  L  1691.22,   435.21  " /></a><a style="cursor:pointer;" ewd:lineID="68"><path style="stroke:#56077D;stroke-width: 5.10 ;&st6;" d=" M  1725.21,   494.70  L  1742.21,   494.70  L  1742.21,   435.21  " /></a><a style="cursor:pointer;" ewd:lineID="69"><path style="stroke:#00A0C6;stroke-width: 5.10 ;&st6;" d=" M  1733.71,   315.67  L  1733.71,   257.88  " /></a><a style="cursor:pointer;" ewd:lineID="70"><path style="stroke:#C3AF96;stroke-width: 5.10 ;&st6;" d=" M  1742.21,   420.48  L  1742.21,   376.29  " /></a><a style="cursor:pointer;" ewd:lineID="71"><path style="stroke:#FF0000;stroke-width: 5.10 ;&st6;" d=" M  1793.20,   376.29  L  1793.20,   596.69  L  3883.85,   596.69  L  3883.85,   562.69  L  5872.52,   562.69  L  5872.52,   521.33  " /></a><a ewd:comment="4" style="cursor:pointer;" ewd:lineID="72"><path style="stroke:#C3AF96;stroke-width: 5.10 ;&st6;" d=" M  1886.68,   428.98  L  1886.68,   376.29  " /></a><a ewd:comment="3" style="cursor:pointer;" ewd:lineID="73"><path style="stroke:#7FC97F;stroke-width: 5.10 ;&st6;" d=" M  1886.68,   428.98  L  1886.68,   426.71  L  1878.19,   418.22  L  1852.69,   418.22  L  1852.69,   562.69  L  2974.50,   562.69  L  2974.50,   443.71  " /></a><a ewd:comment="3" style="cursor:pointer;" ewd:lineID="74"><path style="stroke:#C3AF96;stroke-width: 5.10 ;&st6;" d=" M  1886.68,   376.29  L  1886.68,   384.22  L  1878.19,   392.72  L  1827.19,   392.72  L  1827.19,   579.69  L  3025.49,   579.69  L  3025.49,   443.71  " /></a><a style="cursor:pointer;" ewd:lineID="75"><path style="stroke:#7FC97F;stroke-width: 5.10 ;&st6;" d=" M  1903.68,   503.20  L  1886.68,   503.20  L  1886.68,   443.71  " /></a><a style="cursor:pointer;" ewd:lineID="76"><path style="stroke:#00A0C6;stroke-width: 5.10 ;&st6;" d=" M  1920.68,   503.20  L  1937.68,   503.20  L  1937.68,   443.71  " /></a><a ewd:comment="4" style="cursor:pointer;" ewd:lineID="77"><path style="stroke:#F668B2;stroke-width: 5.10 ;&st6;" d=" M  1937.68,   428.98  L  1937.68,   376.29  " /></a><a ewd:comment="3" style="cursor:pointer;" ewd:lineID="78"><path style="stroke:#00A0C6;stroke-width: 5.10 ;&st6;" d=" M  1937.68,   428.98  L  1937.68,   426.71  L  1946.17,   418.22  L  1971.67,   418.22  L  1971.67,   545.69  L  2940.51,   545.69  L  2940.51,   443.71  " /></a><a ewd:comment="3" style="cursor:pointer;" ewd:lineID="79"><path style="stroke:#008837;stroke-width: 5.10 ;&st6;" d=" M  1937.68,   376.29  L  1937.68,   384.22  L  1946.17,   392.72  L  1997.17,   392.72  L  1997.17,   528.70  L  2906.51,   528.70  L  2906.51,   443.71  " /></a><a ewd:comment="3" style="cursor:pointer;" ewd:lineID="80"><path style="stroke:#7FC97F;stroke-width: 5.10 ;&st6;" d=" M  2031.16,   376.29  L  2031.16,   511.70  L  2872.52,   511.70  L  2872.52,   443.71  " /></a><a style="cursor:pointer;" ewd:lineID="81"><path style="stroke:#000000;stroke-width: 5.10 ;&st6;" d=" M  2031.16,   271.47  L  2031.16,   315.67  " /></a><a style="cursor:pointer;" ewd:lineID="82"><path style="stroke:#000000;stroke-width: 5.10 ;&st6;" d=" M  2031.16,   188.75  L  2031.16,   256.74  " /></a><a ewd:comment="5" style="cursor:pointer;" ewd:lineID="83"><path style="stroke:#56077D;stroke-width: 5.10 ;&st6;" d=" M  2124.65,   273.17  L  2124.65,   113.40  " /></a><a ewd:comment="5" style="cursor:pointer;" ewd:lineID="84"><path style="stroke:#7FC97F;stroke-width: 5.10 ;&st6;" d=" M  2158.64,   273.17  L  2158.64,   113.40  " /></a><a style="cursor:pointer;" ewd:lineID="85"> d=" M  2243.63,   264.11  L  2243.63,   113.40 
	
		<path style="stroke:#000000;stroke-width: 5.10 ;&st6;" d=" M  2243.63,   264.11  L  2243.63,   113.40  " /><path style="stroke:#FFFFFF;stroke-width: 4.53 ;&st6;" d=" M  2243.63,   264.11  L  2243.63,   113.40  " /></a><a style="cursor:pointer;" ewd:lineID="86"><path style="stroke:#FF0000;stroke-width: 5.10 ;&st6;" d=" M  2277.62,   264.11  L  2277.62,   113.40  " /></a><a style="cursor:pointer;" ewd:lineID="87"><path style="stroke:#000000;stroke-width: 5.10 ;&st6;" d=" M  2311.61,   264.11  L  2311.61,   113.40  " /></a><a style="cursor:pointer;" ewd:lineID="88"><path style="stroke:#C3AF96;stroke-width: 5.10 ;&st6;" d=" M  2388.10,   264.11  L  2388.10,   113.40  " /></a><a ewd:comment="#," style="cursor:pointer;" ewd:lineID="89"><path style="stroke:#000000;stroke-width: 0.85 ;&st6;" d=" M  2430.59,   264.11  L  2430.59,   113.40  " /></a><a ewd:comment="#," style="cursor:pointer;" ewd:lineID="90"><path style="stroke:#000000;stroke-width: 0.85 ;&st6;" d=" M  2473.09,   264.11  L  2473.09,   113.40  " /></a><a ewd:comment="#," style="cursor:pointer;" ewd:lineID="91"><path style="stroke:#000000;stroke-width: 0.85 ;&st6;" d=" M  2515.58,   264.11  L  2515.58,   113.40  " /></a><a ewd:comment="#," style="cursor:pointer;" ewd:lineID="92"><path style="stroke:#000000;stroke-width: 0.85 ;&st6;" d=" M  2558.07,   264.11  L  2558.07,   113.40  " /></a><a style="cursor:pointer;" ewd:lineID="93"><path style="stroke:#999999;stroke-width: 5.10 ;&st6;" d=" M  2634.56,   313.97  L  2634.56,   383.09  " /></a><a style="cursor:pointer;" ewd:lineID="94"><path style="stroke:#999999;stroke-width: 5.10 ;&st6;" d=" M  2634.56,   299.24  L  2634.56,   113.40  " /></a><a style="cursor:pointer;" ewd:lineID="95"><path style="stroke:#FF0000;stroke-width: 5.10 ;&st6;" d=" M  2702.55,   313.97  L  2702.55,   383.09  " /></a><a ewd:comment="4" style="cursor:pointer;" ewd:lineID="96"><path style="stroke:#FF0000;stroke-width: 5.10 ;&st6;" d=" M  2702.55,   299.24  L  2702.55,   113.40  " /></a><a ewd:comment="3" style="cursor:pointer;" ewd:lineID="97"><path style="stroke:#FF0000;stroke-width: 5.10 ;&st6;" d=" M  2702.55,   299.24  L  2702.55,   290.74  L  2719.55,   273.74  L  2719.55,   231.25  L  2974.50,   231.25  L  2974.50,   401.22  " /></a><a style="cursor:pointer;" ewd:lineID="98"><path style="stroke:#000000;stroke-width: 5.10 ;&st6;" d=" M  2745.04,   313.97  L  2745.04,   383.09  " /></a><a ewd:comment="4" style="cursor:pointer;" ewd:lineID="99"><path style="stroke:#000000;stroke-width: 5.10 ;&st6;" d=" M  2745.04,   299.24  L  2745.04,   113.40  " /></a><a ewd:comment="3" style="cursor:pointer;" ewd:lineID="100"><path style="stroke:#000000;stroke-width: 5.10 ;&st6;" d=" M  2745.04,   299.24  L  2745.04,   290.74  L  2762.04,   273.74  L  2762.04,   248.24  L  2940.51,   248.24  L  2940.51,   401.22  " /></a><a ewd:comment="3" style="cursor:pointer;" ewd:lineID="101"><path style="stroke:#008837;stroke-width: 5.10 ;&st6;" d=" M  2745.04,   113.40  L  2745.04,   120.77  L  2762.04,   137.76  L  2762.04,   163.26  L  3025.49,   163.26  L  3025.49,   401.22  " /></a><a style="cursor:pointer;" ewd:lineID="102"> d=" M  2787.53,   314.25  L  2787.53,   383.09 
	
		<path style="stroke:#000000;stroke-width: 5.10 ;&st6;" d=" M  2787.53,   314.25  L  2787.53,   383.09  " /><path style="stroke:#FFFFFF;stroke-width: 4.53 ;&st6;" d=" M  2787.53,   314.25  L  2787.53,   383.09  " /></a><a ewd:comment="4" style="cursor:pointer;" ewd:lineID="103"> d=" M  2787.53,   299.24  L  2787.53,   113.40 
	
		<path style="stroke:#000000;stroke-width: 5.10 ;&st6;" d=" M  2787.53,   299.24  L  2787.53,   113.40  " /><path style="stroke:#FFFFFF;stroke-width: 4.53 ;&st6;" d=" M  2787.53,   299.24  L  2787.53,   113.40  " /></a><a ewd:comment="3" style="cursor:pointer;" ewd:lineID="104"> d=" M  2787.53,   299.24  L  2787.53,   290.74  L  2804.53,   273.74  L  2804.53,   265.24  L  2906.51,   265.24  L  2906.51,   401.22 
		<path style="stroke:#000000;stroke-width: 5.10 ;&st6;" d=" M  2787.53,   299.24  L  2787.53,   290.74  L  2804.53,   273.74  L  2804.53,   265.24  L  2906.51,   265.24  L  2906.51,   401.22  " /><path style="stroke:#FFFFFF;stroke-width: 4.53 ;&st6;" d=" M  2787.53,   299.24  L  2787.53,   290.74  L  2804.53,   273.74  L  2804.53,   265.24  L  2906.51,   265.24  L  2906.51,   401.22  " /></a><a ewd:comment="3" style="cursor:pointer;" ewd:lineID="105"><path style="stroke:#FF0000;stroke-width: 5.10 ;&st6;" d=" M  2787.53,   113.40  L  2787.53,   120.77  L  2804.53,   137.76  L  2804.53,   146.26  L  3059.49,   146.26  L  3059.49,   401.22  " /></a><a ewd:comment="#,7" style="cursor:pointer;" ewd:lineID="106"><path style="stroke:#000000;stroke-width: 0.85 ;&st6;" d=" M  3696.88,   104.33  L  3696.88,   273.17  " /></a><a ewd:comment="7" style="cursor:pointer;" ewd:lineID="107"><path style="stroke:#000000;stroke-width: 5.10 ;&st6;" d=" M  3730.88,   104.33  L  3730.88,   273.17  " /></a><a ewd:comment="7" style="cursor:pointer;" ewd:lineID="108"><path style="stroke:#000000;stroke-width: 5.10 ;&st6;" d=" M  3764.87,   104.33  L  3764.87,   273.17  " /></a><a ewd:comment="7" style="cursor:pointer;" ewd:lineID="109"><path style="stroke:#000000;stroke-width: 5.10 ;&st6;" d=" M  3798.87,   104.33  L  3798.87,   273.17  " /></a><a ewd:comment="7" style="cursor:pointer;" ewd:lineID="110"> d=" M  3832.86,   104.33  L  3832.86,   273.17 
	
		<path style="stroke:#000000;stroke-width: 5.10 ;&st6;" d=" M  3832.86,   104.33  L  3832.86,   273.17  " /><path style="stroke:#FFFFFF;stroke-width: 4.53 ;&st6;" d=" M  3832.86,   104.33  L  3832.86,   273.17  " /></a><a ewd:comment="7" style="cursor:pointer;" ewd:lineID="111"><path style="stroke:#000000;stroke-width: 5.10 ;&st6;" d=" M  3866.85,   104.33  L  3866.85,   273.17  " /></a><a ewd:comment="7" style="cursor:pointer;" ewd:lineID="112"><path style="stroke:#000000;stroke-width: 5.10 ;&st6;" d=" M  3900.85,   104.33  L  3900.85,   273.17  " /></a><a ewd:comment="7" style="cursor:pointer;" ewd:lineID="113"> d=" M  3934.84,   104.33  L  3934.84,   273.17 
	
		<path style="stroke:#000000;stroke-width: 5.10 ;&st6;" d=" M  3934.84,   104.33  L  3934.84,   273.17  " /><path style="stroke:#FFFFFF;stroke-width: 4.53 ;&st6;" d=" M  3934.84,   104.33  L  3934.84,   273.17  " /></a><a style="cursor:pointer;" ewd:lineID="114"><path style="stroke:#008837;stroke-width: 5.10 ;&st6;" d=" M  4240.79,   357.59  L  4240.79,   113.40  " /></a><a style="cursor:pointer;" ewd:lineID="115"><path style="stroke:#00A0C6;stroke-width: 5.10 ;&st6;" d=" M  4274.79,   357.59  L  4274.79,   113.40  " /></a><a style="cursor:pointer;" ewd:lineID="116"><path style="stroke:#000000;stroke-width: 5.10 ;&st6;" d=" M  4733.71,   205.75  L  4733.71,   681.67  " /><path style="stroke:#FFFFFF;stroke-width: 4.53 ;&st6;" d=" M  4733.71,   205.75  L  4733.71,   681.67  " /><path style="stroke:#000000;stroke-width: 1.13 ;&st6;" d=" M  4733.71,   205.75  L  4733.71,   681.67  " /></a><a style="cursor:pointer;" ewd:lineID="117"><path style="stroke:#008837;stroke-width: 5.10 ;&st6;" d=" M  4759.20,   205.75  L  4759.20,   265.24  L  4453.26,   265.24  L  4453.26,   113.40  " /></a><a style="cursor:pointer;" ewd:lineID="118"><path style="stroke:#56077D;stroke-width: 5.10 ;&st6;" d=" M  4827.19,   308.30  L  4827.19,   418.22  " /></a><a style="cursor:pointer;" ewd:lineID="119"><path style="stroke:#99D9E8;stroke-width: 5.10 ;&st6;" d=" M  4827.19,   205.75  L  4827.19,   256.18  " /></a><a style="cursor:pointer;" ewd:lineID="120"><path style="stroke:#00A0C6;stroke-width: 5.10 ;&st6;" d=" M  4861.19,   308.30  L  4861.19,   418.22  " /></a><a style="cursor:pointer;" ewd:lineID="121"><path style="stroke:#999999;stroke-width: 5.10 ;&st6;" d=" M  4895.18,   308.30  L  4895.18,   418.22  " /></a><a style="cursor:pointer;" ewd:lineID="122"><path style="stroke:#C3AF96;stroke-width: 5.10 ;&st6;" d=" M  4929.18,   308.30  L  4929.18,   418.22  " /></a><a style="cursor:pointer;" ewd:lineID="123"><path style="stroke:#992903;stroke-width: 5.10 ;&st6;" d=" M  4963.17,   308.30  L  4963.17,   418.22  " /></a><a style="cursor:pointer;" ewd:lineID="124"><path style="stroke:#FF0000;stroke-width: 5.10 ;&st6;" d=" M  4997.17,   308.30  L  4997.17,   418.22  " /></a><a style="cursor:pointer;" ewd:lineID="125"><path style="stroke:#000000;stroke-width: 5.10 ;&st6;" d=" M  5031.16,   308.30  L  5031.16,   418.22  " /></a><a style="cursor:pointer;" ewd:lineID="126"> d=" M  5065.15,   308.30  L  5065.15,   418.22 
	
		<path style="stroke:#000000;stroke-width: 5.10 ;&st6;" d=" M  5065.15,   308.30  L  5065.15,   418.22  " /><path style="stroke:#FFFFFF;stroke-width: 4.53 ;&st6;" d=" M  5065.15,   308.30  L  5065.15,   418.22  " /></a><a style="cursor:pointer;" ewd:lineID="127"> d=" M  5107.65,   308.30  L  5107.65,   401.22  L  5252.12,   401.22  L  5252.12,   180.26 
	
		<path style="stroke:#000000;stroke-width: 5.10 ;&st6;" d=" M  5107.65,   308.30  L  5107.65,   401.22  L  5252.12,   401.22  L  5252.12,   180.26  " /><path style="stroke:#FFFFFF;stroke-width: 4.53 ;&st6;" d=" M  5107.65,   308.30  L  5107.65,   401.22  L  5252.12,   401.22  L  5252.12,   180.26  " /></a><a style="cursor:pointer;" ewd:lineID="128"><path style="stroke:#008837;stroke-width: 5.10 ;&st6;" d=" M  5141.64,   308.30  L  5141.64,   384.22  L  5226.63,   384.22  L  5226.63,   180.26  " /></a><a style="cursor:pointer;" ewd:lineID="129"> d=" M  5286.12,   426.71  L  5286.12,   358.73 
	
		<path style="stroke:#000000;stroke-width: 5.10 ;&st6;" d=" M  5286.12,   426.71  L  5286.12,   358.73  " /><path style="stroke:#FFFFFF;stroke-width: 4.53 ;&st6;" d=" M  5286.12,   426.71  L  5286.12,   358.73  " /></a><a style="cursor:pointer;" ewd:lineID="130"> d=" M  5286.12,   273.74  L  5286.12,   335.21 
	
		<path style="stroke:#000000;stroke-width: 5.10 ;&st6;" d=" M  5286.12,   273.74  L  5286.12,   335.21  " /><path style="stroke:#FFFFFF;stroke-width: 4.53 ;&st6;" d=" M  5286.12,   273.74  L  5286.12,   335.21  " /></a><a style="cursor:pointer;" ewd:lineID="131"> d=" M  5286.12,   180.26  L  5286.12,   248.24 
	
		<path style="stroke:#000000;stroke-width: 5.10 ;&st6;" d=" M  5286.12,   180.26  L  5286.12,   248.24  " /><path style="stroke:#FFFFFF;stroke-width: 4.53 ;&st6;" d=" M  5286.12,   180.26  L  5286.12,   248.24  " /></a><a style="cursor:pointer;" ewd:lineID="132"> d=" M  5286.12,    69.77  L  5286.12,   154.76 
	
		<path style="stroke:#000000;stroke-width: 5.10 ;&st6;" d=" M  5286.12,    69.77  L  5286.12,   154.76  " /><path style="stroke:#FFFFFF;stroke-width: 4.53 ;&st6;" d=" M  5286.12,    69.77  L  5286.12,   154.76  " /></a><a style="cursor:pointer;" ewd:lineID="133"><path style="stroke:#008837;stroke-width: 5.10 ;&st6;" d=" M  5320.11,   426.71  L  5320.11,   358.73  " /></a><a style="cursor:pointer;" ewd:lineID="134"><path style="stroke:#99D9E8;stroke-width: 5.10 ;&st6;" d=" M  5320.11,   273.74  L  5320.11,   335.50  " /></a><a style="cursor:pointer;" ewd:lineID="135"><path style="stroke:#008837;stroke-width: 5.10 ;&st6;" d=" M  5320.11,   180.26  L  5320.11,   248.24  " /></a><a style="cursor:pointer;" ewd:lineID="136"><path style="stroke:#7FC97F;stroke-width: 5.10 ;&st6;" d=" M  5320.11,    69.77  L  5320.11,   154.76  " /></a><a style="cursor:pointer;" ewd:lineID="137"> d=" M  5388.10,   273.74  L  5388.10,   350.23 
	
		<path style="stroke:#000000;stroke-width: 5.10 ;&st6;" d=" M  5388.10,   273.74  L  5388.10,   350.23  " /><path style="stroke:#FFFFFF;stroke-width: 4.53 ;&st6;" d=" M  5388.10,   273.74  L  5388.10,   350.23  " /></a><a style="cursor:pointer;" ewd:lineID="138"><path style="stroke:#C3AF96;stroke-width: 5.10 ;&st6;" d=" M  5422.09,   273.74  L  5422.09,   350.23  " /></a><a style="cursor:pointer;" ewd:lineID="139"><path style="stroke:#00A0C6;stroke-width: 5.10 ;&st6;" d=" M  5456.09,   171.76  L  5456.09,   511.70  L  4402.26,   511.70  L  4402.26,   113.40  " /></a><a style="cursor:pointer;" ewd:lineID="140"><path style="stroke:#56077D;stroke-width: 5.10 ;&st6;" d=" M  5456.09,    69.77  L  5456.09,   154.76  " /></a><a style="cursor:pointer;" ewd:lineID="141"> d=" M  5490.08,   171.76  L  5490.08,   528.70  L  4368.27,   528.70  L  4368.27,   113.40 
	
		<path style="stroke:#000000;stroke-width: 5.10 ;&st6;" d=" M  5490.08,   171.76  L  5490.08,   528.70  L  4368.27,   528.70  L  4368.27,   113.40  " /><path style="stroke:#FFFFFF;stroke-width: 4.53 ;&st6;" d=" M  5490.08,   171.76  L  5490.08,   528.70  L  4368.27,   528.70  L  4368.27,   113.40  " /></a><a style="cursor:pointer;" ewd:lineID="142"> d=" M  5490.08,    69.77  L  5490.08,   154.76 
	
		<path style="stroke:#000000;stroke-width: 5.10 ;&st6;" d=" M  5490.08,    69.77  L  5490.08,   154.76  " /><path style="stroke:#FFFFFF;stroke-width: 4.53 ;&st6;" d=" M  5490.08,    69.77  L  5490.08,   154.76  " /></a><a style="cursor:pointer;" ewd:lineID="143"><path style="stroke:#7FC97F;stroke-width: 5.10 ;&st6;" d=" M  5541.07,   350.23  L  5541.07,   409.72  " /></a><a style="cursor:pointer;" ewd:lineID="144"><path style="stroke:#7FC97F;stroke-width: 5.10 ;&st6;" d=" M  5541.07,   273.74  L  5541.07,   335.50  " /></a><a style="cursor:pointer;" ewd:lineID="145"><path style="stroke:#F668B2;stroke-width: 5.10 ;&st6;" d=" M  5541.07,   163.26  L  5541.07,   256.74  " /></a><a style="cursor:pointer;" ewd:lineID="146"><path style="stroke:#F668B2;stroke-width: 5.10 ;&st6;" d=" M  5541.07,    69.77  L  5541.07,   148.53  " /></a><a style="cursor:pointer;" ewd:lineID="147"> d=" M  5575.07,   350.23  L  5575.07,   409.72 
	
		<path style="stroke:#000000;stroke-width: 5.10 ;&st6;" d=" M  5575.07,   350.23  L  5575.07,   409.72  " /><path style="stroke:#FFFFFF;stroke-width: 4.53 ;&st6;" d=" M  5575.07,   350.23  L  5575.07,   409.72  " /></a><a style="cursor:pointer;" ewd:lineID="148"> d=" M  5575.07,   273.74  L  5575.07,   335.21 
	
		<path style="stroke:#000000;stroke-width: 5.10 ;&st6;" d=" M  5575.07,   273.74  L  5575.07,   335.21  " /><path style="stroke:#FFFFFF;stroke-width: 4.53 ;&st6;" d=" M  5575.07,   273.74  L  5575.07,   335.21  " /></a><a style="cursor:pointer;" ewd:lineID="149"> d=" M  5575.07,   163.26  L  5575.07,   256.74 
	
		<path style="stroke:#000000;stroke-width: 5.10 ;&st6;" d=" M  5575.07,   163.26  L  5575.07,   256.74  " /><path style="stroke:#FFFFFF;stroke-width: 4.53 ;&st6;" d=" M  5575.07,   163.26  L  5575.07,   256.74  " /></a><a style="cursor:pointer;" ewd:lineID="150"> d=" M  5575.07,    69.77  L  5575.07,   148.24 
	
		<path style="stroke:#000000;stroke-width: 5.10 ;&st6;" d=" M  5575.07,    69.77  L  5575.07,   148.24  " /><path style="stroke:#FFFFFF;stroke-width: 4.53 ;&st6;" d=" M  5575.07,    69.77  L  5575.07,   148.24  " /></a><a style="cursor:pointer;" ewd:lineID="151"><path style="stroke:#000000;stroke-width: 5.10 ;&st6;" d=" M  5617.56,    69.77  L  5617.56,   154.76  " /></a><a style="cursor:pointer;" ewd:lineID="152"> d=" M  5651.56,    69.77  L  5651.56,   154.76 
	
		<path style="stroke:#000000;stroke-width: 5.10 ;&st6;" d=" M  5651.56,    69.77  L  5651.56,   154.76  " /><path style="stroke:#FFFFFF;stroke-width: 4.53 ;&st6;" d=" M  5651.56,    69.77  L  5651.56,   154.76  " /></a><a style="cursor:pointer;" ewd:lineID="153"><path style="stroke:#7FC97F;stroke-width: 5.10 ;&st6;" d=" M  5745.04,   503.20  L  5745.04,   681.67  L  5320.11,   681.67  L  5320.11,   460.71  " /></a><a style="cursor:pointer;" ewd:lineID="154"><path style="stroke:#7FC97F;stroke-width: 5.10 ;&st6;" d=" M  5745.04,   427.28  L  5745.04,   479.97  " /></a><a style="cursor:pointer;" ewd:lineID="155"><path style="stroke:#7FC97F;stroke-width: 5.10 ;&st6;" d=" M  5838.52,   521.33  L  5838.52,   545.69  L  4325.78,   545.69  L  4325.78,   113.40  " /></a><a style="cursor:pointer;" ewd:lineID="156"><path style="stroke:#000000;stroke-width: 5.10 ;&st6;" d=" M  5838.52,   427.28  L  5838.52,   468.07  " /></a><a style="cursor:pointer;" ewd:lineID="157"><path style="stroke:#008837;stroke-width: 5.10 ;&st6;" d=" M  5889.52,   230.68  L  5889.52,   103.77  " /></a><a style="cursor:pointer;" ewd:lineID="158"><path style="stroke:#000000;stroke-width: 5.10 ;&st6;" d=" M  5915.01,   503.20  L  5915.01,   681.67  " /><path style="stroke:#FFFFFF;stroke-width: 4.53 ;&st6;" d=" M  5915.01,   503.20  L  5915.01,   681.67  " /><path style="stroke:#000000;stroke-width: 1.13 ;&st6;" d=" M  5915.01,   503.20  L  5915.01,   681.67  " /></a><a style="cursor:pointer;" ewd:lineID="159"><path style="stroke:#000000;stroke-width: 5.10 ;&st6;" d=" M  5915.01,   486.20  L  5915.01,   443.71  L  5957.50,   443.71  L  5966.00,   435.21  L  5966.00,   427.28  " /><path style="stroke:#FFFFFF;stroke-width: 4.53 ;&st6;" d=" M  5915.01,   486.20  L  5915.01,   443.71  L  5957.50,   443.71  L  5966.00,   435.21  L  5966.00,   427.28  " /><path style="stroke:#000000;stroke-width: 1.13 ;&st6;" d=" M  5915.01,   486.20  L  5915.01,   443.71  L  5957.50,   443.71  L  5966.00,   435.21  L  5966.00,   427.28  " /></a><a style="cursor:pointer;" ewd:lineID="160"><path style="stroke:#000000;stroke-width: 5.10 ;&st6;" d=" M  5966.00,   503.20  L  5966.00,   681.67  " /><path style="stroke:#FFFFFF;stroke-width: 4.53 ;&st6;" d=" M  5966.00,   503.20  L  5966.00,   681.67  " /><path style="stroke:#000000;stroke-width: 1.13 ;&st6;" d=" M  5966.00,   503.20  L  5966.00,   681.67  " /></a><a style="cursor:pointer;" ewd:lineID="161"><path style="stroke:#000000;stroke-width: 5.10 ;&st6;" d=" M  5966.00,   486.20  L  5966.00,   427.28  " /><path style="stroke:#FFFFFF;stroke-width: 4.53 ;&st6;" d=" M  5966.00,   486.20  L  5966.00,   427.28  " /><path style="stroke:#000000;stroke-width: 1.13 ;&st6;" d=" M  5966.00,   486.20  L  5966.00,   427.28  " /></a><a style="cursor:pointer;" ewd:lineID="162"><path style="stroke:#00A0C6;stroke-width: 5.10 ;&st6;" d=" M  6016.99,   427.28  L  6016.99,   579.69  L  3909.35,   579.69  L  3909.35,   613.68  L   977.34,   613.68  L   977.34,   137.76  L   773.37,   137.76  L   773.37,   205.18  " /></a><a style="cursor:pointer;" ewd:lineID="163"><path style="stroke:#7FC97F;stroke-width: 5.10 ;&st6;" d=" M  6059.49,   427.28  L  6059.49,   596.69  L  3943.34,   596.69  L  3943.34,   630.68  L   951.84,   630.68  L   951.84,   154.76  L   875.35,   154.76  L   875.35,   205.18  " /></a><a style="cursor:pointer;" ewd:lineID="164"><path style="stroke:#999999;stroke-width: 5.10 ;&st6;" d=" M  6067.99,   153.63  L  6067.99,   112.27  L  5991.50,   112.27  L  5991.50,   214.25  L  5974.50,   214.25  L  5966.00,   222.75  L  5966.00,   230.68  " /></a><a style="cursor:pointer;" ewd:lineID="165"> d=" M  6067.99,   153.63  L  6067.99,   146.26  L  6084.98,   129.26  L  6084.98,    95.27  L  5966.00,    95.27  L  5966.00,   230.68 
	
		<path style="stroke:#000000;stroke-width: 5.10 ;&st6;" d=" M  6067.99,   153.63  L  6067.99,   146.26  L  6084.98,   129.26  L  6084.98,    95.27  L  5966.00,    95.27  L  5966.00,   230.68  " /><path style="stroke:#FFFFFF;stroke-width: 4.53 ;&st6;" d=" M  6067.99,   153.63  L  6067.99,   146.26  L  6084.98,   129.26  L  6084.98,    95.27  L  5966.00,    95.27  L  5966.00,   230.68  " /></a><a style="cursor:pointer;" ewd:lineID="166"> d=" M  6093.48,   427.28  L  6093.48,   613.68  L  5651.56,   613.68  L  5651.56,   171.76 
	
		<path style="stroke:#000000;stroke-width: 5.10 ;&st6;" d=" M  6093.48,   427.28  L  6093.48,   613.68  L  5651.56,   613.68  L  5651.56,   171.76  " /><path style="stroke:#FFFFFF;stroke-width: 4.53 ;&st6;" d=" M  6093.48,   427.28  L  6093.48,   613.68  L  5651.56,   613.68  L  5651.56,   171.76  " /></a><a style="cursor:pointer;" ewd:lineID="167"><path style="stroke:#56077D;stroke-width: 5.10 ;&st6;" d=" M  6118.98,   427.28  L  6118.98,   630.68  L  5617.56,   630.68  L  5617.56,   171.76  " /></a><a style="cursor:pointer;" ewd:lineID="168"><path style="stroke:#99D9E8;stroke-width: 5.10 ;&st6;" d=" M  6127.48,   103.77  L  6127.48,   222.75  L  6067.99,   222.75  L  6067.99,   206.88  " /></a><a style="cursor:pointer;" ewd:lineID="169"> d=" M  6144.47,   427.28  L  6144.47,   647.68  L  4274.79,   647.68  L  4274.79,   410.85 
	
		<path style="stroke:#000000;stroke-width: 5.10 ;&st6;" d=" M  6144.47,   427.28  L  6144.47,   647.68  L  4274.79,   647.68  L  4274.79,   410.85  " /><path style="stroke:#FFFFFF;stroke-width: 4.53 ;&st6;" d=" M  6144.47,   427.28  L  6144.47,   647.68  L  4274.79,   647.68  L  4274.79,   410.85  " /></a><a style="cursor:pointer;" ewd:lineID="170"><path style="stroke:#000000;stroke-width: 5.10 ;&st6;" d=" M  6169.97,   427.28  L  6169.97,   664.67  L  4240.79,   664.67  L  4240.79,   410.85  " /></a><a style="cursor:pointer;" ewd:lineID="171"><path style="stroke:#000000;stroke-width: 0.85;stroke-dasharray:3, 1.5;&st6;" d=" M   458.92,   180.26  L   458.92,   163.26  " /></a><a style="cursor:pointer;" ewd:lineID="172"><path style="stroke:#000000;stroke-width: 0.85;stroke-dasharray:3, 1.5;&st6;" d=" M   458.92,   358.73  L   458.92,   341.73  " /></a><a style="cursor:pointer;" ewd:lineID="173"><path style="stroke:#000000;stroke-width: 0.85;stroke-dasharray:3, 1.5;&st6;" d=" M  1300.28,   315.67  L  1300.28,   171.76  " /></a><a style="cursor:pointer;" ewd:lineID="174"><path style="stroke:#000000;stroke-width: 0.85;stroke-dasharray:3, 1.5;&st6;" d=" M   458.92,   333.23  L   458.92,   316.23  " /></a><a style="cursor:pointer;" ewd:lineID="175"><path style="stroke:#000000;stroke-width: 0.85;stroke-dasharray:3, 1.5;&st6;" d=" M   458.92,   282.24  L   458.92,   265.24  " /></a><a style="cursor:pointer;" ewd:lineID="176"><path style="stroke:#000000;stroke-width: 0.85;stroke-dasharray:3, 1.5;&st6;" d=" M   458.92,   239.75  L   458.92,   256.74  " /></a><a style="cursor:pointer;" ewd:lineID="177"><path style="stroke:#000000;stroke-width: 0.85;stroke-dasharray:3, 1.5;&st6;" d=" M   458.92,   188.75  L   458.92,   205.75  " /></a><a style="cursor:pointer;" ewd:lineID="178"><path style="stroke:#000000;stroke-width: 0.85;stroke-dasharray:3, 1.5;&st6;" d=" M   458.92,   129.26  L   458.92,   113.40  " /></a><a style="cursor:pointer;" ewd:lineID="179"><path style="stroke:#000000;stroke-width: 0.85;stroke-dasharray:3, 1.5;&st6;" d=" M  1512.75,   315.67  L  1512.75,   171.76  " /></a><a style="cursor:pointer;" ewd:lineID="180"><path style="stroke:#000000;stroke-width: 0.85;stroke-dasharray:3, 1.5;&st6;" d=" M  2345.61,   171.76  L  2345.61,   113.40  " /></a><a style="cursor:pointer;" ewd:lineID="181"><path style="stroke:#000000;stroke-width: 0.85;stroke-dasharray:3, 1.5;&st6;" d=" M  2345.61,   205.75  L  2345.61,   264.11  " /></a><a style="cursor:pointer;" ewd:lineID="182"><path style="stroke:#000000;stroke-width: 0.85;stroke-dasharray:3, 1.5;&st6;" d=" M  2830.03,   180.26  L  2830.03,   113.40  " /></a><a style="cursor:pointer;" ewd:lineID="183"><path style="stroke:#000000;stroke-width: 0.85;stroke-dasharray:3, 1.5;&st6;" d=" M  2830.03,   214.25  L  2830.03,   299.24  " /></a><a style="cursor:pointer;" ewd:lineID="184"><path style="stroke:#000000;stroke-width: 0.85;stroke-dasharray:3, 1.5;&st6;" d=" M  2830.03,   333.23  L  2830.03,   307.73  " /></a><a style="cursor:pointer;" ewd:lineID="185"><path style="stroke:#000000;stroke-width: 0.85;stroke-dasharray:3, 1.5;&st6;" d=" M  2830.03,   299.24  L  2838.53,   290.74  L  2872.52,   290.74  " /></a><a style="cursor:pointer;" ewd:lineID="186"><path style="stroke:#000000;stroke-width: 0.85;stroke-dasharray:3, 1.5;&st6;" d=" M  2192.63,   171.76  L  2192.63,   113.40  " /></a><a style="cursor:pointer;" ewd:lineID="187"><path style="stroke:#000000;stroke-width: 0.85;stroke-dasharray:3, 1.5;&st6;" d=" M  2872.52,   324.73  L  2872.52,   401.22  " /></a><a style="cursor:pointer;" ewd:lineID="188"><path style="stroke:#000000;stroke-width: 0.85;stroke-dasharray:3, 1.5;&st6;" d=" M  3076.49,   180.26  L  3076.49,   129.26  L  2845.89,   129.26  L  2830.03,   113.40  " /></a><a ewd:figtype="w2w" style="cursor:pointer;" ewd:pinNo="7" ewd:code="QR1" ewd:figID="48"><path style="&st2;" d=" M   339.94,   333.23  L   322.95,   333.23  L   322.95,   341.73  L   339.94,   341.73  L   339.94,   333.23 " /><text style="&st8;" transform="matrix(&st16;  325.84  339.6 )"><tspan x="0" style="&st18;" y="0">QR1</tspan></text></a><a ewd:figtype="w2w" style="cursor:pointer;" ewd:pinNo="7" ewd:code="QM1" ewd:figID="49"><path style="&st2;" d=" M   339.94,   256.74  L   322.95,   256.74  L   322.95,   265.24  L   339.94,   265.24  L   339.94,   256.74 " /><text style="&st8;" transform="matrix(&st16;  325.24  263.11 )"><tspan x="0" style="&st18;" y="0">QM1</tspan></text></a><a ewd:figtype="w2w" style="cursor:pointer;" ewd:pinNo="40" ewd:code="MF1" ewd:figID="50"><path style="&st2;" d=" M   339.94,   180.26  L   322.95,   180.26  L   322.95,   188.75  L   339.94,   188.75  L   339.94,   180.26 " /><text style="&st8;" transform="matrix(&st16;  325.73  186.62 )"><tspan x="0" style="&st18;" y="0">MF1</tspan></text></a><a ewd:figtype="w2w" style="cursor:pointer;" ewd:pinNo="8" ewd:code="QR1" ewd:figID="51"><path style="&st2;" d=" M   382.44,   333.23  L   365.44,   333.23  L   365.44,   341.73  L   382.44,   341.73  L   382.44,   333.23 " /><text style="&st8;" transform="matrix(&st16;  368.33  339.6 )"><tspan x="0" style="&st18;" y="0">QR1</tspan></text></a><a ewd:figtype="w2w" style="cursor:pointer;" ewd:pinNo="8" ewd:code="QM1" ewd:figID="52"><path style="&st2;" d=" M   382.44,   256.74  L   365.44,   256.74  L   365.44,   265.24  L   382.44,   265.24  L   382.44,   256.74 " /><text style="&st8;" transform="matrix(&st16;  367.73  263.11 )"><tspan x="0" style="&st18;" y="0">QM1</tspan></text></a><a ewd:figtype="w2w" style="cursor:pointer;" ewd:pinNo="39" ewd:code="MF1" ewd:figID="53"><path style="&st2;" d=" M   382.44,   180.26  L   365.44,   180.26  L   365.44,   188.75  L   382.44,   188.75  L   382.44,   180.26 " /><text style="&st8;" transform="matrix(&st16;  368.22  186.62 )"><tspan x="0" style="&st18;" y="0">MF1</tspan></text></a><a ewd:figtype="w2w" style="cursor:pointer;" ewd:pinNo="9" ewd:code="QR1" ewd:figID="54"><path style="&st2;" d=" M   424.93,   333.23  L   407.93,   333.23  L   407.93,   341.73  L   424.93,   341.73  L   424.93,   333.23 " /><text style="&st8;" transform="matrix(&st16;  410.82  339.6 )"><tspan x="0" style="&st18;" y="0">QR1</tspan></text></a><a ewd:figtype="w2w" style="cursor:pointer;" ewd:pinNo="9" ewd:code="QM1" ewd:figID="55"><path style="&st2;" d=" M   424.93,   256.74  L   407.93,   256.74  L   407.93,   265.24  L   424.93,   265.24  L   424.93,   256.74 " /><text style="&st8;" transform="matrix(&st16;  410.22  263.11 )"><tspan x="0" style="&st18;" y="0">QM1</tspan></text></a><a ewd:figtype="w2w" style="cursor:pointer;" ewd:pinNo="41" ewd:code="MF1" ewd:figID="56"><path style="&st2;" d=" M   424.93,   180.26  L   407.93,   180.26  L   407.93,   188.75  L   424.93,   188.75  L   424.93,   180.26 " /><text style="&st8;" transform="matrix(&st16;  410.71  186.62 )"><tspan x="0" style="&st18;" y="0">MF1</tspan></text></a><a ewd:figtype="w2w" style="cursor:pointer;" ewd:pinNo="6" ewd:code="QR1" ewd:figID="57"><path style="&st2;" d=" M   467.42,   333.23  L   450.42,   333.23  L   450.42,   341.73  L   467.42,   341.73  L   467.42,   333.23 " /><text style="&st8;" transform="matrix(&st16;  453.32  339.6 )"><tspan x="0" style="&st18;" y="0">QR1</tspan></text></a><a ewd:figtype="w2w" style="cursor:pointer;" ewd:pinNo="6" ewd:code="QM1" ewd:figID="58"><path style="&st2;" d=" M   467.42,   256.74  L   450.42,   256.74  L   450.42,   265.24  L   467.42,   265.24  L   467.42,   256.74 " /><text style="&st8;" transform="matrix(&st16;  452.72  263.11 )"><tspan x="0" style="&st18;" y="0">QM1</tspan></text></a><a ewd:figtype="w2w" style="cursor:pointer;" ewd:pinNo="38" ewd:code="MF1" ewd:figID="59"><path style="&st2;" d=" M   467.42,   180.26  L   450.42,   180.26  L   450.42,   188.75  L   467.42,   188.75  L   467.42,   180.26 " /><text style="&st8;" transform="matrix(&st16;  453.2  186.62 )"><tspan x="0" style="&st18;" y="0">MF1</tspan></text></a><a ewd:figtype="w2w" style="cursor:pointer;" ewd:pinNo="25" ewd:code="LM1" ewd:figID="60"><path style="&st2;" d=" M  1240.79,   486.20  L  1223.80,   486.20  L  1223.80,   494.70  L  1240.79,   494.70  L  1240.79,   486.20 " /><text style="&st8;" transform="matrix(&st16;  1226.61  492.57 )"><tspan x="0" style="&st18;" y="0">LM1</tspan></text></a><a ewd:figtype="w2w" style="cursor:pointer;" ewd:pinNo="59" ewd:code="MF1" ewd:figID="61"><path style="&st2;" d=" M  1240.79,   426.71  L  1223.80,   426.71  L  1223.80,   435.21  L  1240.79,   435.21  L  1240.79,   426.71 " /><text style="&st8;" transform="matrix(&st16;  1226.58  433.08 )"><tspan x="0" style="&st18;" y="0">MF1</tspan></text></a><a ewd:figtype="w2w" style="cursor:pointer;" ewd:pinNo="24" ewd:code="LM1" ewd:figID="62"><path style="&st2;" d=" M  1308.78,   486.20  L  1291.78,   486.20  L  1291.78,   494.70  L  1308.78,   494.70  L  1308.78,   486.20 " /><text style="&st8;" transform="matrix(&st16;  1294.6  492.57 )"><tspan x="0" style="&st18;" y="0">LM1</tspan></text></a><a ewd:figtype="w2w" style="cursor:pointer;" ewd:pinNo="60" ewd:code="MF1" ewd:figID="63"><path style="&st2;" d=" M  1308.78,   426.71  L  1291.78,   426.71  L  1291.78,   435.21  L  1308.78,   435.21  L  1308.78,   426.71 " /><text style="&st8;" transform="matrix(&st16;  1294.56  433.08 )"><tspan x="0" style="&st18;" y="0">MF1</tspan></text></a><a ewd:figtype="w2w" style="cursor:pointer;" ewd:pinNo="25" ewd:code="KM1" ewd:figID="64"><path style="&st2;" d=" M  1351.27,   486.20  L  1334.28,   486.20  L  1334.28,   494.70  L  1351.27,   494.70  L  1351.27,   486.20 " /><text style="&st8;" transform="matrix(&st16;  1336.87  492.57 )"><tspan x="0" style="&st18;" y="0">KM1</tspan></text></a><a ewd:figtype="w2w" style="cursor:pointer;" ewd:pinNo="7" ewd:code="MF2" ewd:figID="65"><path style="&st2;" d=" M  1351.27,   426.71  L  1334.28,   426.71  L  1334.28,   435.21  L  1351.27,   435.21  L  1351.27,   426.71 " /><text style="&st8;" transform="matrix(&st16;  1337.06  433.08 )"><tspan x="0" style="&st18;" y="0">MF2</tspan></text></a><a ewd:figtype="w2w" style="cursor:pointer;" ewd:pinNo="24" ewd:code="KM1" ewd:figID="66"><path style="&st2;" d=" M  1402.27,   486.20  L  1385.27,   486.20  L  1385.27,   494.70  L  1402.27,   494.70  L  1402.27,   486.20 " /><text style="&st8;" transform="matrix(&st16;  1387.86  492.57 )"><tspan x="0" style="&st18;" y="0">KM1</tspan></text></a><a ewd:figtype="w2w" style="cursor:pointer;" ewd:pinNo="8" ewd:code="MF2" ewd:figID="67"><path style="&st2;" d=" M  1402.27,   426.71  L  1385.27,   426.71  L  1385.27,   435.21  L  1402.27,   435.21  L  1402.27,   426.71 " /><text style="&st8;" transform="matrix(&st16;  1388.05  433.08 )"><tspan x="0" style="&st18;" y="0">MF2</tspan></text></a><a ewd:figtype="w2w" style="cursor:pointer;" ewd:pinNo="9" ewd:code="IM1" ewd:figID="68"><path style="&st2;" d=" M  1461.76,   486.20  L  1444.76,   486.20  L  1444.76,   494.70  L  1461.76,   494.70  L  1461.76,   486.20 " /><text style="&st8;" transform="matrix(&st16;  1448.48  492.57 )"><tspan x="0" style="&st18;" y="0">IM1</tspan></text></a><a ewd:figtype="w2w" style="cursor:pointer;" ewd:pinNo="61" ewd:code="MF2" ewd:figID="69"><path style="&st2;" d=" M  1461.76,   426.71  L  1444.76,   426.71  L  1444.76,   435.21  L  1461.76,   435.21  L  1461.76,   426.71 " /><text style="&st8;" transform="matrix(&st16;  1447.54  433.08 )"><tspan x="0" style="&st18;" y="0">MF2</tspan></text></a><a ewd:figtype="w2w" style="cursor:pointer;" ewd:pinNo="10" ewd:code="IM1" ewd:figID="70"><path style="&st2;" d=" M  1512.75,   486.20  L  1495.75,   486.20  L  1495.75,   494.70  L  1512.75,   494.70  L  1512.75,   486.20 " /><text style="&st8;" transform="matrix(&st16;  1499.47  492.57 )"><tspan x="0" style="&st18;" y="0">IM1</tspan></text></a><a ewd:figtype="w2w" style="cursor:pointer;" ewd:pinNo="62" ewd:code="MF2" ewd:figID="71"><path style="&st2;" d=" M  1512.75,   426.71  L  1495.75,   426.71  L  1495.75,   435.21  L  1512.75,   435.21  L  1512.75,   426.71 " /><text style="&st8;" transform="matrix(&st16;  1498.53  433.08 )"><tspan x="0" style="&st18;" y="0">MF2</tspan></text></a><a ewd:figtype="w2w" style="cursor:pointer;" ewd:pinNo="9" ewd:code="JM1" ewd:figID="72"><path style="&st2;" d=" M  1606.23,   486.20  L  1589.23,   486.20  L  1589.23,   494.70  L  1606.23,   494.70  L  1606.23,   486.20 " /><text style="&st8;" transform="matrix(&st16;  1592.65  492.57 )"><tspan x="0" style="&st18;" y="0">JM1</tspan></text></a><a ewd:figtype="w2w" style="cursor:pointer;" ewd:pinNo="61" ewd:code="MF1" ewd:figID="73"><path style="&st2;" d=" M  1606.23,   426.71  L  1589.23,   426.71  L  1589.23,   435.21  L  1606.23,   435.21  L  1606.23,   426.71 " /><text style="&st8;" transform="matrix(&st16;  1592.01  433.08 )"><tspan x="0" style="&st18;" y="0">MF1</tspan></text></a><a ewd:figtype="w2w" style="cursor:pointer;" ewd:pinNo="10" ewd:code="JM1" ewd:figID="74"><path style="&st2;" d=" M  1657.22,   486.20  L  1640.23,   486.20  L  1640.23,   494.70  L  1657.22,   494.70  L  1657.22,   486.20 " /><text style="&st8;" transform="matrix(&st16;  1643.65  492.57 )"><tspan x="0" style="&st18;" y="0">JM1</tspan></text></a><a ewd:figtype="w2w" style="cursor:pointer;" ewd:pinNo="62" ewd:code="MF1" ewd:figID="75"><path style="&st2;" d=" M  1657.22,   426.71  L  1640.23,   426.71  L  1640.23,   435.21  L  1657.22,   435.21  L  1657.22,   426.71 " /><text style="&st8;" transform="matrix(&st16;  1643.01  433.08 )"><tspan x="0" style="&st18;" y="0">MF1</tspan></text></a><a ewd:figtype="w2w" style="cursor:pointer;" ewd:pinNo="12" ewd:code="GF1" ewd:figID="76"><path style="&st2;" d=" M  1699.72,   426.71  L  1682.72,   426.71  L  1682.72,   435.21  L  1699.72,   435.21  L  1699.72,   426.71 " /><text style="&st8;" transform="matrix(&st16;  1685.76  433.08 )"><tspan x="0" style="&st18;" y="0">GF1</tspan></text></a><a ewd:figtype="w2w" style="cursor:pointer;" ewd:pinNo="11" ewd:code="GF1" ewd:figID="77"><path style="&st2;" d=" M  1750.71,   426.71  L  1733.71,   426.71  L  1733.71,   435.21  L  1750.71,   435.21  L  1750.71,   426.71 " /><text style="&st8;" transform="matrix(&st16;  1736.75  433.08 )"><tspan x="0" style="&st18;" y="0">GF1</tspan></text></a><a ewd:figtype="w2w" style="cursor:pointer;" ewd:pinNo="1" ewd:code="GF1" ewd:figID="78"><path style="&st2;" d=" M  1895.18,   435.21  L  1878.19,   435.21  L  1878.19,   443.71  L  1895.18,   443.71  L  1895.18,   435.21 " /><text style="&st8;" transform="matrix(&st16;  1881.23  441.58 )"><tspan x="0" style="&st18;" y="0">GF1</tspan></text></a><a ewd:figtype="w2w" style="cursor:pointer;" ewd:pinNo="2" ewd:code="GF1" ewd:figID="79"><path style="&st2;" d=" M  1946.17,   435.21  L  1929.18,   435.21  L  1929.18,   443.71  L  1946.17,   443.71  L  1946.17,   435.21 " /><text style="&st8;" transform="matrix(&st16;  1932.22  441.58 )"><tspan x="0" style="&st18;" y="0">GF1</tspan></text></a><a ewd:figtype="w2w" style="cursor:pointer;" ewd:pinNo="61" ewd:code="AF1" ewd:figID="80"><path style="&st2;" d=" M  2039.66,   256.74  L  2022.66,   256.74  L  2022.66,   265.24  L  2039.66,   265.24  L  2039.66,   256.74 " /><text style="&st8;" transform="matrix(&st16;  2025.86  263.11 )"><tspan x="0" style="&st18;" y="0">AF1</tspan></text></a><a ewd:figtype="w2w" style="cursor:pointer;" ewd:pinNo="4" ewd:code="FO2" ewd:figID="81"><path style="&st2;" d=" M  2643.06,   299.24  L  2626.06,   299.24  L  2626.06,   307.73  L  2643.06,   307.73  L  2643.06,   299.24 " /><text style="&st8;" transform="matrix(&st16;  2628.95  305.6 )"><tspan x="0" style="&st18;" y="0">FO2</tspan></text></a><a ewd:figtype="w2w" style="cursor:pointer;" ewd:pinNo="15" ewd:code="FO2" ewd:figID="82"><path style="&st2;" d=" M  2711.05,   299.24  L  2694.05,   299.24  L  2694.05,   307.73  L  2711.05,   307.73  L  2711.05,   299.24 " /><text style="&st8;" transform="matrix(&st16;  2696.94  305.6 )"><tspan x="0" style="&st18;" y="0">FO2</tspan></text></a><a ewd:figtype="w2w" style="cursor:pointer;" ewd:pinNo="17" ewd:code="FO2" ewd:figID="83"><path style="&st2;" d=" M  2753.54,   299.24  L  2736.54,   299.24  L  2736.54,   307.73  L  2753.54,   307.73  L  2753.54,   299.24 " /><text style="&st8;" transform="matrix(&st16;  2739.44  305.6 )"><tspan x="0" style="&st18;" y="0">FO2</tspan></text></a><a ewd:figtype="w2w" style="cursor:pointer;" ewd:pinNo="16" ewd:code="FO2" ewd:figID="84"><path style="&st2;" d=" M  2796.03,   299.24  L  2779.04,   299.24  L  2779.04,   307.73  L  2796.03,   307.73  L  2796.03,   299.24 " /><text style="&st8;" transform="matrix(&st16;  2781.93  305.6 )"><tspan x="0" style="&st18;" y="0">FO2</tspan></text></a><a ewd:figtype="w2w" style="cursor:pointer;" ewd:pinNo="14" ewd:code="FO2" ewd:figID="85"><path style="&st2;" d=" M  2838.53,   299.24  L  2821.53,   299.24  L  2821.53,   307.73  L  2838.53,   307.73  L  2838.53,   299.24 " /><text style="&st8;" transform="matrix(&st16;  2824.42  305.6 )"><tspan x="0" style="&st18;" y="0">FO2</tspan></text></a><a ewd:figtype="w2w" style="cursor:pointer;" ewd:pinNo="14" ewd:code="AF4" ewd:figID="86"><path style="&st2;" d=" M  5294.62,   350.23  L  5277.62,   350.23  L  5277.62,   358.73  L  5294.62,   358.73  L  5294.62,   350.23 " /><text style="&st8;" transform="matrix(&st16;  5280.81  356.6 )"><tspan x="0" style="&st18;" y="0">AF4</tspan></text></a><a ewd:figtype="w2w" style="cursor:pointer;" ewd:pinNo="57" ewd:code="AF1" ewd:figID="87"><path style="&st2;" d=" M  5294.62,   341.73  L  5277.62,   341.73  L  5277.62,   350.23  L  5294.62,   350.23  L  5294.62,   341.73 " /><text style="&st8;" transform="matrix(&st16;  5280.81  348.1 )"><tspan x="0" style="&st18;" y="0">AF1</tspan></text></a><a ewd:figtype="w2w" style="cursor:pointer;" ewd:pinNo="13" ewd:code="AF4" ewd:figID="88"><path style="&st2;" d=" M  5328.61,   350.23  L  5311.61,   350.23  L  5311.61,   358.73  L  5328.61,   358.73  L  5328.61,   350.23 " /><text style="&st8;" transform="matrix(&st16;  5314.81  356.6 )"><tspan x="0" style="&st18;" y="0">AF4</tspan></text></a><a ewd:figtype="w2w" style="cursor:pointer;" ewd:pinNo="58" ewd:code="AF1" ewd:figID="89"><path style="&st2;" d=" M  5328.61,   341.73  L  5311.61,   341.73  L  5311.61,   350.23  L  5328.61,   350.23  L  5328.61,   341.73 " /><text style="&st8;" transform="matrix(&st16;  5314.81  348.1 )"><tspan x="0" style="&st18;" y="0">AF1</tspan></text></a><a ewd:figtype="w2w" style="cursor:pointer;" ewd:pinNo="14" ewd:code="QR1" ewd:figID="90"><path style="&st2;" d=" M  5549.57,   409.72  L  5532.58,   409.72  L  5532.58,   418.22  L  5549.57,   418.22  L  5549.57,   409.72 " /><text style="&st8;" transform="matrix(&st16;  5535.47  416.09 )"><tspan x="0" style="&st18;" y="0">QR1</tspan></text></a><a ewd:figtype="w2w" style="cursor:pointer;" ewd:pinNo="14" ewd:code="QM1" ewd:figID="91"><path style="&st2;" d=" M  5549.57,   341.73  L  5532.58,   341.73  L  5532.58,   350.23  L  5549.57,   350.23  L  5549.57,   341.73 " /><text style="&st8;" transform="matrix(&st16;  5534.87  348.1 )"><tspan x="0" style="&st18;" y="0">QM1</tspan></text></a><a ewd:figtype="w2w" style="cursor:pointer;" ewd:pinNo="50" ewd:code="MF1" ewd:figID="92"><path style="&st2;" d=" M  5549.57,   154.76  L  5532.58,   154.76  L  5532.58,   163.26  L  5549.57,   163.26  L  5549.57,   154.76 " /><text style="&st8;" transform="matrix(&st16;  5535.36  161.13 )"><tspan x="0" style="&st18;" y="0">MF1</tspan></text></a><a ewd:figtype="w2w" style="cursor:pointer;" ewd:pinNo="13" ewd:code="QR1" ewd:figID="93"><path style="&st2;" d=" M  5583.57,   409.72  L  5566.57,   409.72  L  5566.57,   418.22  L  5583.57,   418.22  L  5583.57,   409.72 " /><text style="&st8;" transform="matrix(&st16;  5569.46  416.09 )"><tspan x="0" style="&st18;" y="0">QR1</tspan></text></a><a ewd:figtype="w2w" style="cursor:pointer;" ewd:pinNo="13" ewd:code="QM1" ewd:figID="94"><path style="&st2;" d=" M  5583.57,   341.73  L  5566.57,   341.73  L  5566.57,   350.23  L  5583.57,   350.23  L  5583.57,   341.73 " /><text style="&st8;" transform="matrix(&st16;  5568.86  348.1 )"><tspan x="0" style="&st18;" y="0">QM1</tspan></text></a><a ewd:figtype="w2w" style="cursor:pointer;" ewd:pinNo="49" ewd:code="MF1" ewd:figID="95"><path style="&st2;" d=" M  5583.57,   154.76  L  5566.57,   154.76  L  5566.57,   163.26  L  5583.57,   163.26  L  5583.57,   154.76 " /><text style="&st8;" transform="matrix(&st16;  5569.35  161.13 )"><tspan x="0" style="&st18;" y="0">MF1</tspan></text></a><a ewd:figtype="w2w" style="cursor:pointer;" ewd:pinNo="16" ewd:code="AF4" ewd:figID="96"><path style="&st2;" d=" M  5753.54,   494.70  L  5736.54,   494.70  L  5736.54,   503.20  L  5753.54,   503.20  L  5753.54,   494.70 " /><text style="&st8;" transform="matrix(&st16;  5739.74  501.07 )"><tspan x="0" style="&st18;" y="0">AF4</tspan></text></a><a ewd:figtype="w2w" style="cursor:pointer;" ewd:pinNo="56" ewd:code="AF1" ewd:figID="97"><path style="&st2;" d=" M  5753.54,   486.20  L  5736.54,   486.20  L  5736.54,   494.70  L  5753.54,   494.70  L  5753.54,   486.20 " /><text style="&st8;" transform="matrix(&st16;  5739.74  492.57 )"><tspan x="0" style="&st18;" y="0">AF1</tspan></text></a><a ewd:figtype="gp" style="cursor:pointer;" ewd:code="FB" ewd:figID="98"><path style="&st2;" d=" M  1068.70,   681.67  L  1089.94,   681.67  L  1079.32,   697.25  L  1068.70,   681.67 " /><text style="&st8;" transform="matrix(&st16;  1075.63  689.46 )"><tspan x="0" style="&st18;" y="0">FB</tspan></text></a><a ewd:figtype="gp" style="cursor:pointer;" ewd:code="FC" ewd:figID="99"><path style="&st2;" d=" M  1111.19,   681.67  L  1132.44,   681.67  L  1121.81,   697.25  L  1111.19,   681.67 " /><text style="&st8;" transform="matrix(&st16;  1117.9  689.46 )"><tspan x="0" style="&st18;" y="0">FC</tspan></text></a><a ewd:figtype="gp" style="cursor:pointer;" ewd:code="FB" ewd:figID="100"><path style="&st2;" d=" M  1145.18,   681.67  L  1166.43,   681.67  L  1155.81,   697.25  L  1145.18,   681.67 " /><text style="&st8;" transform="matrix(&st16;  1152.12  689.46 )"><tspan x="0" style="&st18;" y="0">FB</tspan></text></a><a ewd:figtype="gp" style="cursor:pointer;" ewd:code="FC" ewd:figID="101"><path style="&st2;" d=" M  1187.68,   681.67  L  1208.92,   681.67  L  1198.30,   697.25  L  1187.68,   681.67 " /><text style="&st8;" transform="matrix(&st16;  1194.39  689.46 )"><tspan x="0" style="&st18;" y="0">FC</tspan></text></a><a ewd:figtype="gp" style="cursor:pointer;" ewd:code="FA" ewd:figID="102"><path style="&st2;" d=" M  4723.09,   681.67  L  4744.33,   681.67  L  4733.71,   697.25  L  4723.09,   681.67 " /><text style="&st8;" transform="matrix(&st16;  4729.91  689.46 )"><tspan x="0" style="&st18;" y="0">FA</tspan></text></a><a ewd:figtype="gp" style="cursor:pointer;" ewd:code="FD" ewd:figID="103"><path style="&st2;" d=" M  5904.39,   681.67  L  5925.63,   681.67  L  5915.01,   697.25  L  5904.39,   681.67 " /><text style="&st8;" transform="matrix(&st16;  5911.14  689.46 )"><tspan x="0" style="&st18;" y="0">FD</tspan></text></a><a ewd:figtype="gp" style="cursor:pointer;" ewd:code="FA" ewd:figID="104"><path style="&st2;" d=" M  5955.38,   681.67  L  5976.63,   681.67  L  5966.00,   697.25  L  5955.38,   681.67 " /><text style="&st8;" transform="matrix(&st16;  5962.2  689.46 )"><tspan x="0" style="&st18;" y="0">FA</tspan></text></a><a ewd:figtype="sp" style="cursor:pointer;" ewd:code="SP55" ewd:figID="105"><path style="&st2;" d=" M   454.67,   384.22  L   463.17,   384.22  L   467.42,   388.47  L   467.42,   396.97  L   463.17,   401.22  L   454.67,   401.22  L   450.42,   396.97  L   450.42,   388.47  L   454.67,   384.22 " /></a></g></svg>