﻿<?xml version="1.0" encoding="utf-8"?>
<!DOCTYPE svg PUBLIC "-//W3C//DTD SVG 1.0//EN" "http://www.w3.org/TR/2001/REC-SVG-20010904/DTD/svg10.dtd"[
	<!ENTITY ns_flows "http://ns.adobe.com/Flows/1.0/">
	<!ENTITY ns_svg "http://www.w3.org/2000/svg">
	<!ENTITY ns_xlink "http://www.w3.org/1999/xlink">
	<!ENTITY st0 "font-size:7px;font-family:'MS-PGothic';adobe-font-script:japanese;">
	<!ENTITY st1 "font-size:6px;font-family:'ArialMT';">
	<!-- White fill  -->
	<!ENTITY st2 "fill:#FFFFFF;stroke:#000000; stroke-width:1.41;stroke-linecap:round;stroke-linejoin:round;">
	<!-- Yellow fill  -->
	<!ENTITY st3 "fill:#FFFFCC;stroke:#FFFFCC; stroke-width:0.1;stroke-linecap:round;stroke-linejoin:round;">
	<!-- Gray fill  -->
	<!ENTITY st4 "fill:#CCCCCC;stroke:#CCCCCC; stroke-width:0.1;stroke-linecap:round;stroke-linejoin:round;">
	<!-- Light-blue fill -->
	<!ENTITY st5 "fill:#CCECF4;stroke:#000000; stroke-width:1.133;stroke-linecap:round;stroke-linejoin:round;">
	<!ENTITY st6 "fill:none;stroke-linecap:butt; stroke-linejoin:round;">
	<!ENTITY st7 "fill:none;stroke:#000000;stroke-linecap:round;stroke-linejoin:round;">
	<!ENTITY st8 "enable-background:new    ;">
	<!-- Black fill -->
	<!ENTITY st9 "fill:#000000;stroke:#000000; stroke-linecap:round;stroke-linejoin:round;">
	<!-- SRS note   -->
	<!ENTITY st10 "font-size:9px;font-family:'ArialMT';">
	<!ENTITY st11 "font-size:9px;font-family:'Svg Symbol';">
	<!ENTITY st12 "font-size:6px;font-family:'Svg Symbol';">
	<!ENTITY st13 "fill:none;stroke:#ff0000;stroke-linecap:round;stroke-linejoin:round;">
	<!-- Yellow fill  -->
	<!ENTITY st14 "fill:#FFFF00;stroke:#FFFF00; stroke-width:0.1;stroke-linecap:round;stroke-linejoin:round;">
	<!ENTITY st15 "font-size:6px;font-family:'MS-PGothic';adobe-font-script:japanese;">
	<!ENTITY st16 "1.00 0.00 0.00 1.00">
	<!ENTITY st17 "0.00 -1.00 1.00 0.00">
	<!ENTITY st18 "font-size:6px;font-family:'Arial';">
	<!ENTITY st19 "font-size:9px;font-family:'Arial';">
	<!ENTITY st20 "font-size:6px;font-family:'MS-PGothic','MS PGothic';adobe-font-script:japanese;">
	<!ENTITY st21 "font-size:7px;font-family:'MS-PGothic','MS PGothic';adobe-font-script:japanese;">
	<!ATTLIST svg
		xmlns:ewd CDATA #FIXED "http://shcl.co.jp/ewd"
		xmlns:a CDATA #FIXED "http://ns.adobe.com/AdobeSVGViewerExtensions/3.0/"
		ewd:ver CDATA #IMPLIED
	>
	<!ATTLIST a
		ewd:lineID CDATA #IMPLIED
		ewd:groupID CDATA #IMPLIED
		ewd:figtype CDATA #IMPLIED
		ewd:code CDATA #IMPLIED
		ewd:figID CDATA #IMPLIED
		ewd:pinNo CDATA #IMPLIED
		ewd:comment CDATA #IMPLIED >
	<!ATTLIST g
		ewd:lineID CDATA #IMPLIED
		ewd:groupID CDATA #IMPLIED
		ewd:figtype CDATA #IMPLIED
		ewd:code CDATA #IMPLIED
		ewd:figID CDATA #IMPLIED
		ewd:pinNo CDATA #IMPLIED
		ewd:comment CDATA #IMPLIED >
	<!ATTLIST text
		ewd:textID CDATA #IMPLIED >
	<!ATTLIST title
		ewd:textID CDATA #IMPLIED >
]>
<!-- Generator: Shintec Hozumi YS   -->
<svg onload="call_execInitLoadProc_svg('system')" style="overflow:visible;  enable-background:new 0 0 1989.376 710.000" viewBox="0 0 1989.376 710.000" height="710.000" width="1989.376" xml:space="preserve" ewd:ver="2.1.2.9" xmlns="&ns_svg;" xmlns:a="http://ns.adobe.com/AdobeSVGViewerExtensions/3.0/" xmlns:ewd="http://shcl.co.jp/ewd" xmlns:xlink="&ns_xlink;">
<text style="&st18;" transform="matrix(&st17;  939.65  539.66 )">W</text><text style="&st18;" transform="matrix(&st17;  982.14  540.98 )">LG</text><text style="&st18;" transform="matrix(&st17;  854.66  412.18 )">W</text><text style="&st18;" transform="matrix(&st17;  897.15  411.68 )">G</text><text style="&st18;" transform="matrix(&st17;  812.17  412.18 )">W</text><text style="&st18;" transform="matrix(&st17;  778.17  411.41 )">B</text><text style="&st18;" transform="matrix(&st17;  574.21  411.52 )">V</text><text style="&st18;" transform="matrix(&st17;  608.2  411.29 )">L</text><text style="&st18;" transform="matrix(&st17;  642.2  413.54 )">GR</text><text style="&st18;" transform="matrix(&st17;  676.19  413.27 )">BE</text><text style="&st18;" transform="matrix(&st17;  710.19  413.27 )">BR</text><text style="&st18;" transform="matrix(&st17;  744.18  411.33 )">R</text><path style="stroke-width: 1.42 ;&st7;  " d=" M   951.84,   154.76  L   943.34,   154.76  " /><path style="stroke-width: 1.42 ;&st7;  " d=" M   994.33,   154.76  L   985.84,   154.76  " /><path style="stroke-width: 0.85 ;&st7; stroke-dasharray:3, 1.5;" d=" M   955.78,   210.00  L   969.15,   210.00  " /><text style="&st18;" transform="matrix(&st17;  939.65  412.18 )">W</text><text style="&st18;" transform="matrix(&st17;  982.14  412.96 )">SB</text><text style="&st18;" transform="matrix(&st17;  939.65  182.72 )">W</text><text style="&st18;" transform="matrix(&st17;  982.14  183.5 )">SB</text><text style="&st18;" transform="matrix(&st17;  939.65  123.23 )">W</text><text style="&st18;" transform="matrix(&st17;  982.14  124.01 )">SB</text><text style="&st18;" transform="matrix(&st17;  820.67  124.32 )">BR</text><text style="&st18;" transform="matrix(&st17;  871.66  122.34 )">L</text><text style="&st18;" transform="matrix(&st16;  540.95  643.98 )">W</text><text style="&st18;" transform="matrix(&st16;  541.72  660.98 )">B</text><text style="&st18;" transform="matrix(&st16;  540.95  609.99 )">W</text><text style="&st18;" transform="matrix(&st16;  539.63  626.98 )">LG</text><path style="stroke-width: 0.85 ;&st7; stroke-dasharray:3, 1.5;" d=" M   955.78,   218.50  L   964.90,   218.50  " /><path style="stroke-width: 1.42 ;&st7;  " d=" M   994.33,   222.75  L   985.84,   222.75  " /><path style="stroke-width: 1.42 ;&st7;  " d=" M   951.84,   222.75  L   943.34,   222.75  " /><g ewd:figtype="conn" ewd:figID="2" ewd:code="F48"><path style="stroke-width: 1.42 ;&st7;  " d=" M   560.91,   511.70  L   560.91,   562.69  L   832.86,   562.69  L   832.86,   511.70  L   560.91,   511.70  " /><g ewd:lineID="10"><text style="&st18;" transform="matrix(&st16;  571.72  508.01 )">4</text><text style="&st18;" transform="matrix(&st16;  569.82  519.33 )">VCX1</text></g><g ewd:lineID="11"><text style="&st18;" transform="matrix(&st16;  602.61  508.01 )">11</text><text style="&st18;" transform="matrix(&st16;  603.82  519.33 )">VCX2</text></g><g ewd:lineID="12"><text style="&st18;" transform="matrix(&st16;  636.61  508.01 )">13</text><text style="&st18;" transform="matrix(&st16;  638.62  519.33 )">E2X1</text></g><g ewd:lineID="13"><text style="&st18;" transform="matrix(&st16;  673.7  508.01 )">2</text><text style="&st18;" transform="matrix(&st16;  672.62  519.33 )">E2X2</text></g><g ewd:lineID="14"><text style="&st18;" transform="matrix(&st16;  707.7  508.01 )">8</text><text style="&st18;" transform="matrix(&st16;  706.42  519.33 )">VSX1</text></g><g ewd:lineID="15"><text style="&st18;" transform="matrix(&st16;  738.59  508.01 )">10</text><text style="&st18;" transform="matrix(&st16;  740.41  519.33 )">VSX2</text></g><g ewd:lineID="16"><text style="&st18;" transform="matrix(&st16;  775.69  508.01 )">5</text><text style="&st18;" transform="matrix(&st16;  774.41  519.33 )">VSX3</text></g><g ewd:lineID="17"><text style="&st18;" transform="matrix(&st16;  809.68  508.01 )">7</text><text style="&st18;" transform="matrix(&st16;  808.4  519.33 )">VSX4</text></g><g ewd:figtype="title"><text style="&st18;" transform="matrix(&st16;  557.5  577.41 )" ewd:textID="25">Shift Lock Control Unit Assembly</text><text style="&st18;" transform="matrix(&st16;  557.49  570.3 )">F48</text></g></g><g ewd:figtype="conn" ewd:figID="3" ewd:code="F73"><path style="stroke-width: 1.42 ;&st7;  " d=" M   849.86,   477.71  L   849.86,   503.20  L   994.33,   503.20  L   994.33,   477.71  L   849.86,   477.71  " /><path style="stroke-width: 0.85 ;&st7;  " d=" M   943.34,   477.71  L   943.34,   503.20  " /><path style="stroke-width: 0.85 ;&st7;  " d=" M   985.83,   477.71  L   985.83,   503.20  " /><path style="stroke-width: 0.85 ;&st7;  " d=" M   858.36,   477.71  L   858.36,   494.70  L   943.34,   494.70  " /><path style="stroke-width: 0.85 ;&st7;  " d=" M   900.85,   477.71  L   900.85,   486.20  L   985.83,   486.20  " /><path style="stroke-width: 0.85 ;&st7;  " d=" M   942.15,   493.70  L   941.88,   494.17  L   941.78,   494.70  L   941.88,   495.24  L   942.15,   495.71  L   942.56,   496.05  L   943.07,   496.24  L   943.61,   496.24  L   944.12,   496.05  L   944.53,   495.71  L   944.81,   495.24  L   944.90,   494.70  L   944.81,   494.17  L   944.53,   493.70  L   944.12,   493.35  L   943.61,   493.17  L   943.07,   493.17  L   942.56,   493.35  L   942.15,   493.70  L   942.54,   494.41  L   942.54,   494.99  L   942.92,   495.44  L   943.49,   495.54  L   943.99,   495.25  L   944.19,   494.70  L   943.99,   494.16  L   943.49,   493.87  L   942.92,   493.97  L   943.34,   494.70  " /><path style="stroke-width: 0.85 ;&st7;  " d=" M   984.64,   485.20  L   984.37,   485.67  L   984.28,   486.20  L   984.37,   486.74  L   984.64,   487.21  L   985.06,   487.55  L   985.56,   487.74  L   986.11,   487.74  L   986.61,   487.55  L   987.03,   487.21  L   987.30,   486.74  L   987.39,   486.20  L   987.30,   485.67  L   987.03,   485.20  L   986.61,   484.86  L   986.11,   484.67  L   985.56,   484.67  L   985.06,   484.86  L   984.64,   485.20  L   985.04,   485.91  L   985.04,   486.50  L   985.41,   486.94  L   985.98,   487.04  L   986.49,   486.75  L   986.68,   486.20  L   986.49,   485.66  L   985.98,   485.37  L   985.41,   485.47  L   985.83,   486.20  " /><text style="&st18;" transform="matrix(&st16;  849.07  474.02 )">15</text><text style="&st18;" transform="matrix(&st16;  894.67  474.02 )">4</text><text style="&st18;" transform="matrix(&st16;  934.06  511.39 )">13</text><text style="&st18;" transform="matrix(&st16;  934.06  474.02 )">14</text><text style="&st18;" transform="matrix(&st16;  979.65  511.39 )">2</text><text style="&st18;" transform="matrix(&st16;  979.65  474.02 )">3</text><g ewd:figtype="title"><text style="&st18;" transform="matrix(&st17;  1002.23  506.1 )">F73</text><text style="&st18;" transform="matrix(&st17;  1009.05  506.11 )" ewd:textID="17">No. 5 CAN <tspan x="0 " dy="6.0">Junction Connector</tspan></text></g></g><g ewd:figtype="conn" ewd:figID="4" ewd:code="F2,F3"><path style="stroke-width: 1.42 ;&st7;  " d=" M   560.91,   324.73  L   560.91,   358.73  L   917.85,   358.73  L   917.85,   324.73  L   560.91,   324.73  " /><g ewd:lineID="10"><text style="&st18;" transform="matrix(&st16;  566.11  365.23 )">54</text><text style="&st18;" transform="matrix(&st16;  575.48  365.23 )">C</text><path style="stroke-width: 1.42 ;&st7;   " d=" M   582.44,   363.26  C   582.44    360.75    580.41    358.73    577.90    358.73  " /><path style="stroke-width: 1.42 ;&st7;   " d=" M   577.90,   358.73  C   575.40    358.73    573.37    360.75    573.37    363.26  " /><path style="stroke-width: 1.42 ;&st7;   " d=" M   573.37,   363.26  C   573.37    365.76    575.40    367.79    577.90    367.79  " /><path style="stroke-width: 1.42 ;&st7;   " d=" M   577.90,   367.79  C   580.41    367.79    582.44    365.76    582.44    363.26  " /><text style="&st18;" transform="matrix(&st16;  569.82  355.03 )">VCX1</text></g><g ewd:lineID="11"><text style="&st18;" transform="matrix(&st16;  600.1  365.23 )">53</text><path style="stroke-width: 1.42 ;&st7;   " d=" M   616.43,   363.26  C   616.43    360.75    614.40    358.73    611.90    358.73  " /><path style="stroke-width: 1.42 ;&st7;   " d=" M   611.90,   358.73  C   609.39    358.73    607.37    360.75    607.37    363.26  " /><path style="stroke-width: 1.42 ;&st7;   " d=" M   607.37,   363.26  C   607.37    365.76    609.39    367.79    611.90    367.79  " /><path style="stroke-width: 1.42 ;&st7;   " d=" M   611.90,   367.79  C   614.40    367.79    616.43    365.76    616.43    363.26  " /><text style="&st18;" transform="matrix(&st16;  609.48  365.23 )">C</text><text style="&st18;" transform="matrix(&st16;  603.82  355.03 )">VCX2</text></g><g ewd:lineID="12"><text style="&st18;" transform="matrix(&st16;  634.1  365.23 )">51</text><text style="&st18;" transform="matrix(&st16;  643.47  365.23 )">C</text><path style="stroke-width: 1.42 ;&st7;   " d=" M   650.42,   363.26  C   650.42    360.75    648.40    358.73    645.89    358.73  " /><path style="stroke-width: 1.42 ;&st7;   " d=" M   645.89,   358.73  C   643.39    358.73    641.36    360.75    641.36    363.26  " /><path style="stroke-width: 1.42 ;&st7;   " d=" M   641.36,   363.26  C   641.36    365.76    643.39    367.79    645.89    367.79  " /><path style="stroke-width: 1.42 ;&st7;   " d=" M   645.89,   367.79  C   648.40    367.79    650.42    365.76    650.42    363.26  " /><text style="&st18;" transform="matrix(&st16;  638.62  355.03 )">E2X1</text></g><g ewd:lineID="13"><text style="&st18;" transform="matrix(&st16;  668.09  365.23 )">49</text><text style="&st18;" transform="matrix(&st16;  677.47  365.23 )">C</text><path style="stroke-width: 1.42 ;&st7;   " d=" M   684.42,   363.26  C   684.42    360.75    682.39    358.73    679.89    358.73  " /><path style="stroke-width: 1.42 ;&st7;   " d=" M   679.89,   358.73  C   677.38    358.73    675.35    360.75    675.35    363.26  " /><path style="stroke-width: 1.42 ;&st7;   " d=" M   675.35,   363.26  C   675.35    365.76    677.38    367.79    679.89    367.79  " /><path style="stroke-width: 1.42 ;&st7;   " d=" M   679.89,   367.79  C   682.39    367.79    684.42    365.76    684.42    363.26  " /><text style="&st18;" transform="matrix(&st16;  672.62  355.03 )">E2X2</text></g><g ewd:lineID="14"><text style="&st18;" transform="matrix(&st16;  702.08  365.23 )">52</text><text style="&st18;" transform="matrix(&st16;  711.46  365.23 )">C</text><path style="stroke-width: 1.42 ;&st7;   " d=" M   718.41,   363.26  C   718.41    360.75    716.38    358.73    713.88    358.73  " /><path style="stroke-width: 1.42 ;&st7;   " d=" M   713.88,   358.73  C   711.38    358.73    709.35    360.75    709.35    363.26  " /><path style="stroke-width: 1.42 ;&st7;   " d=" M   709.35,   363.26  C   709.35    365.76    711.38    367.79    713.88    367.79  " /><path style="stroke-width: 1.42 ;&st7;   " d=" M   713.88,   367.79  C   716.38    367.79    718.41    365.76    718.41    363.26  " /><text style="&st18;" transform="matrix(&st16;  707.58  355.03 )">VSI1</text></g><g ewd:lineID="15"><text style="&st18;" transform="matrix(&st16;  736.08  365.23 )">50</text><path style="stroke-width: 1.42 ;&st7;   " d=" M   752.41,   363.26  C   752.41    360.75    750.38    358.73    747.88    358.73  " /><path style="stroke-width: 1.42 ;&st7;   " d=" M   747.88,   358.73  C   745.37    358.73    743.34    360.75    743.34    363.26  " /><path style="stroke-width: 1.42 ;&st7;   " d=" M   743.34,   363.26  C   743.34    365.76    745.37    367.79    747.88    367.79  " /><path style="stroke-width: 1.42 ;&st7;   " d=" M   747.88,   367.79  C   750.38    367.79    752.41    365.76    752.41    363.26  " /><text style="&st18;" transform="matrix(&st16;  745.45  365.23 )">C</text><text style="&st18;" transform="matrix(&st16;  741.58  355.03 )">VSI2</text></g><g ewd:lineID="16"><text style="&st18;" transform="matrix(&st16;  770.07  365.23 )">48</text><path style="stroke-width: 1.42 ;&st7;   " d=" M   786.40,   363.26  C   786.40    360.75    784.37    358.73    781.87    358.73  " /><path style="stroke-width: 1.42 ;&st7;   " d=" M   781.87,   358.73  C   779.37    358.73    777.34    360.75    777.34    363.26  " /><path style="stroke-width: 1.42 ;&st7;   " d=" M   777.34,   363.26  C   777.34    365.76    779.37    367.79    781.87    367.79  " /><path style="stroke-width: 1.42 ;&st7;   " d=" M   781.87,   367.79  C   784.37    367.79    786.40    365.76    786.40    363.26  " /><text style="&st18;" transform="matrix(&st16;  779.45  365.23 )">C</text><text style="&st18;" transform="matrix(&st16;  775.57  355.03 )">VSI3</text></g><g ewd:lineID="17"><text style="&st18;" transform="matrix(&st16;  804.07  365.23 )">46</text><path style="stroke-width: 1.42 ;&st7;   " d=" M   820.40,   363.26  C   820.40    360.75    818.37    358.73    815.86    358.73  " /><path style="stroke-width: 1.42 ;&st7;   " d=" M   815.86,   358.73  C   813.36    358.73    811.33    360.75    811.33    363.26  " /><path style="stroke-width: 1.42 ;&st7;   " d=" M   811.33,   363.26  C   811.33    365.76    813.36    367.79    815.86    367.79  " /><path style="stroke-width: 1.42 ;&st7;   " d=" M   815.86,   367.79  C   818.37    367.79    820.40    365.76    820.40    363.26  " /><text style="&st18;" transform="matrix(&st16;  813.44  365.23 )">C</text><text style="&st18;" transform="matrix(&st16;  809.57  355.03 )">VSI4</text></g><g ewd:lineID="19"><text style="&st18;" transform="matrix(&st16;  846.56  365.23 )">20</text><text style="&st18;" transform="matrix(&st16;  856.17  365.23 )">B</text><path style="stroke-width: 1.42 ;&st7;   " d=" M   862.89,   363.26  C   862.89    360.75    860.86    358.73    858.36    358.73  " /><path style="stroke-width: 1.42 ;&st7;   " d=" M   858.36,   358.73  C   855.85    358.73    853.82    360.75    853.82    363.26  " /><path style="stroke-width: 1.42 ;&st7;   " d=" M   853.82,   363.26  C   853.82    365.76    855.85    367.79    858.36    367.79  " /><path style="stroke-width: 1.42 ;&st7;   " d=" M   858.36,   367.79  C   860.86    367.79    862.89    365.76    862.89    363.26  " /><text style="&st18;" transform="matrix(&st16;  850.27  355.03 )">CA3N</text></g><g ewd:lineID="21"><text style="&st18;" transform="matrix(&st16;  892.16  365.23 )">7</text><text style="&st18;" transform="matrix(&st16;  898.66  365.23 )">B</text><path style="stroke-width: 1.42 ;&st7;   " d=" M   905.38,   363.26  C   905.38    360.75    903.35    358.73    900.85    358.73  " /><path style="stroke-width: 1.42 ;&st7;   " d=" M   900.85,   358.73  C   898.35    358.73    896.32    360.75    896.32    363.26  " /><path style="stroke-width: 1.42 ;&st7;   " d=" M   896.32,   363.26  C   896.32    365.76    898.35    367.79    900.85    367.79  " /><path style="stroke-width: 1.42 ;&st7;   " d=" M   900.85,   367.79  C   903.35    367.79    905.38    365.76    905.38    363.26  " /><text style="&st18;" transform="matrix(&st16;  893.08  355.03 )">CA3P</text></g><g ewd:figtype="title"><text style="&st18;" transform="matrix(&st16;  616.98  313.93 )">F2(B),F3(C)</text><text style="&st18;" transform="matrix(&st16;  616.99  321.03 )" ewd:textID="7">Hybrid Vehicle Control ECU</text></g></g><g ewd:figtype="conn" ewd:figID="5" ewd:code="C31"><path style="stroke-width: 1.42 ;&st7;  " d=" M   807.36,    44.28  L   807.36,    86.77  L  1002.83,    86.77  L  1002.83,    44.28  L   807.36,    44.28  " /><g ewd:lineID="18"><text style="&st18;" transform="matrix(&st16;  809.46  93.27 )">119</text><text style="&st18;" transform="matrix(&st16;  822.17  93.27 )">B</text><path style="stroke-width: 1.42 ;&st7;   " d=" M   828.89,    91.30  C   828.89     88.80    826.87     86.77    824.36     86.77  " /><path style="stroke-width: 1.42 ;&st7;   " d=" M   824.36,    86.77  C   821.86     86.77    819.83     88.80    819.83     91.30  " /><path style="stroke-width: 1.42 ;&st7;   " d=" M   819.83,    91.30  C   819.83     93.81    821.86     95.84    824.36     95.84  " /><path style="stroke-width: 1.42 ;&st7;   " d=" M   824.36,    95.84  C   826.87     95.84    828.89     93.81    828.89     91.30  " /><text style="&st18;" transform="matrix(&st16;  815.35  83.07 )">ETHW</text></g><g ewd:lineID="20"><text style="&st18;" transform="matrix(&st16;  860.46  93.27 )">120</text><path style="stroke-width: 1.42 ;&st7;   " d=" M   879.89,    91.30  C   879.89     88.80    877.86     86.77    875.35     86.77  " /><path style="stroke-width: 1.42 ;&st7;   " d=" M   875.35,    86.77  C   872.85     86.77    870.82     88.80    870.82     91.30  " /><path style="stroke-width: 1.42 ;&st7;   " d=" M   870.82,    91.30  C   870.82     93.81    872.85     95.84    875.35     95.84  " /><path style="stroke-width: 1.42 ;&st7;   " d=" M   875.35,    95.84  C   877.86     95.84    879.89     93.81    879.89     91.30  " /><text style="&st18;" transform="matrix(&st16;  873.17  93.27 )">B</text><text style="&st18;" transform="matrix(&st16;  868.2  83.07 )">THW</text></g><g ewd:lineID="25"><text style="&st18;" transform="matrix(&st16;  931.55  93.27 )">32</text><text style="&st18;" transform="matrix(&st16;  941.15  93.27 )">B</text><path style="stroke-width: 1.42 ;&st7;   " d=" M   947.87,    91.30  C   947.87     88.80    945.85     86.77    943.34     86.77  " /><path style="stroke-width: 1.42 ;&st7;   " d=" M   943.34,    86.77  C   940.84     86.77    938.81     88.80    938.81     91.30  " /><path style="stroke-width: 1.42 ;&st7;   " d=" M   938.81,    91.30  C   938.81     93.81    940.84     95.84    943.34     95.84  " /><path style="stroke-width: 1.42 ;&st7;   " d=" M   943.34,    95.84  C   945.85     95.84    947.87     93.81    947.87     91.30  " /><text style="&st18;" transform="matrix(&st16;  935.26  83.07 )">CAN-</text></g><g ewd:lineID="29"><text style="&st18;" transform="matrix(&st16;  974.04  93.27 )">31</text><path style="stroke-width: 1.42 ;&st7;   " d=" M   990.37,    91.30  C   990.37     88.80    988.34     86.77    985.84     86.77  " /><path style="stroke-width: 1.42 ;&st7;   " d=" M   985.84,    86.77  C   983.33     86.77    981.30     88.80    981.30     91.30  " /><path style="stroke-width: 1.42 ;&st7;   " d=" M   981.30,    91.30  C   981.30     93.81    983.33     95.84    985.84     95.84  " /><path style="stroke-width: 1.42 ;&st7;   " d=" M   985.84,    95.84  C   988.34     95.84    990.37     93.81    990.37     91.30  " /><text style="&st18;" transform="matrix(&st16;  983.65  93.27 )">B</text><text style="&st18;" transform="matrix(&st16;  977.75  83.07 )">CAN+</text></g><g ewd:figtype="title"><text style="&st18;" transform="matrix(&st16;  812.45  33.47 )">C31(B)</text><text style="&st18;" transform="matrix(&st16;  812.46  40.58 )">ECM</text></g></g><g ewd:figtype="conn" ewd:figID="6" ewd:code="C6"><path style="stroke-width: 0.85 ;&st7;  " d=" M   832.86,   210.00  L   832.86,   227.00  " /><path style="stroke-width: 0.85 ;&st7;  " d=" M   815.86,   210.00  L   815.86,   227.00  " /><path style="stroke-width: 0.85 ;&st7;  " d=" M   824.36,   210.00  L   824.36,   197.25  " /><path style="stroke-width: 0.85 ;&st7;  " d=" M   821.53,   225.58  L   824.36,   227.00  " /><path style="stroke-width: 0.85 ;&st7;  " d=" M   824.36,   210.00  L   827.20,   211.42  " /><path style="stroke-width: 0.85 ;&st7;  " d=" M   827.20,   211.42  L   821.53,   214.25  " /><path style="stroke-width: 0.85 ;&st7;  " d=" M   821.53,   214.25  L   827.20,   217.08  " /><path style="stroke-width: 0.85 ;&st7;  " d=" M   827.20,   217.08  L   821.53,   219.92  " /><path style="stroke-width: 0.85 ;&st7;  " d=" M   821.53,   219.92  L   827.20,   222.75  " /><path style="stroke-width: 0.85 ;&st7;  " d=" M   827.20,   222.75  L   821.53,   225.58  " /><path style="stroke-width: 0.85 ;&st7;  " d=" M   824.36,   239.75  L   824.36,   227.00  " /><path style="stroke-width: 0.85 ;&st7;   " d=" M   815.86,   227.00  C   815.86    231.69    819.67    235.50    824.36    235.50  " /><path style="stroke-width: 0.85 ;&st7;   " d=" M   824.36,   235.50  C   829.06    235.50    832.86    231.69    832.86    227.00  " /><path style="stroke-width: 0.85 ;&st7;   " d=" M   832.86,   210.00  C   832.86    205.31    829.06    201.50    824.36    201.50  " /><path style="stroke-width: 0.85 ;&st7;   " d=" M   824.36,   201.50  C   819.67    201.50    815.86    205.31    815.86    210.00  " /><path style="stroke-width: 1.42 ;&st7;  " d=" M   811.61,   239.75  L   811.61,   197.25  L   837.11,   197.25  L   837.11,   239.75  L   811.61,   239.75  " /><text style="&st18;" transform="matrix(&st16;  818.18  193.56 )">1</text><text style="&st18;" transform="matrix(&st16;  818.18  247.94 )">2</text><g ewd:figtype="title"><text style="&st18;" transform="matrix(&st17;  851.83  242.65 )" ewd:textID="6">E.F.I. Engine Coolant <tspan x="0 " dy="6.0">Temperature Sensor</tspan></text><text style="&st18;" transform="matrix(&st17;  844.72  242.64 )">C6</text></g></g><g ewd:figtype="w2w" ewd:figID="24" ewd:code="AF1"><path style="stroke-width: 1.42 ;&st7;  " d=" M   947.59,   228.41  L   943.34,   224.16  L   939.09,   228.41  " /><path style="stroke-width: 1.42 ;&st7;  " d=" M   947.59,   231.81  L   943.34,   227.56  L   939.09,   231.81  " /><text style="&st18;" transform="matrix(&st16;  927.61  220.47 )">20</text></g><g ewd:figtype="w2w" ewd:figID="25" ewd:code="AF3"><text style="&st18;" transform="matrix(&st16;  930.71  211.97 )">7</text></g><g ewd:figtype="w2w" ewd:figID="26" ewd:code="CA2"><path style="stroke-width: 1.42 ;&st7;  " d=" M   947.59,   163.82  L   943.34,   159.58  L   939.09,   163.82  " /><path style="stroke-width: 1.42 ;&st7;  " d=" M   947.59,   160.43  L   943.34,   156.18  L   939.09,   160.43  " /><text style="&st18;" transform="matrix(&st16;  927.61  152.48 )">10</text></g><g ewd:figtype="w2w" ewd:figID="27" ewd:code="AF1"><path style="stroke-width: 1.42 ;&st7;  " d=" M   990.08,   228.41  L   985.83,   224.16  L   981.59,   228.41  " /><path style="stroke-width: 1.42 ;&st7;  " d=" M   990.08,   231.81  L   985.83,   227.56  L   981.59,   231.81  " /><text style="&st18;" transform="matrix(&st16;  970.1  220.47 )">21</text></g><g ewd:figtype="w2w" ewd:figID="28" ewd:code="AF3"><text style="&st18;" transform="matrix(&st16;  973.2  211.97 )">1</text></g><g ewd:figtype="w2w" ewd:figID="29" ewd:code="CA2"><path style="stroke-width: 1.42 ;&st7;  " d=" M   990.08,   163.82  L   985.83,   159.58  L   981.59,   163.82  " /><path style="stroke-width: 1.42 ;&st7;  " d=" M   990.08,   160.43  L   985.83,   156.18  L   981.59,   160.43  " /><text style="&st18;" transform="matrix(&st16;  970.1  152.48 )">11</text></g><g ewd:code="" ewd:figID="51" ewd:comment="" ewd:figtype="commref"><text style="&st18;" transform="matrix(&st16;  994.87  220.47 )">(RHD)</text></g><g ewd:code="" ewd:figID="52" ewd:comment="" ewd:figtype="commref"><text style="&st18;" transform="matrix(&st16;  994.87  211.97 )">(LHD)</text></g></svg>