﻿<?xml version="1.0" encoding="utf-8"?>
<!DOCTYPE svg PUBLIC "-//W3C//DTD SVG 1.0//EN" "http://www.w3.org/TR/2001/REC-SVG-20010904/DTD/svg10.dtd"[
	<!ENTITY ns_flows "http://ns.adobe.com/Flows/1.0/">
	<!ENTITY ns_svg "http://www.w3.org/2000/svg">
	<!ENTITY ns_xlink "http://www.w3.org/1999/xlink">
	<!ENTITY st0 "font-size:7px;font-family:'MS-PGothic';adobe-font-script:japanese;">
	<!ENTITY st1 "font-size:6px;font-family:'ArialMT';">
	<!-- White fill  -->
	<!ENTITY st2 "fill:#FFFFFF;stroke:#000000; stroke-width:1.41;stroke-linecap:round;stroke-linejoin:round;">
	<!-- Yellow fill  -->
	<!ENTITY st3 "fill:#FFFFCC;stroke:#FFFFCC; stroke-width:0.1;stroke-linecap:round;stroke-linejoin:round;">
	<!-- Gray fill  -->
	<!ENTITY st4 "fill:#CCCCCC;stroke:#CCCCCC; stroke-width:0.1;stroke-linecap:round;stroke-linejoin:round;">
	<!-- Light-blue fill -->
	<!ENTITY st5 "fill:#CCECF4;stroke:#000000; stroke-width:1.133;stroke-linecap:round;stroke-linejoin:round;">
	<!ENTITY st6 "fill:none;stroke-linecap:butt; stroke-linejoin:round;">
	<!ENTITY st7 "fill:none;stroke:#000000;stroke-linecap:round;stroke-linejoin:round;">
	<!ENTITY st8 "enable-background:new    ;">
	<!-- Black fill -->
	<!ENTITY st9 "fill:#000000;stroke:#000000; stroke-linecap:round;stroke-linejoin:round;">
	<!-- SRS note   -->
	<!ENTITY st10 "font-size:9px;font-family:'ArialMT';">
	<!ENTITY st11 "font-size:9px;font-family:'Svg Symbol';">
	<!ENTITY st12 "font-size:6px;font-family:'Svg Symbol';">
	<!ENTITY st13 "fill:none;stroke:#ff0000;stroke-linecap:round;stroke-linejoin:round;">
	<!-- Yellow fill  -->
	<!ENTITY st14 "fill:#FFFF00;stroke:#FFFF00; stroke-width:0.1;stroke-linecap:round;stroke-linejoin:round;">
	<!ENTITY st15 "font-size:6px;font-family:'MS-PGothic';adobe-font-script:japanese;">
	<!ENTITY st16 "1.00 0.00 0.00 1.00">
	<!ENTITY st17 "0.00 -1.00 1.00 0.00">
	<!ENTITY st18 "font-size:6px;font-family:'Arial';">
	<!ENTITY st19 "font-size:9px;font-family:'Arial';">
	<!ENTITY st20 "font-size:6px;font-family:'MS-PGothic','MS PGothic';adobe-font-script:japanese;">
	<!ENTITY st21 "font-size:7px;font-family:'MS-PGothic','MS PGothic';adobe-font-script:japanese;">
	<!ATTLIST svg
		xmlns:ewd CDATA #FIXED "http://shcl.co.jp/ewd"
		xmlns:a CDATA #FIXED "http://ns.adobe.com/AdobeSVGViewerExtensions/3.0/"
		ewd:ver CDATA #IMPLIED
	>
	<!ATTLIST a
		ewd:lineID CDATA #IMPLIED
		ewd:groupID CDATA #IMPLIED
		ewd:figtype CDATA #IMPLIED
		ewd:code CDATA #IMPLIED
		ewd:figID CDATA #IMPLIED
		ewd:pinNo CDATA #IMPLIED
		ewd:comment CDATA #IMPLIED >
	<!ATTLIST g
		ewd:lineID CDATA #IMPLIED
		ewd:groupID CDATA #IMPLIED
		ewd:figtype CDATA #IMPLIED
		ewd:code CDATA #IMPLIED
		ewd:figID CDATA #IMPLIED
		ewd:pinNo CDATA #IMPLIED
		ewd:comment CDATA #IMPLIED >
	<!ATTLIST text
		ewd:textID CDATA #IMPLIED >
	<!ATTLIST title
		ewd:textID CDATA #IMPLIED >
]>
<!-- Generator: Shintec Hozumi YS   -->
<svg onload="call_execInitLoadProc_svg('system')" style="overflow:visible;  enable-background:new 0 0 9844.728 710.000" viewBox="0 0 9844.728 710.000" height="710.000" width="9844.728" xml:space="preserve" ewd:ver="2.1.2.9" xmlns="&ns_svg;" xmlns:a="http://ns.adobe.com/AdobeSVGViewerExtensions/3.0/" xmlns:ewd="http://shcl.co.jp/ewd" xmlns:xlink="&ns_xlink;">
<path style="stroke-width: 1.42 ;&st7;  " d=" M  2209.63,   171.76  L  2218.13,   171.76  " /><path style="stroke-width: 1.42 ;&st7;  " d=" M  2260.62,   171.76  L  2269.12,   171.76  " /><path style="stroke-width: 1.42 ;&st7;  " d=" M  2362.61,   171.76  L  2371.10,   171.76  " /><path style="stroke-width: 1.42 ;&st7;  " d=" M  2413.60,   171.76  L  2422.10,   171.76  " /><text style="&st18;" transform="matrix(&st16;  2350.69  33.76 )">F1(A),M59(B)</text><text style="&st18;" transform="matrix(&st17;  2214.43  139.37 )">R</text><text style="&st18;" transform="matrix(&st17;  2265.42  139.72 )">G</text><text style="&st18;" transform="matrix(&st17;  2214.43  207.44 )">B</text><text style="&st18;" transform="matrix(&st17;  2265.42  208.22 )">W</text><text style="&st18;" transform="matrix(&st17;  2367.41  139.37 )">R</text><text style="&st18;" transform="matrix(&st17;  2418.4  139.72 )">G</text><text style="&st18;" transform="matrix(&st17;  2367.41  207.44 )">B</text><text style="&st18;" transform="matrix(&st17;  2418.4  208.22 )">W</text><text style="&st18;" transform="matrix(&st16;  2350.7  40.58 )" ewd:textID="17">Certification ECU</text><text style="&st18;" transform="matrix(&st16;  2043.84  618.48 )">GR</text><text style="&st18;" transform="matrix(&st16;  2094.83  618.48 )">GR</text><text style="&st18;" transform="matrix(&st17;  2225.77  142.48 )">(*7)</text><text style="&st18;" transform="matrix(&st17;  2276.76  142.48 )">(*7)</text><text style="&st18;" transform="matrix(&st17;  2276.76  210.46 )">(*7)</text><text style="&st18;" transform="matrix(&st17;  2225.77  210.46 )">(*7)</text><g ewd:figtype="conn" ewd:figID="16" ewd:code="F1,M59"><g ewd:lineID="27"><text style="&st18;" transform="matrix(&st16;  2206.33  101.77 )">14</text><text style="&st18;" transform="matrix(&st16;  2215.94  101.77 )">B</text><path style="stroke-width: 1.42 ;&st7;   " d=" M  2222.66,    99.80  C  2222.66     97.30   2220.63     95.27   2218.13     95.27  " /><path style="stroke-width: 1.42 ;&st7;   " d=" M  2218.13,    95.27  C  2215.63     95.27   2213.60     97.30   2213.60     99.80  " /><path style="stroke-width: 1.42 ;&st7;   " d=" M  2213.60,    99.80  C  2213.60    102.31   2215.63    104.33   2218.13    104.33  " /><path style="stroke-width: 1.42 ;&st7;   " d=" M  2218.13,   104.33  C  2220.63    104.33   2222.66    102.31   2222.66     99.80  " /><text style="&st18;" transform="matrix(&st16;  2210.01  91.57 )">CG2B</text></g><g ewd:lineID="29"><text style="&st18;" transform="matrix(&st16;  2257.32  101.77 )">15</text><text style="&st18;" transform="matrix(&st16;  2266.93  101.77 )">B</text><path style="stroke-width: 1.42 ;&st7;   " d=" M  2273.65,    99.80  C  2273.65     97.30   2271.62     95.27   2269.12     95.27  " /><path style="stroke-width: 1.42 ;&st7;   " d=" M  2269.12,    95.27  C  2266.62     95.27   2264.59     97.30   2264.59     99.80  " /><path style="stroke-width: 1.42 ;&st7;   " d=" M  2264.59,    99.80  C  2264.59    102.31   2266.62    104.33   2269.12    104.33  " /><path style="stroke-width: 1.42 ;&st7;   " d=" M  2269.12,   104.33  C  2271.62    104.33   2273.65    102.31   2273.65     99.80  " /><text style="&st18;" transform="matrix(&st16;  2261.12  91.57 )">CLG2</text></g><g ewd:lineID="31"><text style="&st18;" transform="matrix(&st16;  2359.31  101.77 )">16</text><text style="&st18;" transform="matrix(&st16;  2368.92  101.77 )">B</text><path style="stroke-width: 1.42 ;&st7;   " d=" M  2375.64,    99.80  C  2375.64     97.30   2373.61     95.27   2371.10     95.27  " /><path style="stroke-width: 1.42 ;&st7;   " d=" M  2371.10,    95.27  C  2368.60     95.27   2366.57     97.30   2366.57     99.80  " /><path style="stroke-width: 1.42 ;&st7;   " d=" M  2366.57,    99.80  C  2366.57    102.31   2368.60    104.33   2371.10    104.33  " /><path style="stroke-width: 1.42 ;&st7;   " d=" M  2371.10,   104.33  C  2373.61    104.33   2375.64    102.31   2375.64     99.80  " /><text style="&st18;" transform="matrix(&st16;  2362.98  91.57 )">CG1B</text></g><g ewd:lineID="33"><text style="&st18;" transform="matrix(&st16;  2410.3  101.77 )">17</text><text style="&st18;" transform="matrix(&st16;  2419.91  101.77 )">B</text><path style="stroke-width: 1.42 ;&st7;   " d=" M  2426.63,    99.80  C  2426.63     97.30   2424.60     95.27   2422.10     95.27  " /><path style="stroke-width: 1.42 ;&st7;   " d=" M  2422.10,    95.27  C  2419.59     95.27   2417.56     97.30   2417.56     99.80  " /><path style="stroke-width: 1.42 ;&st7;   " d=" M  2417.56,    99.80  C  2417.56    102.31   2419.59    104.33   2422.10    104.33  " /><path style="stroke-width: 1.42 ;&st7;   " d=" M  2422.10,   104.33  C  2424.60    104.33   2426.63    102.31   2426.63     99.80  " /><text style="&st18;" transform="matrix(&st16;  2414.09  91.57 )">CLG1</text></g></g><g ewd:figtype="conn" ewd:figID="22" ewd:code="I3"><path style="stroke-width: 1.42 ;&st7;  " d=" M  2201.13,   239.75  L  2201.13,   273.74  L  2286.12,   273.74  L  2286.12,   239.75  L  2201.13,   239.75  " /><g ewd:lineID="26"><text style="&st18;" transform="matrix(&st16;  2211.95  236.06 )">4</text><text style="&st18;" transform="matrix(&st16;  2210.28  247.38 )">ANT2</text></g><g ewd:lineID="28"><text style="&st18;" transform="matrix(&st16;  2262.94  236.06 )">6</text><text style="&st18;" transform="matrix(&st16;  2261.27  247.38 )">ANT1</text></g><g ewd:figtype="title"><text style="&st18;" transform="matrix(&st17;  2294.01  276.64 )">I3</text><text style="&st18;" transform="matrix(&st17;  2300.84  276.65 )" ewd:textID="33">Front Door Outside Handle Assembly RH</text></g></g><g ewd:figtype="conn" ewd:figID="23" ewd:code="J3"><path style="stroke-width: 1.42 ;&st7;  " d=" M  2354.11,   239.75  L  2354.11,   273.74  L  2439.09,   273.74  L  2439.09,   239.75  L  2354.11,   239.75  " /><g ewd:lineID="30"><text style="&st18;" transform="matrix(&st16;  2364.92  236.06 )">4</text><text style="&st18;" transform="matrix(&st16;  2363.25  247.38 )">ANT2</text></g><g ewd:lineID="32"><text style="&st18;" transform="matrix(&st16;  2415.91  236.06 )">6</text><text style="&st18;" transform="matrix(&st16;  2414.25  247.38 )">ANT1</text></g><g ewd:figtype="title"><text style="&st18;" transform="matrix(&st17;  2446.99  276.64 )">J3</text><text style="&st18;" transform="matrix(&st17;  2453.81  276.65 )" ewd:textID="32">Front Door Outside Handle Assembly LH</text></g></g><g ewd:figtype="w2w" ewd:figID="67" ewd:code="IM1"><path style="stroke-width: 1.42 ;&st7;  " d=" M  2213.88,   162.69  L  2218.13,   166.94  L  2222.38,   162.69  " /><path style="stroke-width: 1.42 ;&st7;  " d=" M  2222.38,   166.09  L  2218.13,   170.34  L  2213.88,   166.09  " /><text style="&st18;" transform="matrix(&st16;  2202.4  177.98 )">31</text></g><g ewd:figtype="w2w" ewd:figID="68" ewd:code="IM1"><path style="stroke-width: 1.42 ;&st7;  " d=" M  2264.87,   162.69  L  2269.12,   166.94  L  2273.37,   162.69  " /><path style="stroke-width: 1.42 ;&st7;  " d=" M  2273.37,   166.09  L  2269.12,   170.34  L  2264.87,   166.09  " /><text style="&st18;" transform="matrix(&st16;  2253.39  177.98 )">13</text></g><g ewd:figtype="w2w" ewd:figID="69" ewd:code="JM1"><path style="stroke-width: 1.42 ;&st7;  " d=" M  2366.85,   162.69  L  2371.10,   166.94  L  2375.35,   162.69  " /><path style="stroke-width: 1.42 ;&st7;  " d=" M  2375.35,   166.09  L  2371.10,   170.34  L  2366.85,   166.09  " /><text style="&st18;" transform="matrix(&st16;  2355.37  177.98 )">31</text></g><g ewd:figtype="w2w" ewd:figID="70" ewd:code="JM1"><path style="stroke-width: 1.42 ;&st7;  " d=" M  2417.84,   162.69  L  2422.09,   166.94  L  2426.34,   162.69  " /><path style="stroke-width: 1.42 ;&st7;  " d=" M  2426.34,   166.09  L  2422.09,   170.34  L  2417.84,   166.09  " /><text style="&st18;" transform="matrix(&st16;  2406.36  177.98 )">13</text></g><g ewd:code="1" ewd:figID="164" ewd:comment="" ewd:figtype="comment"><text style="&st18;" transform="matrix(&st16;  2316.71  411.69 )" ewd:textID="2">* 1 :Except Korea</text></g><g ewd:code="4" ewd:figID="169" ewd:comment="" ewd:figtype="comment"><text style="&st18;" transform="matrix(&st16;  2316.71  437.18 )" ewd:textID="5">* 4 :Korea</text></g><g ewd:code="2" ewd:figID="166" ewd:comment="" ewd:figtype="comment"><text style="&st18;" transform="matrix(&st16;  2316.71  420.18 )" ewd:textID="3">* 2 :Driver's Door Only Entry Function</text></g><g ewd:code="3" ewd:figID="165" ewd:comment="2" ewd:figtype="comment"><text style="&st18;" transform="matrix(&st16;  2316.71  428.68 )" ewd:textID="4">* 3 :Except *2</text></g><g ewd:code="7" ewd:figID="190" ewd:comment="" ewd:figtype="comment"><text style="&st18;" transform="matrix(&st16;  2316.71  445.68 )" ewd:textID="8">* 7 :Front Passenger Side w/ Entry Function</text></g></svg>