﻿<?xml version="1.0" encoding="utf-8"?>
<!DOCTYPE svg PUBLIC "-//W3C//DTD SVG 1.0//EN" "http://www.w3.org/TR/2001/REC-SVG-20010904/DTD/svg10.dtd"[
	<!ENTITY ns_flows "http://ns.adobe.com/Flows/1.0/">
	<!ENTITY ns_svg "http://www.w3.org/2000/svg">
	<!ENTITY ns_xlink "http://www.w3.org/1999/xlink">
	<!ENTITY st0 "font-size:7px;font-family:'MS-PGothic';adobe-font-script:japanese;">
	<!ENTITY st1 "font-size:6px;font-family:'ArialMT';">
	<!-- White fill  -->
	<!ENTITY st2 "fill:#FFFFFF;stroke:#000000; stroke-width:1.41;stroke-linecap:round;stroke-linejoin:round;">
	<!-- Yellow fill  -->
	<!ENTITY st3 "fill:#FFFFCC;stroke:#FFFFCC; stroke-width:0.1;stroke-linecap:round;stroke-linejoin:round;">
	<!-- Gray fill  -->
	<!ENTITY st4 "fill:#CCCCCC;stroke:#CCCCCC; stroke-width:0.1;stroke-linecap:round;stroke-linejoin:round;">
	<!-- Light-blue fill -->
	<!ENTITY st5 "fill:#CCECF4;stroke:#000000; stroke-width:1.133;stroke-linecap:round;stroke-linejoin:round;">
	<!ENTITY st6 "fill:none;stroke-linecap:butt; stroke-linejoin:round;">
	<!ENTITY st7 "fill:none;stroke:#000000;stroke-linecap:round;stroke-linejoin:round;">
	<!ENTITY st8 "enable-background:new    ;">
	<!-- Black fill -->
	<!ENTITY st9 "fill:#000000;stroke:#000000; stroke-linecap:round;stroke-linejoin:round;">
	<!-- SRS note   -->
	<!ENTITY st10 "font-size:9px;font-family:'ArialMT';">
	<!ENTITY st11 "font-size:9px;font-family:'Svg Symbol';">
	<!ENTITY st12 "font-size:6px;font-family:'Svg Symbol';">
	<!ENTITY st13 "fill:none;stroke:#ff0000;stroke-linecap:round;stroke-linejoin:round;">
	<!-- Yellow fill  -->
	<!ENTITY st14 "fill:#FFFF00;stroke:#FFFF00; stroke-width:0.1;stroke-linecap:round;stroke-linejoin:round;">
	<!ENTITY st15 "font-size:6px;font-family:'MS-PGothic';adobe-font-script:japanese;">
	<!ENTITY st16 "1.00 0.00 0.00 1.00">
	<!ENTITY st17 "0.00 -1.00 1.00 0.00">
	<!ENTITY st18 "font-size:6px;font-family:'Arial';">
	<!ENTITY st19 "font-size:9px;font-family:'Arial';">
	<!ENTITY st20 "font-size:6px;font-family:'MS-PGothic','MS PGothic';adobe-font-script:japanese;">
	<!ENTITY st21 "font-size:7px;font-family:'MS-PGothic','MS PGothic';adobe-font-script:japanese;">
	<!ATTLIST svg
		xmlns:ewd CDATA #FIXED "http://shcl.co.jp/ewd"
		xmlns:a CDATA #FIXED "http://ns.adobe.com/AdobeSVGViewerExtensions/3.0/"
		ewd:ver CDATA #IMPLIED
	>
	<!ATTLIST a
		ewd:lineID CDATA #IMPLIED
		ewd:groupID CDATA #IMPLIED
		ewd:figtype CDATA #IMPLIED
		ewd:code CDATA #IMPLIED
		ewd:figID CDATA #IMPLIED
		ewd:pinNo CDATA #IMPLIED
		ewd:comment CDATA #IMPLIED >
	<!ATTLIST g
		ewd:lineID CDATA #IMPLIED
		ewd:groupID CDATA #IMPLIED
		ewd:figtype CDATA #IMPLIED
		ewd:code CDATA #IMPLIED
		ewd:figID CDATA #IMPLIED
		ewd:pinNo CDATA #IMPLIED
		ewd:comment CDATA #IMPLIED >
	<!ATTLIST text
		ewd:textID CDATA #IMPLIED >
	<!ATTLIST title
		ewd:textID CDATA #IMPLIED >
]>
<!-- Generator: Shintec Hozumi YS   -->
<svg onload="call_execInitLoadProc_svg('system')" style="overflow:visible;  enable-background:new 0 0 4139.517 710.000" viewBox="0 0 4139.517 710.000" height="710.000" width="4139.517" xml:space="preserve" ewd:ver="2.1.2.9" xmlns="&ns_svg;" xmlns:a="http://ns.adobe.com/AdobeSVGViewerExtensions/3.0/" xmlns:ewd="http://shcl.co.jp/ewd" xmlns:xlink="&ns_xlink;">
<text style="&st18;" transform="matrix(&st17;  2741.35  62.96 )">B</text><text style="&st18;" transform="matrix(&st17;  2945.31  266.81 )">L</text><text style="&st18;" transform="matrix(&st17;  2911.32  267.71 )">W</text><text style="&st18;" transform="matrix(&st17;  2741.35  267.71 )">W</text><text style="&st18;" transform="matrix(&st17;  2775.34  268.48 )">SB</text><path style="stroke-width: 1.42 ;&st7;  " d=" M  2651.56,   197.25  L  2643.06,   197.25  " /><path style="stroke-width: 1.42 ;&st7;  " d=" M  2694.05,   197.25  L  2685.55,   197.25  " /><text style="&st18;" transform="matrix(&st17;  2639.36  166.5 )">SB</text><text style="&st18;" transform="matrix(&st17;  2681.86  165.72 )">W</text><text style="&st18;" transform="matrix(&st17;  2639.36  225.99 )">SB</text><text style="&st18;" transform="matrix(&st17;  2681.86  225.21 )">W</text><path style="stroke-width: 0.85 ;&st7; stroke-dasharray:3, 1.5;" d=" M  2655.49,   260.99  L  2664.62,   260.99  " /><path style="stroke-width: 0.85 ;&st7; stroke-dasharray:3, 1.5;" d=" M  2655.49,   252.49  L  2668.86,   252.49  " /><text style="&st18;" transform="matrix(&st17;  2851.83  267.2 )">G</text><text style="&st18;" transform="matrix(&st17;  2817.83  267.71 )">W</text><text style="&st18;" transform="matrix(&st17;  2911.32  165.72 )">W</text><text style="&st18;" transform="matrix(&st17;  2945.31  167.04 )">LG</text><text style="&st18;" transform="matrix(&st17;  2996.3  165.72 )">W</text><text style="&st18;" transform="matrix(&st17;  2996.3  267.71 )">W</text><text style="&st18;" transform="matrix(&st17;  2775.34  165.22 )">G</text><text style="&st18;" transform="matrix(&st17;  2741.35  165.72 )">W</text><text style="&st18;" transform="matrix(&st17;  2851.83  368.84 )">R</text><text style="&st18;" transform="matrix(&st17;  2817.83  369.69 )">W</text><text style="&st18;" transform="matrix(&st16;  2564.38  40.58 )">B</text><text style="&st18;" transform="matrix(&st16;  2615.37  40.58 )">B</text><text style="&st18;" transform="matrix(&st16;  2615.45  406.02 )">R</text><text style="&st18;" transform="matrix(&st16;  2614.6  389.02 )">W</text><text style="&st18;" transform="matrix(&st16;  2563.61  389.02 )">W</text><text style="&st18;" transform="matrix(&st16;  2564.46  406.02 )">R</text><text style="&st18;" transform="matrix(&st17;  2528.88  156.45 )">B</text><text style="&st18;" transform="matrix(&st17;  2528.88  249.93 )">B</text><path style="stroke-width: 1.42 ;&st7;  " d=" M  2651.56,   265.24  L  2643.06,   265.24  " /><path style="stroke-width: 1.42 ;&st7;  " d=" M  2694.05,   265.24  L  2685.55,   265.24  " /><text style="&st18;" transform="matrix(&st17;  2956.64  269.95 )">(*6)</text><text style="&st18;" transform="matrix(&st17;  2922.65  269.95 )">(*6)</text><text style="&st18;" transform="matrix(&st16;  2610.41  601.49 )">B(*3)</text><text style="&st18;" transform="matrix(&st16;  2609.64  584.49 )">W(*3)</text><text style="&st18;" transform="matrix(&st16;  2558.64  584.49 )">W(*3)</text><text style="&st18;" transform="matrix(&st16;  2559.42  601.49 )">B(*3)</text><g ewd:figtype="conn" ewd:figID="2" ewd:code="F59"><path style="stroke-width: 1.42 ;&st7;  " d=" M  2898.01,    95.27  L  2898.01,   129.26  L  3050.99,   129.26  L  3050.99,    95.27  L  2898.01,    95.27  " /><g ewd:lineID="100"><text style="&st18;" transform="matrix(&st16;  2939.72  137.46 )">22</text><text style="&st18;" transform="matrix(&st16;  2940.73  125.57 )">CA2H</text></g><g ewd:lineID="101"><text style="&st18;" transform="matrix(&st16;  2990.71  137.46 )">16</text><text style="&st18;" transform="matrix(&st16;  2992.15  125.57 )">CA5L</text></g><g ewd:lineID="98"><text style="&st18;" transform="matrix(&st16;  2908.83  137.46 )">7</text><text style="&st18;" transform="matrix(&st16;  2907.16  125.57 )">CA2L</text></g><g ewd:figtype="title"><text style="&st18;" transform="matrix(&st16;  2903.11  91.57 )" ewd:textID="57">Network Gateway ECU</text><text style="&st18;" transform="matrix(&st16;  2903.1  84.75 )">F59</text></g></g><g ewd:figtype="conn" ewd:figID="3" ewd:code="F70"><path style="stroke-width: 0.85 ;&st7;  " d=" M  2855.52,   316.23  L  2855.52,   333.23  " /><path style="stroke-width: 1.42 ;&st7;  " d=" M  2813.03,   316.23  L  2813.03,   333.23  L  2864.02,   333.23  L  2864.02,   316.23  L  2813.03,   316.23  " /><path style="stroke-width: 0.85 ;&st7;  " d=" M  2821.53,   316.23  L  2821.53,   333.23  " /><text style="&st18;" transform="matrix(&st16;  2812.24  341.42 )">19</text><text style="&st18;" transform="matrix(&st16;  2812.24  312.54 )">18</text><text style="&st18;" transform="matrix(&st16;  2849.34  341.42 )">8</text><text style="&st18;" transform="matrix(&st16;  2849.34  312.54 )">7</text><g ewd:figtype="title"><text style="&st18;" transform="matrix(&st17;  2871.92  336.13 )">F70</text><text style="&st18;" transform="matrix(&st17;  2878.74  336.14 )" ewd:textID="60">No. 2 CAN <tspan x="0 " dy="6.0">Junction Connector</tspan></text></g></g><g ewd:figtype="conn" ewd:figID="4" ewd:code="F2,F3"><path style="stroke-width: 1.42 ;&st7;  " d=" M  2728.04,    95.27  L  2728.04,   129.26  L  2796.03,   129.26  L  2796.03,    95.27  L  2728.04,    95.27  " /><g ewd:lineID="86"><text style="&st18;" transform="matrix(&st16;  2733.25  92.71 )">29</text><text style="&st18;" transform="matrix(&st16;  2742.62  92.71 )">C</text><path style="stroke-width: 1.42 ;&st7;   " d=" M  2749.57,    90.74  C  2749.57     88.23   2747.54     86.20   2745.04     86.20  " /><path style="stroke-width: 1.42 ;&st7;   " d=" M  2745.04,    86.20  C  2742.54     86.20   2740.51     88.23   2740.51     90.74  " /><path style="stroke-width: 1.42 ;&st7;   " d=" M  2740.51,    90.74  C  2740.51     93.24   2742.54     95.27   2745.04     95.27  " /><path style="stroke-width: 1.42 ;&st7;   " d=" M  2745.04,    95.27  C  2747.54     95.27   2749.57     93.24   2749.57     90.74  " /><text style="&st18;" transform="matrix(&st16;  2737.39  102.9 )">ABFS</text></g><g ewd:lineID="92"><text style="&st18;" transform="matrix(&st16;  2733.27  135.77 )">20</text><path style="stroke-width: 1.42 ;&st7;   " d=" M  2749.57,   133.80  C  2749.57    131.29   2747.54    129.26   2745.04    129.26  " /><path style="stroke-width: 1.42 ;&st7;   " d=" M  2745.04,   129.26  C  2742.54    129.26   2740.51    131.29   2740.51    133.80  " /><path style="stroke-width: 1.42 ;&st7;   " d=" M  2740.51,   133.80  C  2740.51    136.30   2742.54    138.33   2745.04    138.33  " /><path style="stroke-width: 1.42 ;&st7;   " d=" M  2745.04,   138.33  C  2747.54    138.33   2749.57    136.30   2749.57    133.80  " /><text style="&st18;" transform="matrix(&st16;  2742.85  135.77 )">B</text><text style="&st18;" transform="matrix(&st16;  2736.96  125.57 )">CA3N</text></g><g ewd:lineID="94"><text style="&st18;" transform="matrix(&st16;  2770.37  135.77 )">7</text><path style="stroke-width: 1.42 ;&st7;   " d=" M  2783.57,   133.80  C  2783.57    131.29   2781.54    129.26   2779.04    129.26  " /><path style="stroke-width: 1.42 ;&st7;   " d=" M  2779.04,   129.26  C  2776.53    129.26   2774.50    131.29   2774.50    133.80  " /><path style="stroke-width: 1.42 ;&st7;   " d=" M  2774.50,   133.80  C  2774.50    136.30   2776.53    138.33   2779.04    138.33  " /><path style="stroke-width: 1.42 ;&st7;   " d=" M  2779.04,   138.33  C  2781.54    138.33   2783.57    136.30   2783.57    133.80  " /><text style="&st18;" transform="matrix(&st16;  2776.85  135.77 )">B</text><text style="&st18;" transform="matrix(&st16;  2771.26  125.57 )">CA3P</text></g><g ewd:figtype="title"><text style="&st18;" transform="matrix(&st16;  2798.29  97.5 )">F2(B),F3(C)</text><text style="&st18;" transform="matrix(&st16;  2798.29  104.32 )" ewd:textID="49">Hybrid Vehicle <tspan x="0 " dy="6.0">Control ECU</tspan></text></g></g><g ewd:figtype="conn" ewd:figID="5" ewd:code="C31"><path style="stroke-width: 1.42 ;&st7;  " d=" M  2626.06,    95.27  L  2626.06,   129.26  L  2702.55,   129.26  L  2702.55,    95.27  L  2626.06,    95.27  " /><g ewd:lineID="88"><text style="&st18;" transform="matrix(&st16;  2631.26  135.77 )">31</text><path style="stroke-width: 1.42 ;&st7;   " d=" M  2647.59,   133.80  C  2647.59    131.29   2645.56    129.26   2643.06    129.26  " /><path style="stroke-width: 1.42 ;&st7;   " d=" M  2643.06,   129.26  C  2640.56    129.26   2638.53    131.29   2638.53    133.80  " /><path style="stroke-width: 1.42 ;&st7;   " d=" M  2638.53,   133.80  C  2638.53    136.30   2640.56    138.33   2643.06    138.33  " /><path style="stroke-width: 1.42 ;&st7;   " d=" M  2643.06,   138.33  C  2645.56    138.33   2647.59    136.30   2647.59    133.80  " /><text style="&st18;" transform="matrix(&st16;  2640.87  135.77 )">B</text><text style="&st18;" transform="matrix(&st16;  2634.98  125.57 )">CAN+</text></g><g ewd:lineID="90"><text style="&st18;" transform="matrix(&st16;  2673.76  135.77 )">32</text><path style="stroke-width: 1.42 ;&st7;   " d=" M  2690.08,   133.80  C  2690.08    131.29   2688.05    129.26   2685.55    129.26  " /><path style="stroke-width: 1.42 ;&st7;   " d=" M  2685.55,   129.26  C  2683.05    129.26   2681.02    131.29   2681.02    133.80  " /><path style="stroke-width: 1.42 ;&st7;   " d=" M  2681.02,   133.80  C  2681.02    136.30   2683.05    138.33   2685.55    138.33  " /><path style="stroke-width: 1.42 ;&st7;   " d=" M  2685.55,   138.33  C  2688.05    138.33   2690.08    136.30   2690.08    133.80  " /><text style="&st18;" transform="matrix(&st16;  2683.36  135.77 )">B</text><text style="&st18;" transform="matrix(&st16;  2677.47  125.57 )">CAN-</text></g><g ewd:figtype="title"><text style="&st18;" transform="matrix(&st16;  2622.65  84.47 )">C31(B)</text><text style="&st18;" transform="matrix(&st16;  2622.66  91.57 )">ECM</text></g></g><g ewd:figtype="conn" ewd:figID="6" ewd:code="F73"><path style="stroke-width: 0.85 ;&st7;  " d=" M  2743.85,   213.25  L  2743.58,   213.72  L  2743.48,   214.25  L  2743.58,   214.78  L  2743.85,   215.25  L  2744.26,   215.60  L  2744.77,   215.79  L  2745.31,   215.79  L  2745.82,   215.60  L  2746.23,   215.25  L  2746.50,   214.78  L  2746.60,   214.25  L  2746.50,   213.72  L  2746.23,   213.25  L  2745.82,   212.90  L  2745.31,   212.71  L  2744.77,   212.71  L  2744.26,   212.90  L  2743.85,   213.25  L  2744.24,   213.96  L  2744.24,   214.54  L  2744.62,   214.99  L  2745.19,   215.09  L  2745.69,   214.80  L  2745.89,   214.25  L  2745.69,   213.70  L  2745.19,   213.41  L  2744.62,   213.51  L  2745.04,   214.25  " /><path style="stroke-width: 0.85 ;&st7;  " d=" M  2777.84,   204.75  L  2777.57,   205.22  L  2777.48,   205.75  L  2777.57,   206.28  L  2777.84,   206.75  L  2778.26,   207.10  L  2778.76,   207.29  L  2779.31,   207.29  L  2779.81,   207.10  L  2780.23,   206.75  L  2780.50,   206.28  L  2780.59,   205.75  L  2780.50,   205.22  L  2780.23,   204.75  L  2779.81,   204.40  L  2779.31,   204.22  L  2778.76,   204.22  L  2778.26,   204.40  L  2777.84,   204.75  L  2778.24,   205.46  L  2778.24,   206.04  L  2778.61,   206.49  L  2779.18,   206.59  L  2779.69,   206.30  L  2779.88,   205.75  L  2779.69,   205.20  L  2779.18,   204.92  L  2778.61,   205.01  L  2779.03,   205.75  " /><path style="stroke-width: 0.85 ;&st7;  " d=" M  2949.01,   205.75  L  2779.03,   205.75  " /><path style="stroke-width: 0.85 ;&st7;  " d=" M  2915.01,   214.25  L  2745.04,   214.25  " /><path style="stroke-width: 0.85 ;&st7;  " d=" M  2779.03,   197.25  L  2779.03,   222.75  " /><path style="stroke-width: 0.85 ;&st7;  " d=" M  2745.04,   197.25  L  2745.04,   222.75  " /><path style="stroke-width: 1.42 ;&st7;  " d=" M  2736.54,   197.25  L  2736.54,   222.75  L  2957.50,   222.75  L  2957.50,   197.25  L  2736.54,   197.25  " /><path style="stroke-width: 0.85 ;&st7;  " d=" M  2820.33,   213.25  L  2820.06,   213.72  L  2819.97,   214.25  L  2820.06,   214.78  L  2820.33,   215.25  L  2820.75,   215.60  L  2821.26,   215.79  L  2821.80,   215.79  L  2822.31,   215.60  L  2822.72,   215.25  L  2822.99,   214.78  L  2823.09,   214.25  L  2822.99,   213.72  L  2822.72,   213.25  L  2822.31,   212.90  L  2821.80,   212.71  L  2821.26,   212.71  L  2820.75,   212.90  L  2820.33,   213.25  L  2820.73,   213.96  L  2820.73,   214.54  L  2821.10,   214.99  L  2821.67,   215.09  L  2822.18,   214.80  L  2822.38,   214.25  L  2822.18,   213.70  L  2821.67,   213.41  L  2821.10,   213.51  L  2821.53,   214.25  " /><path style="stroke-width: 0.85 ;&st7;  " d=" M  2854.33,   204.75  L  2854.06,   205.22  L  2853.96,   205.75  L  2854.06,   206.28  L  2854.33,   206.75  L  2854.74,   207.10  L  2855.25,   207.29  L  2855.79,   207.29  L  2856.30,   207.10  L  2856.71,   206.75  L  2856.99,   206.28  L  2857.08,   205.75  L  2856.99,   205.22  L  2856.71,   204.75  L  2856.30,   204.40  L  2855.79,   204.22  L  2855.25,   204.22  L  2854.74,   204.40  L  2854.33,   204.75  L  2854.72,   205.46  L  2854.72,   206.04  L  2855.10,   206.49  L  2855.67,   206.59  L  2856.17,   206.30  L  2856.37,   205.75  L  2856.17,   205.20  L  2855.67,   204.92  L  2855.10,   205.01  L  2855.52,   205.75  " /><path style="stroke-width: 0.85 ;&st7;  " d=" M  2855.52,   205.75  L  2855.52,   222.75  " /><path style="stroke-width: 0.85 ;&st7;  " d=" M  2821.53,   214.25  L  2821.53,   222.75  " /><path style="stroke-width: 0.85 ;&st7;  " d=" M  2949.01,   197.25  L  2949.01,   222.75  " /><path style="stroke-width: 0.85 ;&st7;  " d=" M  2915.01,   197.25  L  2915.01,   222.75  " /><path style="stroke-width: 0.85 ;&st7;  " d=" M  2913.82,   213.25  L  2913.55,   213.72  L  2913.45,   214.25  L  2913.55,   214.78  L  2913.82,   215.25  L  2914.23,   215.60  L  2914.74,   215.79  L  2915.28,   215.79  L  2915.79,   215.60  L  2916.20,   215.25  L  2916.48,   214.78  L  2916.57,   214.25  L  2916.48,   213.72  L  2916.20,   213.25  L  2915.79,   212.90  L  2915.28,   212.71  L  2914.74,   212.71  L  2914.23,   212.90  L  2913.82,   213.25  L  2914.21,   213.96  L  2914.21,   214.54  L  2914.59,   214.99  L  2915.16,   215.09  L  2915.66,   214.80  L  2915.86,   214.25  L  2915.66,   213.70  L  2915.16,   213.41  L  2914.59,   213.51  L  2915.01,   214.25  " /><path style="stroke-width: 0.85 ;&st7;  " d=" M  2947.81,   204.75  L  2947.54,   205.22  L  2947.45,   205.75  L  2947.54,   206.28  L  2947.81,   206.75  L  2948.23,   207.10  L  2948.74,   207.29  L  2949.28,   207.29  L  2949.79,   207.10  L  2950.20,   206.75  L  2950.47,   206.28  L  2950.56,   205.75  L  2950.47,   205.22  L  2950.20,   204.75  L  2949.79,   204.40  L  2949.28,   204.22  L  2948.74,   204.22  L  2948.23,   204.40  L  2947.81,   204.75  L  2948.21,   205.46  L  2948.21,   206.04  L  2948.58,   206.49  L  2949.15,   206.59  L  2949.66,   206.30  L  2949.86,   205.75  L  2949.66,   205.20  L  2949.15,   204.92  L  2948.58,   205.01  L  2949.01,   205.75  " /><text style="&st18;" transform="matrix(&st16;  2942.82  193.56 )">2</text><text style="&st18;" transform="matrix(&st16;  2905.73  230.94 )">16</text><text style="&st18;" transform="matrix(&st16;  2735.76  230.94 )">14</text><text style="&st18;" transform="matrix(&st16;  2735.76  193.56 )">15</text><text style="&st18;" transform="matrix(&st16;  2772.85  230.94 )">3</text><text style="&st18;" transform="matrix(&st16;  2772.85  193.56 )">4</text><text style="&st18;" transform="matrix(&st16;  2812.24  230.94 )">12</text><text style="&st18;" transform="matrix(&st16;  2849.34  230.94 )">1</text><text style="&st18;" transform="matrix(&st16;  2905.73  193.56 )">13</text><text style="&st18;" transform="matrix(&st16;  2942.82  230.94 )">5</text><g ewd:figtype="title"><text style="&st18;" transform="matrix(&st16;  2801.12  180.78 )">F73</text><text style="&st18;" transform="matrix(&st16;  2801.13  187.61 )" ewd:textID="64">No. 5 CAN <tspan x="0 " dy="6.0">Junction Connector</tspan></text></g></g><g ewd:figtype="conn" ewd:figID="7" ewd:code="F71"><path style="stroke-width: 0.85 ;&st7;  " d=" M  3033.99,   222.75  L  3033.99,   205.75  " /><path style="stroke-width: 1.42 ;&st7;  " d=" M  2991.50,   205.75  L  2991.50,   222.75  L  3042.49,   222.75  L  3042.49,   205.75  L  2991.50,   205.75  " /><path style="stroke-width: 0.85 ;&st7;  " d=" M  3000.00,   222.75  L  3000.00,   205.75  " /><text style="&st18;" transform="matrix(&st16;  2990.71  202.06 )">17</text><text style="&st18;" transform="matrix(&st16;  3027.81  202.06 )">6</text><text style="&st18;" transform="matrix(&st16;  3027.81  230.94 )">1</text><text style="&st18;" transform="matrix(&st16;  2990.71  230.94 )">12</text><g ewd:figtype="title"><text style="&st18;" transform="matrix(&st17;  3057.21  225.65 )" ewd:textID="63">No. 3 CAN <tspan x="0 " dy="6.0">Junction Connector</tspan></text><text style="&st18;" transform="matrix(&st17;  3050.39  225.65 )">F71</text></g></g><g ewd:figtype="jb" ewd:figID="50" ewd:code="3"><path style="stroke-width: 1.42 ;&st7;  " d=" M  2534.70,   180.26  L  2530.45,   180.26  " /><path style="stroke-width: 1.42 ;&st7;  " d=" M  2534.70,   171.76  L  2530.45,   171.76  " /><path style="stroke-width: 1.42 ;&st7;  " d=" M  2534.70,   214.25  L  2530.45,   214.25  " /><path style="stroke-width: 1.42 ;&st7;  " d=" M  2534.70,   222.75  L  2530.45,   222.75  " /><path style="stroke-width: 1.42 ;&st7;   " d=" M  2530.45,   171.76  C  2528.11    171.76   2526.20    173.66   2526.20    176.01  " /><path style="stroke-width: 1.42 ;&st7;   " d=" M  2526.20,   176.01  C  2526.20    178.35   2528.11    180.26   2530.45    180.26  " /><path style="stroke-width: 1.42 ;&st7;   " d=" M  2534.70,   180.26  C  2537.05    180.26   2538.95    178.35   2538.95    176.01  " /><path style="stroke-width: 1.42 ;&st7;   " d=" M  2538.95,   176.01  C  2538.95    173.66   2537.05    171.76   2534.70    171.76  " /><path style="stroke-width: 1.42 ;&st7;   " d=" M  2530.45,   214.25  C  2528.11    214.25   2526.20    216.15   2526.20    218.50  " /><path style="stroke-width: 1.42 ;&st7;   " d=" M  2526.20,   218.50  C  2526.20    220.85   2528.11    222.75   2530.45    222.75  " /><path style="stroke-width: 1.42 ;&st7;   " d=" M  2534.70,   222.75  C  2537.05    222.75   2538.95    220.85   2538.95    218.50  " /><path style="stroke-width: 1.42 ;&st7;   " d=" M  2538.95,   218.50  C  2538.95    216.15   2537.05    214.25   2534.70    214.25  " /><path style="stroke-width: 0.28 ;&st9;  " d=" M  2532.58,   185.15  L  2535.41,   187.98  L  2535.41,   183.73  L  2532.58,   180.90  L  2529.74,   183.73  L  2529.74,   187.98  L  2532.58,   185.15  " /><path style="stroke-width: 0.28 ;&st9;  " d=" M  2532.58,   209.35  L  2529.74,   206.52  L  2529.74,   210.77  L  2532.58,   213.60  L  2535.41,   210.77  L  2535.41,   206.52  L  2532.58,   209.35  " /><path style="stroke-width: 0.85 ;&st7;  " d=" M  2532.58,   214.25  L  2532.58,   180.26  " /><text style="&st18;" transform="matrix(&st16;  2528.72  177.98 )">3A</text><text style="&st18;" transform="matrix(&st16;  2518.97  177.98 )">27</text><text style="&st18;" transform="matrix(&st16;  2528.72  220.47 )">3A</text><text style="&st18;" transform="matrix(&st16;  2518.97  220.47 )">26</text></g><g ewd:figtype="w2w" ewd:figID="70" ewd:code="AF1"><path style="stroke-width: 1.42 ;&st7;  " d=" M  2647.31,   270.91  L  2643.06,   266.66  L  2638.81,   270.91  " /><path style="stroke-width: 1.42 ;&st7;  " d=" M  2647.31,   274.31  L  2643.06,   270.06  L  2638.81,   274.31  " /><text style="&st18;" transform="matrix(&st16;  2627.32  262.96 )">21</text></g><g ewd:figtype="w2w" ewd:figID="71" ewd:code="AF3"><text style="&st18;" transform="matrix(&st16;  2630.43  254.46 )">1</text></g><g ewd:figtype="w2w" ewd:figID="72" ewd:code="CA2"><path style="stroke-width: 1.42 ;&st7;  " d=" M  2647.31,   202.92  L  2643.06,   198.67  L  2638.81,   202.92  " /><path style="stroke-width: 1.42 ;&st7;  " d=" M  2647.31,   206.32  L  2643.06,   202.07  L  2638.81,   206.32  " /><text style="&st18;" transform="matrix(&st16;  2627.32  194.97 )">11</text></g><g ewd:figtype="w2w" ewd:figID="73" ewd:code="AF1"><path style="stroke-width: 1.42 ;&st7;  " d=" M  2689.80,   270.91  L  2685.55,   266.66  L  2681.30,   270.91  " /><path style="stroke-width: 1.42 ;&st7;  " d=" M  2689.80,   274.31  L  2685.55,   270.06  L  2681.30,   274.31  " /><text style="&st18;" transform="matrix(&st16;  2669.82  262.96 )">20</text></g><g ewd:figtype="w2w" ewd:figID="74" ewd:code="AF3"><text style="&st18;" transform="matrix(&st16;  2672.92  254.46 )">7</text></g><g ewd:figtype="w2w" ewd:figID="75" ewd:code="CA2"><path style="stroke-width: 1.42 ;&st7;  " d=" M  2689.80,   202.92  L  2685.55,   198.67  L  2681.30,   202.92  " /><path style="stroke-width: 1.42 ;&st7;  " d=" M  2689.80,   206.32  L  2685.55,   202.07  L  2681.30,   206.32  " /><text style="&st18;" transform="matrix(&st16;  2669.82  194.97 )">10</text></g><g ewd:code="" ewd:figID="124" ewd:comment="" ewd:figtype="commref"><text style="&st18;" transform="matrix(&st16;  2694.58  262.96 )">(RHD)</text></g><g ewd:code="" ewd:figID="125" ewd:comment="" ewd:figtype="commref"><text style="&st18;" transform="matrix(&st16;  2694.58  254.46 )">(LHD)</text></g></svg>